{"failedCount":4,"prefixedPath":"src\/test\/java\/api1.feature","packageQualifiedName":"src.test.java.api1","loopIndex":-1,"relativePath":"src\/test\/java\/api1.feature","scenarioResults":[{"sectionIndex":0,"stepResults":[{"result":{"nanos":110778401,"millis":110.778401,"status":"passed"},"step":{"line":4,"prefix":"Given","index":0,"text":"url \"https:\/\/reqres.in\/api\""}},{"result":{"nanos":650600,"millis":0.6506,"status":"passed"},"step":{"line":5,"prefix":"Given","index":1,"text":"path '\/users'"}},{"result":{"nanos":3445662799,"millis":3445.662799,"status":"passed"},"step":{"line":6,"prefix":"When","index":2,"text":"method GET"},"stepLog":"21:20:19.400 request:\n1 > GET https:\/\/reqres.in\/api\/users\n1 > Host: reqres.in\n1 > Connection: Keep-Alive\n1 > User-Agent: Apache-HttpClient\/4.5.13 (Java\/11.0.19)\n1 > Accept-Encoding: gzip,deflate\n\n\n21:20:22.151 response time in milliseconds: 2746\n1 < 200\n1 < Date: Wed, 08 Nov 2023 15:50:05 GMT\n1 < Content-Type: application\/json; charset=utf-8\n1 < Transfer-Encoding: chunked\n1 < Connection: keep-alive\n1 < X-Powered-By: Express\n1 < Access-Control-Allow-Origin: *\n1 < Etag: W\/\"3e4-2RLXvr5wTg9YQ6aH95CkYoFNuO8\"\n1 < Via: 1.1 vegur\n1 < Cache-Control: max-age=14400\n1 < CF-Cache-Status: HIT\n1 < Age: 3062\n1 < Report-To: {\"endpoints\":[{\"url\":\"https:\\\/\\\/a.nel.cloudflare.com\\\/report\\\/v3?s=kH3mTu12N92yN%2BlokkHOtRGbvZ%2FqEKwhSGSq%2FJT22rz0mLemCm7myhUce%2BDNBAUsaaqbvzIt507xULOsDUwl8QdWuEbVH%2BWp8kXFmrAQCHOK%2FCUFBKM0ns0VZA%3D%3D\"}],\"group\":\"cf-nel\",\"max_age\":604800}\n1 < NEL: {\"success_fraction\":0,\"report_to\":\"cf-nel\",\"max_age\":604800}\n1 < Vary: Accept-Encoding\n1 < Server: cloudflare\n1 < CF-RAY: 822ef839ad730eb9-HKG\n{\"page\":1,\"per_page\":6,\"total\":12,\"total_pages\":2,\"data\":[{\"id\":1,\"email\":\"george.bluth@reqres.in\",\"first_name\":\"George\",\"last_name\":\"Bluth\",\"avatar\":\"https:\/\/reqres.in\/img\/faces\/1-image.jpg\"},{\"id\":2,\"email\":\"janet.weaver@reqres.in\",\"first_name\":\"Janet\",\"last_name\":\"Weaver\",\"avatar\":\"https:\/\/reqres.in\/img\/faces\/2-image.jpg\"},{\"id\":3,\"email\":\"emma.wong@reqres.in\",\"first_name\":\"Emma\",\"last_name\":\"Wong\",\"avatar\":\"https:\/\/reqres.in\/img\/faces\/3-image.jpg\"},{\"id\":4,\"email\":\"eve.holt@reqres.in\",\"first_name\":\"Eve\",\"last_name\":\"Holt\",\"avatar\":\"https:\/\/reqres.in\/img\/faces\/4-image.jpg\"},{\"id\":5,\"email\":\"charles.morris@reqres.in\",\"first_name\":\"Charles\",\"last_name\":\"Morris\",\"avatar\":\"https:\/\/reqres.in\/img\/faces\/5-image.jpg\"},{\"id\":6,\"email\":\"tracey.ramos@reqres.in\",\"first_name\":\"Tracey\",\"last_name\":\"Ramos\",\"avatar\":\"https:\/\/reqres.in\/img\/faces\/6-image.jpg\"}],\"support\":{\"url\":\"https:\/\/reqres.in\/#support-heading\",\"text\":\"To keep ReqRes free, contributions towards server costs are appreciated!\"}}\n\n"},{"result":{"nanos":30301,"millis":0.030301,"status":"passed"},"step":{"line":7,"prefix":"Then","index":3,"text":"status 200"}},{"result":{"nanos":80481601,"millis":80.481601,"status":"passed"},"step":{"line":8,"prefix":"And","index":4,"text":"match response.data[*].id == '#[_ >1]'"}}],"executorName":"main","line":3,"name":"Get a list of users","description":"","durationMillis":3637.603702,"startTime":1699458618639,"failed":false,"refId":"[1:3]","endTime":1699458622293,"exampleIndex":-1},{"sectionIndex":1,"stepResults":[{"result":{"nanos":785799,"millis":0.785799,"status":"passed"},"step":{"line":12,"prefix":"Given","index":0,"text":"url \"https:\/\/reqres.in\/api\/users\""}},{"result":{"nanos":578100,"millis":0.5781,"status":"passed"},"step":{"line":13,"prefix":"Given","index":1,"text":"path  \"1\""}},{"result":{"nanos":346226401,"millis":346.226401,"status":"passed"},"step":{"line":14,"prefix":"When","index":2,"text":"method  GET"},"stepLog":"21:20:22.305 request:\n1 > GET https:\/\/reqres.in\/api\/users\/1\n1 > Host: reqres.in\n1 > Connection: Keep-Alive\n1 > User-Agent: Apache-HttpClient\/4.5.13 (Java\/11.0.19)\n1 > Accept-Encoding: gzip,deflate\n\n\n21:20:22.646 response time in milliseconds: 340\n1 < 200\n1 < Date: Wed, 08 Nov 2023 15:50:05 GMT\n1 < Content-Type: application\/json; charset=utf-8\n1 < Transfer-Encoding: chunked\n1 < Connection: keep-alive\n1 < X-Powered-By: Express\n1 < Access-Control-Allow-Origin: *\n1 < Etag: W\/\"118-P3iKcVpIgCj9HqYeOOrGLX8qJVc\"\n1 < Via: 1.1 vegur\n1 < Cache-Control: max-age=14400\n1 < CF-Cache-Status: HIT\n1 < Age: 4538\n1 < Report-To: {\"endpoints\":[{\"url\":\"https:\\\/\\\/a.nel.cloudflare.com\\\/report\\\/v3?s=GLeaq9tt7u2WxKLaZLmPSCyBeiAZuj1FA%2FaeDbX6ZbNTgvcLQKUn7Bza%2FdxCqe1i5QDKbkg2C%2BQMUjA8JjvABLpkMvqxjVKTbeL1GjTjAIyPPxSm8jsF1rbTiA%3D%3D\"}],\"group\":\"cf-nel\",\"max_age\":604800}\n1 < NEL: {\"success_fraction\":0,\"report_to\":\"cf-nel\",\"max_age\":604800}\n1 < Vary: Accept-Encoding\n1 < Server: cloudflare\n1 < CF-RAY: 822ef83d7db585ea-BOM\n{\"data\":{\"id\":1,\"email\":\"george.bluth@reqres.in\",\"first_name\":\"George\",\"last_name\":\"Bluth\",\"avatar\":\"https:\/\/reqres.in\/img\/faces\/1-image.jpg\"},\"support\":{\"url\":\"https:\/\/reqres.in\/#support-heading\",\"text\":\"To keep ReqRes free, contributions towards server costs are appreciated!\"}}\n\n"},{"result":{"nanos":294299,"errorMessage":"status code was: 200, expected: 404, response time in milliseconds: 340, url: https:\/\/reqres.in\/api\/users\/1, response: \n{\"data\":{\"id\":1,\"email\":\"george.bluth@reqres.in\",\"first_name\":\"George\",\"last_name\":\"Bluth\",\"avatar\":\"https:\/\/reqres.in\/img\/faces\/1-image.jpg\"},\"support\":{\"url\":\"https:\/\/reqres.in\/#support-heading\",\"text\":\"To keep ReqRes free, contributions towards server costs are appreciated!\"}}\nsrc\/test\/java\/api1.feature:15","millis":0.294299,"status":"failed"},"step":{"line":15,"prefix":"Then","index":3,"text":"status  404"},"stepLog":"21:20:22.650 src\/test\/java\/api1.feature:15\nThen status  404\nstatus code was: 200, expected: 404, response time in milliseconds: 340, url: https:\/\/reqres.in\/api\/users\/1, response: \n{\"data\":{\"id\":1,\"email\":\"george.bluth@reqres.in\",\"first_name\":\"George\",\"last_name\":\"Bluth\",\"avatar\":\"https:\/\/reqres.in\/img\/faces\/1-image.jpg\"},\"support\":{\"url\":\"https:\/\/reqres.in\/#support-heading\",\"text\":\"To keep ReqRes free, contributions towards server costs are appreciated!\"}}\nsrc\/test\/java\/api1.feature:15\n"}],"line":11,"description":"","durationMillis":347.884599,"failed":true,"error":"status code was: 200, expected: 404, response time in milliseconds: 340, url: https:\/\/reqres.in\/api\/users\/1, response: \n{\"data\":{\"id\":1,\"email\":\"george.bluth@reqres.in\",\"first_name\":\"George\",\"last_name\":\"Bluth\",\"avatar\":\"https:\/\/reqres.in\/img\/faces\/1-image.jpg\"},\"support\":{\"url\":\"https:\/\/reqres.in\/#support-heading\",\"text\":\"To keep ReqRes free, contributions towards server costs are appreciated!\"}}\nsrc\/test\/java\/api1.feature:15","executorName":"main","name":"Get user details - user not found","startTime":1699458622300,"refId":"[2:11]","endTime":1699458622650,"exampleIndex":-1},{"sectionIndex":2,"stepResults":[{"result":{"nanos":647700,"millis":0.6477,"status":"passed"},"step":{"line":19,"prefix":"Given","index":0,"text":"url \"https:\/\/reqres.in\/api\""}},{"result":{"nanos":1059201,"millis":1.059201,"status":"passed"},"step":{"line":20,"prefix":"Given","index":1,"text":"path  \"\/users\""}},{"result":{"nanos":8012400,"millis":8.0124,"status":"passed"},"step":{"line":21,"prefix":"And","index":2,"text":"request {\"name\": \"John Doe\",\"job\":\"Software Engineer\"}"}},{"result":{"nanos":2322591899,"millis":2322.591899,"status":"passed"},"step":{"line":22,"prefix":"When","index":3,"text":"method  POST"},"stepLog":"21:20:22.875 request:\n1 > POST https:\/\/reqres.in\/api\/users\n1 > Content-Type: application\/json; charset=UTF-8\n1 > Content-Length: 45\n1 > Host: reqres.in\n1 > Connection: Keep-Alive\n1 > User-Agent: Apache-HttpClient\/4.5.13 (Java\/11.0.19)\n1 > Accept-Encoding: gzip,deflate\n{\"name\":\"John Doe\",\"job\":\"Software Engineer\"}\n\n21:20:24.993 response time in milliseconds: 2118\n1 < 530\n1 < Date: Wed, 08 Nov 2023 15:50:07 GMT\n1 < Content-Type: text\/plain; charset=UTF-8\n1 < Content-Length: 16\n1 < Connection: keep-alive\n1 < Report-To: {\"endpoints\":[{\"url\":\"https:\\\/\\\/a.nel.cloudflare.com\\\/report\\\/v3?s=Yz%2BbG8cPn9OOpedA%2BUXOj106DtnUsxHEpe44mi5NrtyicwdASow%2BZ8UoCI6WMfx1odPA9D9jHnEF2dudY9y4owFYHeyHyD1akMzoHSfc8W3fGFFh6%2FTMkr2sNw%3D%3D\"}],\"group\":\"cf-nel\",\"max_age\":604800}\n1 < NEL: {\"success_fraction\":0,\"report_to\":\"cf-nel\",\"max_age\":604800}\n1 < X-Frame-Options: SAMEORIGIN\n1 < Referrer-Policy: same-origin\n1 < Cache-Control: private, max-age=0, no-store, no-cache, must-revalidate, post-check=0, pre-check=0\n1 < Expires: Thu, 01 Jan 1970 00:00:01 GMT\n1 < Server: cloudflare\n1 < CF-RAY: 822ef84baa154cdd-SIN\nerror code: 1016\n\n"},{"result":{"nanos":120699,"errorMessage":"status code was: 530, expected: 201, response time in milliseconds: 2118, url: https:\/\/reqres.in\/api\/users, response: \nerror code: 1016\nsrc\/test\/java\/api1.feature:23","millis":0.120699,"status":"failed"},"step":{"line":23,"prefix":"Then","index":4,"text":"status  201"},"stepLog":"21:20:24.997 src\/test\/java\/api1.feature:23\nThen status  201\nstatus code was: 530, expected: 201, response time in milliseconds: 2118, url: https:\/\/reqres.in\/api\/users, response: \nerror code: 1016\nsrc\/test\/java\/api1.feature:23\n"},{"result":{"nanos":0,"millis":0.0,"status":"skipped"},"step":{"line":24,"prefix":"And","index":5,"text":"match response.job == \"Software Engineer\""}}],"line":18,"description":"","durationMillis":2332.431899,"failed":true,"error":"status code was: 530, expected: 201, response time in milliseconds: 2118, url: https:\/\/reqres.in\/api\/users, response: \nerror code: 1016\nsrc\/test\/java\/api1.feature:23","executorName":"main","name":"Create a new user","startTime":1699458622664,"refId":"[3:18]","endTime":1699458624997,"exampleIndex":-1},{"sectionIndex":3,"stepResults":[{"result":{"nanos":685900,"millis":0.6859,"status":"passed"},"step":{"line":27,"prefix":"Given","index":0,"text":"url \"https:\/\/reqres.in\/api\""}},{"result":{"nanos":1464699,"millis":1.464699,"status":"passed"},"step":{"line":28,"prefix":"Given","index":1,"text":"path  \"\/users\/2\""}},{"result":{"nanos":1366600,"millis":1.3666,"status":"passed"},"step":{"line":29,"prefix":"And","index":2,"text":"request {\"job\": \"zion resident\"}"}},{"result":{"nanos":305565101,"millis":305.565101,"status":"passed"},"step":{"line":30,"prefix":"When","index":3,"text":"method  PUT"},"stepLog":"21:20:25.026 request:\n1 > PUT https:\/\/reqres.in\/api\/users\/2\n1 > Content-Type: application\/json; charset=UTF-8\n1 > Content-Length: 23\n1 > Host: reqres.in\n1 > Connection: Keep-Alive\n1 > User-Agent: Apache-HttpClient\/4.5.13 (Java\/11.0.19)\n1 > Accept-Encoding: gzip,deflate\n{\"job\":\"zion resident\"}\n\n21:20:25.323 response time in milliseconds: 297\n1 < 530\n1 < Date: Wed, 08 Nov 2023 15:50:08 GMT\n1 < Content-Type: text\/plain; charset=UTF-8\n1 < Content-Length: 16\n1 < Connection: keep-alive\n1 < Report-To: {\"endpoints\":[{\"url\":\"https:\\\/\\\/a.nel.cloudflare.com\\\/report\\\/v3?s=9%2B3mAw2V9R4ff4nSaobvNaRbqtUo9YBo8J%2FEsCujL1RxUr%2BpmAkwtoxa8Esa6sIZwlUnEeGEaB2imXC%2Bm%2FJnXZJvaUoqL%2FdHIM7cBWcbhuXbXTIzErK99wMF%2Fg%3D%3D\"}],\"group\":\"cf-nel\",\"max_age\":604800}\n1 < NEL: {\"success_fraction\":0,\"report_to\":\"cf-nel\",\"max_age\":604800}\n1 < Vary: Accept-Encoding\n1 < X-Frame-Options: SAMEORIGIN\n1 < Referrer-Policy: same-origin\n1 < Cache-Control: private, max-age=0, no-store, no-cache, must-revalidate, post-check=0, pre-check=0\n1 < Expires: Thu, 01 Jan 1970 00:00:01 GMT\n1 < Server: cloudflare\n1 < CF-RAY: 822ef84e4b5f3a1f-BOM\nerror code: 1016\n\n"},{"result":{"nanos":95601,"errorMessage":"status code was: 530, expected: 200, response time in milliseconds: 297, url: https:\/\/reqres.in\/api\/users\/2, response: \nerror code: 1016\nsrc\/test\/java\/api1.feature:31","millis":0.095601,"status":"failed"},"step":{"line":31,"prefix":"Then","index":4,"text":"status  200"},"stepLog":"21:20:25.327 src\/test\/java\/api1.feature:31\nThen status  200\nstatus code was: 530, expected: 200, response time in milliseconds: 297, url: https:\/\/reqres.in\/api\/users\/2, response: \nerror code: 1016\nsrc\/test\/java\/api1.feature:31\n"},{"result":{"nanos":0,"millis":0.0,"status":"skipped"},"step":{"line":32,"prefix":"And","index":5,"text":"match response.job == \"zion resident\""}}],"line":26,"description":"","durationMillis":309.177901,"failed":true,"error":"status code was: 530, expected: 200, response time in milliseconds: 297, url: https:\/\/reqres.in\/api\/users\/2, response: \nerror code: 1016\nsrc\/test\/java\/api1.feature:31","executorName":"main","name":"Update user","startTime":1699458625015,"refId":"[4:26]","endTime":1699458625327,"exampleIndex":-1},{"sectionIndex":4,"stepResults":[{"result":{"nanos":592801,"millis":0.592801,"status":"passed"},"step":{"line":35,"prefix":"Given","index":0,"text":"url \"https:\/\/reqres.in\/api\""}},{"result":{"nanos":294100,"millis":0.2941,"status":"passed"},"step":{"line":36,"prefix":"Given","index":1,"text":"path  \"\/users\/2\""}},{"result":{"nanos":20390452201,"millis":20390.452201,"status":"passed"},"step":{"line":37,"prefix":"When","index":2,"text":"method  DELETE"},"stepLog":"21:20:25.343 request:\n1 > DELETE https:\/\/reqres.in\/api\/users\/2\n1 > Host: reqres.in\n1 > Connection: Keep-Alive\n1 > User-Agent: Apache-HttpClient\/4.5.13 (Java\/11.0.19)\n1 > Accept-Encoding: gzip,deflate\n\n\n21:20:45.729 response time in milliseconds: 20385\n1 < 530\n1 < Date: Wed, 08 Nov 2023 15:50:28 GMT\n1 < Content-Type: text\/plain; charset=UTF-8\n1 < Content-Length: 16\n1 < Connection: keep-alive\n1 < Report-To: {\"endpoints\":[{\"url\":\"https:\\\/\\\/a.nel.cloudflare.com\\\/report\\\/v3?s=5OYvJvyU8MwoB%2BL4F8WQB83hnQ823RH6L8GCsb2Edu2ifg6dsQtoy6B3hfCqU1HODXs1bQ%2FDQ6wIYf1xPLxs1OnJhC1jldaWLj1Ek86Kyz5YxoF94XjbjIL9hg%3D%3D\"}],\"group\":\"cf-nel\",\"max_age\":604800}\n1 < NEL: {\"success_fraction\":0,\"report_to\":\"cf-nel\",\"max_age\":604800}\n1 < X-Frame-Options: SAMEORIGIN\n1 < Referrer-Policy: same-origin\n1 < Cache-Control: private, max-age=0, no-store, no-cache, must-revalidate, post-check=0, pre-check=0\n1 < Expires: Thu, 01 Jan 1970 00:00:01 GMT\n1 < Server: cloudflare\n1 < CF-RAY: 822ef8cd8c034b6e-SIN\nerror code: 1016\n\n"},{"result":{"nanos":53601,"errorMessage":"status code was: 530, expected: 204, response time in milliseconds: 20385, url: https:\/\/reqres.in\/api\/users\/2, response: \nerror code: 1016\nsrc\/test\/java\/api1.feature:38","millis":0.053601,"status":"failed"},"step":{"line":38,"prefix":"Then","index":3,"text":"status  204"},"stepLog":"21:20:45.731 src\/test\/java\/api1.feature:38\nThen status  204\nstatus code was: 530, expected: 204, response time in milliseconds: 20385, url: https:\/\/reqres.in\/api\/users\/2, response: \nerror code: 1016\nsrc\/test\/java\/api1.feature:38\n"}],"line":34,"description":"","durationMillis":20391.392703,"failed":true,"error":"status code was: 530, expected: 204, response time in milliseconds: 20385, url: https:\/\/reqres.in\/api\/users\/2, response: \nerror code: 1016\nsrc\/test\/java\/api1.feature:38","executorName":"main","name":"Delete user","startTime":1699458625338,"refId":"[5:34]","endTime":1699458645731,"exampleIndex":-1}],"callDepth":0,"name":"GET API feature","description":"","resultDate":"2023-11-08 09:20:45 PM","durationMillis":27018.490804,"passedCount":1}