{"failedCount":4,"prefixedPath":"src\/test\/java\/api1.feature","packageQualifiedName":"src.test.java.api1","loopIndex":-1,"relativePath":"src\/test\/java\/api1.feature","scenarioResults":[{"sectionIndex":0,"stepResults":[{"result":{"nanos":94774900,"millis":94.7749,"status":"passed"},"step":{"line":4,"prefix":"Given","index":0,"text":"url \"https:\/\/reqres.in\/api\""}},{"result":{"nanos":608600,"millis":0.6086,"status":"passed"},"step":{"line":5,"prefix":"Given","index":1,"text":"path '\/users'"}},{"result":{"nanos":1442372701,"millis":1442.372701,"status":"passed"},"step":{"line":6,"prefix":"When","index":2,"text":"method GET"},"stepLog":"21:16:10.749 request:\n1 > GET https:\/\/reqres.in\/api\/users\n1 > Host: reqres.in\n1 > Connection: Keep-Alive\n1 > User-Agent: Apache-HttpClient\/4.5.13 (Java\/11.0.19)\n1 > Accept-Encoding: gzip,deflate\n\n\n21:16:11.625 response time in milliseconds: 871\n1 < 200\n1 < Date: Wed, 08 Nov 2023 15:45:54 GMT\n1 < Content-Type: application\/json; charset=utf-8\n1 < Transfer-Encoding: chunked\n1 < Connection: keep-alive\n1 < Report-To: {\"group\":\"heroku-nel\",\"max_age\":3600,\"endpoints\":[{\"url\":\"https:\/\/nel.heroku.com\/reports?ts=1699433464&sid=c4c9725f-1ab0-44d8-820f-430df2718e11&s=3IiPSDfOv0eRRMdIDtNVt%2Bj11l3zEKGUxRWDcHO3k7E%3D\"}]}\n1 < Reporting-Endpoints: heroku-nel=https:\/\/nel.heroku.com\/reports?ts=1699433464&sid=c4c9725f-1ab0-44d8-820f-430df2718e11&s=3IiPSDfOv0eRRMdIDtNVt%2Bj11l3zEKGUxRWDcHO3k7E%3D\n1 < Nel: {\"report_to\":\"heroku-nel\",\"max_age\":3600,\"success_fraction\":0.005,\"failure_fraction\":0.05,\"response_headers\":[\"Via\"]}\n1 < X-Powered-By: Express\n1 < Access-Control-Allow-Origin: *\n1 < Etag: W\/\"3e4-2RLXvr5wTg9YQ6aH95CkYoFNuO8\"\n1 < Via: 1.1 vegur\n1 < Cache-Control: max-age=14400\n1 < CF-Cache-Status: HIT\n1 < Age: 4310\n1 < Vary: Accept-Encoding\n1 < Server: cloudflare\n1 < CF-RAY: 822ef21c7f6d6ec5-BOM\n{\"page\":1,\"per_page\":6,\"total\":12,\"total_pages\":2,\"data\":[{\"id\":1,\"email\":\"george.bluth@reqres.in\",\"first_name\":\"George\",\"last_name\":\"Bluth\",\"avatar\":\"https:\/\/reqres.in\/img\/faces\/1-image.jpg\"},{\"id\":2,\"email\":\"janet.weaver@reqres.in\",\"first_name\":\"Janet\",\"last_name\":\"Weaver\",\"avatar\":\"https:\/\/reqres.in\/img\/faces\/2-image.jpg\"},{\"id\":3,\"email\":\"emma.wong@reqres.in\",\"first_name\":\"Emma\",\"last_name\":\"Wong\",\"avatar\":\"https:\/\/reqres.in\/img\/faces\/3-image.jpg\"},{\"id\":4,\"email\":\"eve.holt@reqres.in\",\"first_name\":\"Eve\",\"last_name\":\"Holt\",\"avatar\":\"https:\/\/reqres.in\/img\/faces\/4-image.jpg\"},{\"id\":5,\"email\":\"charles.morris@reqres.in\",\"first_name\":\"Charles\",\"last_name\":\"Morris\",\"avatar\":\"https:\/\/reqres.in\/img\/faces\/5-image.jpg\"},{\"id\":6,\"email\":\"tracey.ramos@reqres.in\",\"first_name\":\"Tracey\",\"last_name\":\"Ramos\",\"avatar\":\"https:\/\/reqres.in\/img\/faces\/6-image.jpg\"}],\"support\":{\"url\":\"https:\/\/reqres.in\/#support-heading\",\"text\":\"To keep ReqRes free, contributions towards server costs are appreciated!\"}}\n\n"},{"result":{"nanos":43401,"millis":0.043401,"status":"passed"},"step":{"line":7,"prefix":"Then","index":3,"text":"status 200"}},{"result":{"nanos":139445801,"millis":139.445801,"status":"passed"},"step":{"line":8,"prefix":"And","index":4,"text":"match response.data[*].id == '#[_ >1]'"}}],"executorName":"main","line":3,"name":"Get a list of users","description":"","durationMillis":1677.245403,"startTime":1699458370152,"failed":false,"refId":"[1:3]","endTime":1699458371848,"exampleIndex":-1},{"sectionIndex":1,"stepResults":[{"result":{"nanos":1040499,"millis":1.040499,"status":"passed"},"step":{"line":12,"prefix":"Given","index":0,"text":"url \"https:\/\/reqres.in\/api\/users\""}},{"result":{"nanos":658001,"millis":0.658001,"status":"passed"},"step":{"line":13,"prefix":"Given","index":1,"text":"path  \"1\""}},{"result":{"nanos":619716000,"millis":619.716,"status":"passed"},"step":{"line":14,"prefix":"When","index":2,"text":"method  GET"},"stepLog":"21:16:11.863 request:\n1 > GET https:\/\/reqres.in\/api\/users\/1\n1 > Host: reqres.in\n1 > Connection: Keep-Alive\n1 > User-Agent: Apache-HttpClient\/4.5.13 (Java\/11.0.19)\n1 > Accept-Encoding: gzip,deflate\n\n\n21:16:12.477 response time in milliseconds: 613\n1 < 200\n1 < Date: Wed, 08 Nov 2023 15:45:55 GMT\n1 < Content-Type: application\/json; charset=utf-8\n1 < Transfer-Encoding: chunked\n1 < Connection: keep-alive\n1 < Report-To: {\"group\":\"heroku-nel\",\"max_age\":3600,\"endpoints\":[{\"url\":\"https:\/\/nel.heroku.com\/reports?ts=1696595979&sid=c4c9725f-1ab0-44d8-820f-430df2718e11&s=j1hE62N6FVU6E3Tt1Pourjs13ILAbLHwryQkDxgF920%3D\"}]}\n1 < Reporting-Endpoints: heroku-nel=https:\/\/nel.heroku.com\/reports?ts=1696595979&sid=c4c9725f-1ab0-44d8-820f-430df2718e11&s=j1hE62N6FVU6E3Tt1Pourjs13ILAbLHwryQkDxgF920%3D\n1 < Nel: {\"report_to\":\"heroku-nel\",\"max_age\":3600,\"success_fraction\":0.005,\"failure_fraction\":0.05,\"response_headers\":[\"Via\"]}\n1 < X-Powered-By: Express\n1 < Access-Control-Allow-Origin: *\n1 < Etag: W\/\"118-P3iKcVpIgCj9HqYeOOrGLX8qJVc\"\n1 < Via: 1.1 vegur\n1 < Cache-Control: max-age=14400\n1 < CF-Cache-Status: HIT\n1 < Age: 1562\n1 < Vary: Accept-Encoding\n1 < Server: cloudflare\n1 < CF-RAY: 822ef2216b838976-SIN\n{\"data\":{\"id\":1,\"email\":\"george.bluth@reqres.in\",\"first_name\":\"George\",\"last_name\":\"Bluth\",\"avatar\":\"https:\/\/reqres.in\/img\/faces\/1-image.jpg\"},\"support\":{\"url\":\"https:\/\/reqres.in\/#support-heading\",\"text\":\"To keep ReqRes free, contributions towards server costs are appreciated!\"}}\n\n"},{"result":{"nanos":304300,"errorMessage":"status code was: 200, expected: 404, response time in milliseconds: 613, url: https:\/\/reqres.in\/api\/users\/1, response: \n{\"data\":{\"id\":1,\"email\":\"george.bluth@reqres.in\",\"first_name\":\"George\",\"last_name\":\"Bluth\",\"avatar\":\"https:\/\/reqres.in\/img\/faces\/1-image.jpg\"},\"support\":{\"url\":\"https:\/\/reqres.in\/#support-heading\",\"text\":\"To keep ReqRes free, contributions towards server costs are appreciated!\"}}\nsrc\/test\/java\/api1.feature:15","millis":0.3043,"status":"failed"},"step":{"line":15,"prefix":"Then","index":3,"text":"status  404"},"stepLog":"21:16:12.481 src\/test\/java\/api1.feature:15\nThen status  404\nstatus code was: 200, expected: 404, response time in milliseconds: 613, url: https:\/\/reqres.in\/api\/users\/1, response: \n{\"data\":{\"id\":1,\"email\":\"george.bluth@reqres.in\",\"first_name\":\"George\",\"last_name\":\"Bluth\",\"avatar\":\"https:\/\/reqres.in\/img\/faces\/1-image.jpg\"},\"support\":{\"url\":\"https:\/\/reqres.in\/#support-heading\",\"text\":\"To keep ReqRes free, contributions towards server costs are appreciated!\"}}\nsrc\/test\/java\/api1.feature:15\n"}],"line":11,"description":"","durationMillis":621.7188,"failed":true,"error":"status code was: 200, expected: 404, response time in milliseconds: 613, url: https:\/\/reqres.in\/api\/users\/1, response: \n{\"data\":{\"id\":1,\"email\":\"george.bluth@reqres.in\",\"first_name\":\"George\",\"last_name\":\"Bluth\",\"avatar\":\"https:\/\/reqres.in\/img\/faces\/1-image.jpg\"},\"support\":{\"url\":\"https:\/\/reqres.in\/#support-heading\",\"text\":\"To keep ReqRes free, contributions towards server costs are appreciated!\"}}\nsrc\/test\/java\/api1.feature:15","executorName":"main","name":"Get user details - user not found","startTime":1699458371858,"refId":"[2:11]","endTime":1699458372481,"exampleIndex":-1},{"sectionIndex":2,"stepResults":[{"result":{"nanos":2613400,"millis":2.6134,"status":"passed"},"step":{"line":19,"prefix":"Given","index":0,"text":"url \"https:\/\/reqres.in\/api\""}},{"result":{"nanos":1587799,"millis":1.587799,"status":"passed"},"step":{"line":20,"prefix":"Given","index":1,"text":"path  \"\/users\""}},{"result":{"nanos":24393800,"millis":24.3938,"status":"passed"},"step":{"line":21,"prefix":"And","index":2,"text":"request {\"name\": \"John Doe\",\"job\":\"Software Engineer\"}"}},{"result":{"nanos":666790700,"millis":666.7907,"status":"passed"},"step":{"line":22,"prefix":"When","index":3,"text":"method  POST"},"stepLog":"21:16:12.868 request:\n1 > POST https:\/\/reqres.in\/api\/users\n1 > Content-Type: application\/json; charset=UTF-8\n1 > Content-Length: 45\n1 > Host: reqres.in\n1 > Connection: Keep-Alive\n1 > User-Agent: Apache-HttpClient\/4.5.13 (Java\/11.0.19)\n1 > Accept-Encoding: gzip,deflate\n{\"name\":\"John Doe\",\"job\":\"Software Engineer\"}\n\n21:16:13.202 response time in milliseconds: 332\n1 < 530\n1 < Date: Wed, 08 Nov 2023 15:45:56 GMT\n1 < Content-Type: text\/plain; charset=UTF-8\n1 < Content-Length: 16\n1 < Connection: keep-alive\n1 < Report-To: {\"endpoints\":[{\"url\":\"https:\\\/\\\/a.nel.cloudflare.com\\\/report\\\/v3?s=yhNojlWzEmCBPCn2%2FUnYZ1ZCBPfYtiU0WjEcPVUFs4GCVeYlnx1YGzRrST3Sp8NcG51UGDA0ee1AbETZ%2B6E49AywpGZR262ph1hBH%2B2dAP9EJbTGnYBRZBcRbA%3D%3D\"}],\"group\":\"cf-nel\",\"max_age\":604800}\n1 < NEL: {\"success_fraction\":0,\"report_to\":\"cf-nel\",\"max_age\":604800}\n1 < X-Frame-Options: SAMEORIGIN\n1 < Referrer-Policy: same-origin\n1 < Cache-Control: private, max-age=0, no-store, no-cache, must-revalidate, post-check=0, pre-check=0\n1 < Expires: Thu, 01 Jan 1970 00:00:01 GMT\n1 < Server: cloudflare\n1 < CF-RAY: 822ef2263e9e85f7-BOM\nerror code: 1016\n\n"},{"result":{"nanos":147199,"errorMessage":"status code was: 530, expected: 201, response time in milliseconds: 332, url: https:\/\/reqres.in\/api\/users, response: \nerror code: 1016\nsrc\/test\/java\/api1.feature:23","millis":0.147199,"status":"failed"},"step":{"line":23,"prefix":"Then","index":4,"text":"status  201"},"stepLog":"21:16:13.206 src\/test\/java\/api1.feature:23\nThen status  201\nstatus code was: 530, expected: 201, response time in milliseconds: 332, url: https:\/\/reqres.in\/api\/users, response: \nerror code: 1016\nsrc\/test\/java\/api1.feature:23\n"},{"result":{"nanos":0,"millis":0.0,"status":"skipped"},"step":{"line":24,"prefix":"And","index":5,"text":"match response.job == \"Software Engineer\""}}],"line":18,"description":"","durationMillis":695.532898,"failed":true,"error":"status code was: 530, expected: 201, response time in milliseconds: 332, url: https:\/\/reqres.in\/api\/users, response: \nerror code: 1016\nsrc\/test\/java\/api1.feature:23","executorName":"main","name":"Create a new user","startTime":1699458372508,"refId":"[3:18]","endTime":1699458373206,"exampleIndex":-1},{"sectionIndex":3,"stepResults":[{"result":{"nanos":1544800,"millis":1.5448,"status":"passed"},"step":{"line":27,"prefix":"Given","index":0,"text":"url \"https:\/\/reqres.in\/api\""}},{"result":{"nanos":1095099,"millis":1.095099,"status":"passed"},"step":{"line":28,"prefix":"Given","index":1,"text":"path  \"\/users\/2\""}},{"result":{"nanos":814800,"millis":0.8148,"status":"passed"},"step":{"line":29,"prefix":"And","index":2,"text":"request {\"job\": \"zion resident\"}"}},{"result":{"nanos":335759800,"millis":335.7598,"status":"passed"},"step":{"line":30,"prefix":"When","index":3,"text":"method  PUT"},"stepLog":"21:16:13.234 request:\n1 > PUT https:\/\/reqres.in\/api\/users\/2\n1 > Content-Type: application\/json; charset=UTF-8\n1 > Content-Length: 23\n1 > Host: reqres.in\n1 > Connection: Keep-Alive\n1 > User-Agent: Apache-HttpClient\/4.5.13 (Java\/11.0.19)\n1 > Accept-Encoding: gzip,deflate\n{\"job\":\"zion resident\"}\n\n21:16:13.563 response time in milliseconds: 328\n1 < 530\n1 < Date: Wed, 08 Nov 2023 15:45:56 GMT\n1 < Content-Type: text\/plain; charset=UTF-8\n1 < Content-Length: 16\n1 < Connection: keep-alive\n1 < Report-To: {\"endpoints\":[{\"url\":\"https:\\\/\\\/a.nel.cloudflare.com\\\/report\\\/v3?s=PFvAJ2h1lD1OoGzkkvFriTEwOIAlAJGCby50PadEctRqOrnFRSw79bie0QHr6xQwKIk4%2F6OUwAdOTC4gc5FhOddYKrX3S8ludCSAIZgo8SdnOUo4KETQZFw7vA%3D%3D\"}],\"group\":\"cf-nel\",\"max_age\":604800}\n1 < NEL: {\"success_fraction\":0,\"report_to\":\"cf-nel\",\"max_age\":604800}\n1 < Vary: Accept-Encoding\n1 < X-Frame-Options: SAMEORIGIN\n1 < Referrer-Policy: same-origin\n1 < Cache-Control: private, max-age=0, no-store, no-cache, must-revalidate, post-check=0, pre-check=0\n1 < Expires: Thu, 01 Jan 1970 00:00:01 GMT\n1 < Server: cloudflare\n1 < CF-RAY: 822ef2286b573a40-BOM\nerror code: 1016\n\n"},{"result":{"nanos":181799,"errorMessage":"status code was: 530, expected: 200, response time in milliseconds: 328, url: https:\/\/reqres.in\/api\/users\/2, response: \nerror code: 1016\nsrc\/test\/java\/api1.feature:31","millis":0.181799,"status":"failed"},"step":{"line":31,"prefix":"Then","index":4,"text":"status  200"},"stepLog":"21:16:13.567 src\/test\/java\/api1.feature:31\nThen status  200\nstatus code was: 530, expected: 200, response time in milliseconds: 328, url: https:\/\/reqres.in\/api\/users\/2, response: \nerror code: 1016\nsrc\/test\/java\/api1.feature:31\n"},{"result":{"nanos":0,"millis":0.0,"status":"skipped"},"step":{"line":32,"prefix":"And","index":5,"text":"match response.job == \"zion resident\""}}],"line":26,"description":"","durationMillis":339.396298,"failed":true,"error":"status code was: 530, expected: 200, response time in milliseconds: 328, url: https:\/\/reqres.in\/api\/users\/2, response: \nerror code: 1016\nsrc\/test\/java\/api1.feature:31","executorName":"main","name":"Update user","startTime":1699458373226,"refId":"[4:26]","endTime":1699458373567,"exampleIndex":-1},{"sectionIndex":4,"stepResults":[{"result":{"nanos":676800,"millis":0.6768,"status":"passed"},"step":{"line":35,"prefix":"Given","index":0,"text":"url \"https:\/\/reqres.in\/api\""}},{"result":{"nanos":329800,"millis":0.3298,"status":"passed"},"step":{"line":36,"prefix":"Given","index":1,"text":"path  \"\/users\/2\""}},{"result":{"nanos":276755000,"millis":276.755,"status":"passed"},"step":{"line":37,"prefix":"When","index":2,"text":"method  DELETE"},"stepLog":"21:16:13.588 request:\n1 > DELETE https:\/\/reqres.in\/api\/users\/2\n1 > Host: reqres.in\n1 > Connection: Keep-Alive\n1 > User-Agent: Apache-HttpClient\/4.5.13 (Java\/11.0.19)\n1 > Accept-Encoding: gzip,deflate\n\n\n21:16:13.859 response time in milliseconds: 269\n1 < 530\n1 < Date: Wed, 08 Nov 2023 15:45:56 GMT\n1 < Content-Type: text\/plain; charset=UTF-8\n1 < Content-Length: 16\n1 < Connection: keep-alive\n1 < Report-To: {\"endpoints\":[{\"url\":\"https:\\\/\\\/a.nel.cloudflare.com\\\/report\\\/v3?s=eYswcnPTYOtWkvR2eEf4Is5fqSI4uOQ1BodCD3UOdQpubFdvQ2PNiY5dvXfcmtvSA0SovuLzmIiDRpUmzDcl0iKfEAvZt0pZfHLw4rTPZ2wF5ysQ4hCLE955hg%3D%3D\"}],\"group\":\"cf-nel\",\"max_age\":604800}\n1 < NEL: {\"success_fraction\":0,\"report_to\":\"cf-nel\",\"max_age\":604800}\n1 < X-Frame-Options: SAMEORIGIN\n1 < Referrer-Policy: same-origin\n1 < Cache-Control: private, max-age=0, no-store, no-cache, must-revalidate, post-check=0, pre-check=0\n1 < Expires: Thu, 01 Jan 1970 00:00:01 GMT\n1 < Server: cloudflare\n1 < CF-RAY: 822ef22abfcc3a59-BOM\nerror code: 1016\n\n"},{"result":{"nanos":74201,"errorMessage":"status code was: 530, expected: 204, response time in milliseconds: 269, url: https:\/\/reqres.in\/api\/users\/2, response: \nerror code: 1016\nsrc\/test\/java\/api1.feature:38","millis":0.074201,"status":"failed"},"step":{"line":38,"prefix":"Then","index":3,"text":"status  204"},"stepLog":"21:16:13.860 src\/test\/java\/api1.feature:38\nThen status  204\nstatus code was: 530, expected: 204, response time in milliseconds: 269, url: https:\/\/reqres.in\/api\/users\/2, response: \nerror code: 1016\nsrc\/test\/java\/api1.feature:38\n"}],"line":34,"description":"","durationMillis":277.835801,"failed":true,"error":"status code was: 530, expected: 204, response time in milliseconds: 269, url: https:\/\/reqres.in\/api\/users\/2, response: \nerror code: 1016\nsrc\/test\/java\/api1.feature:38","executorName":"main","name":"Delete user","startTime":1699458373582,"refId":"[5:34]","endTime":1699458373860,"exampleIndex":-1}],"callDepth":0,"name":"GET API feature","description":"","resultDate":"2023-11-08 09:16:13 PM","durationMillis":3611.7292,"passedCount":1}