{"failedCount":1,"prefixedPath":"classpath:api1.feature","packageQualifiedName":"api1","loopIndex":-1,"relativePath":"api1.feature","scenarioResults":[{"sectionIndex":0,"stepResults":[{"result":{"nanos":103882100,"millis":103.8821,"status":"passed"},"step":{"line":4,"prefix":"Given","index":0,"text":"url \"https:\/\/reqres.in\/api\""}},{"result":{"nanos":1099400,"millis":1.0994,"status":"passed"},"step":{"line":5,"prefix":"Given","index":1,"text":"path \"\/users\/\""}},{"result":{"nanos":2313462600,"millis":2313.4626,"status":"passed"},"step":{"line":6,"prefix":"When","index":2,"text":"method GET"},"stepLog":"09:47:53.330 request:\n1 > GET https:\/\/reqres.in\/api\/users\n1 > Host: reqres.in\n1 > Connection: Keep-Alive\n1 > User-Agent: Apache-HttpClient\/4.5.13 (Java\/11.0.19)\n1 > Accept-Encoding: gzip,deflate\n\n\n09:47:55.021 response time in milliseconds: 1682\n1 < 200\n1 < Date: Mon, 06 Nov 2023 04:17:40 GMT\n1 < Content-Type: application\/json; charset=utf-8\n1 < Transfer-Encoding: chunked\n1 < Connection: keep-alive\n1 < X-Powered-By: Express\n1 < Access-Control-Allow-Origin: *\n1 < Etag: W\/\"3e4-2RLXvr5wTg9YQ6aH95CkYoFNuO8\"\n1 < Via: 1.1 vegur\n1 < Cache-Control: max-age=14400\n1 < CF-Cache-Status: HIT\n1 < Age: 5136\n1 < Report-To: {\"endpoints\":[{\"url\":\"https:\\\/\\\/a.nel.cloudflare.com\\\/report\\\/v3?s=XcwLBf8F8JSMKsfFG5V1UeW8yDcmjUqZI8YVfxFpdW3Ikv5ZVGlclprSH5aIJwKcUljHbQVXxKLAz6kBp06qRrZwZZAKETUIxfq%2FsGcOokqj24%2BqVAH6mLn5Tg%3D%3D\"}],\"group\":\"cf-nel\",\"max_age\":604800}\n1 < NEL: {\"success_fraction\":0,\"report_to\":\"cf-nel\",\"max_age\":604800}\n1 < Vary: Accept-Encoding\n1 < Server: cloudflare\n1 < CF-RAY: 821a8731b8404e0d-BOM\n{\"page\":1,\"per_page\":6,\"total\":12,\"total_pages\":2,\"data\":[{\"id\":1,\"email\":\"george.bluth@reqres.in\",\"first_name\":\"George\",\"last_name\":\"Bluth\",\"avatar\":\"https:\/\/reqres.in\/img\/faces\/1-image.jpg\"},{\"id\":2,\"email\":\"janet.weaver@reqres.in\",\"first_name\":\"Janet\",\"last_name\":\"Weaver\",\"avatar\":\"https:\/\/reqres.in\/img\/faces\/2-image.jpg\"},{\"id\":3,\"email\":\"emma.wong@reqres.in\",\"first_name\":\"Emma\",\"last_name\":\"Wong\",\"avatar\":\"https:\/\/reqres.in\/img\/faces\/3-image.jpg\"},{\"id\":4,\"email\":\"eve.holt@reqres.in\",\"first_name\":\"Eve\",\"last_name\":\"Holt\",\"avatar\":\"https:\/\/reqres.in\/img\/faces\/4-image.jpg\"},{\"id\":5,\"email\":\"charles.morris@reqres.in\",\"first_name\":\"Charles\",\"last_name\":\"Morris\",\"avatar\":\"https:\/\/reqres.in\/img\/faces\/5-image.jpg\"},{\"id\":6,\"email\":\"tracey.ramos@reqres.in\",\"first_name\":\"Tracey\",\"last_name\":\"Ramos\",\"avatar\":\"https:\/\/reqres.in\/img\/faces\/6-image.jpg\"}],\"support\":{\"url\":\"https:\/\/reqres.in\/#support-heading\",\"text\":\"To keep ReqRes free, contributions towards server costs are appreciated!\"}}\n\n"},{"result":{"nanos":0,"errorMessage":"no step-definition method match found for: 200\nclasspath:api1.feature:7","millis":0.0,"status":"failed"},"step":{"line":7,"prefix":"Then","index":3,"text":"200"},"stepLog":"09:47:55.130 classpath:api1.feature:7\nThen 200\nno step-definition method match found for: 200\nclasspath:api1.feature:7\n"},{"result":{"nanos":0,"millis":0.0,"status":"skipped"},"step":{"line":8,"prefix":"And","index":4,"text":"match response.data[*].id == \"#[_ >0]\""}}],"line":3,"description":"","durationMillis":2418.4441,"failed":true,"error":"no step-definition method match found for: 200\nclasspath:api1.feature:7","executorName":"main","name":"Get a s list of user","startTime":1699244272689,"refId":"[1:3]","endTime":1699244275130,"exampleIndex":-1}],"callDepth":0,"name":"GET API feature","description":"","resultDate":"2023-11-06 09:47:55 AM","durationMillis":2418.4441,"passedCount":0}