{"failedCount":1,"prefixedPath":"classpath:api2.feature","packageQualifiedName":"api2","loopIndex":-1,"relativePath":"api2.feature","scenarioResults":[{"sectionIndex":0,"stepResults":[{"result":{"nanos":638700,"millis":0.6387,"status":"passed"},"step":{"line":4,"prefix":"Given","index":0,"text":"url \"https:\/\/reqres.in\/api\""}},{"result":{"nanos":382900,"millis":0.3829,"status":"passed"},"step":{"line":5,"prefix":"Given","index":1,"text":"path \"\/users\/\""}},{"result":{"nanos":566499800,"millis":566.4998,"status":"passed"},"step":{"line":6,"prefix":"When","index":2,"text":"method GET"},"stepLog":"09:47:56.220 request:\n1 > GET https:\/\/reqres.in\/api\/users\n1 > Host: reqres.in\n1 > Connection: Keep-Alive\n1 > User-Agent: Apache-HttpClient\/4.5.13 (Java\/11.0.19)\n1 > Accept-Encoding: gzip,deflate\n\n\n09:47:56.779 response time in milliseconds: 557\n1 < 200\n1 < Date: Mon, 06 Nov 2023 04:17:41 GMT\n1 < Content-Type: application\/json; charset=utf-8\n1 < Transfer-Encoding: chunked\n1 < Connection: keep-alive\n1 < X-Powered-By: Express\n1 < Access-Control-Allow-Origin: *\n1 < Etag: W\/\"3e4-2RLXvr5wTg9YQ6aH95CkYoFNuO8\"\n1 < Via: 1.1 vegur\n1 < Cache-Control: max-age=14400\n1 < CF-Cache-Status: HIT\n1 < Age: 1537\n1 < Report-To: {\"endpoints\":[{\"url\":\"https:\\\/\\\/a.nel.cloudflare.com\\\/report\\\/v3?s=3lYbn5vKr6ITg1Bsp4vXSqJv%2BT%2FKrkI4lI7oPoNLNo3th1erP0jM7lKTOwJW1vcwwXsUpfnfl0cXo5XrhpvHuWMqAFecJd11l11sUG7L%2F8qrCi1cB%2BH8yRVJ0A%3D%3D\"}],\"group\":\"cf-nel\",\"max_age\":604800}\n1 < NEL: {\"success_fraction\":0,\"report_to\":\"cf-nel\",\"max_age\":604800}\n1 < Vary: Accept-Encoding\n1 < Server: cloudflare\n1 < CF-RAY: 821a873cc96f6b9e-SIN\n{\"page\":1,\"per_page\":6,\"total\":12,\"total_pages\":2,\"data\":[{\"id\":1,\"email\":\"george.bluth@reqres.in\",\"first_name\":\"George\",\"last_name\":\"Bluth\",\"avatar\":\"https:\/\/reqres.in\/img\/faces\/1-image.jpg\"},{\"id\":2,\"email\":\"janet.weaver@reqres.in\",\"first_name\":\"Janet\",\"last_name\":\"Weaver\",\"avatar\":\"https:\/\/reqres.in\/img\/faces\/2-image.jpg\"},{\"id\":3,\"email\":\"emma.wong@reqres.in\",\"first_name\":\"Emma\",\"last_name\":\"Wong\",\"avatar\":\"https:\/\/reqres.in\/img\/faces\/3-image.jpg\"},{\"id\":4,\"email\":\"eve.holt@reqres.in\",\"first_name\":\"Eve\",\"last_name\":\"Holt\",\"avatar\":\"https:\/\/reqres.in\/img\/faces\/4-image.jpg\"},{\"id\":5,\"email\":\"charles.morris@reqres.in\",\"first_name\":\"Charles\",\"last_name\":\"Morris\",\"avatar\":\"https:\/\/reqres.in\/img\/faces\/5-image.jpg\"},{\"id\":6,\"email\":\"tracey.ramos@reqres.in\",\"first_name\":\"Tracey\",\"last_name\":\"Ramos\",\"avatar\":\"https:\/\/reqres.in\/img\/faces\/6-image.jpg\"}],\"support\":{\"url\":\"https:\/\/reqres.in\/#support-heading\",\"text\":\"To keep ReqRes free, contributions towards server costs are appreciated!\"}}\n\n"},{"result":{"nanos":0,"errorMessage":"no step-definition method match found for: 200\nclasspath:api2.feature:7","millis":0.0,"status":"failed"},"step":{"line":7,"prefix":"Then","index":3,"text":"200"},"stepLog":"09:47:56.786 classpath:api2.feature:7\nThen 200\nno step-definition method match found for: 200\nclasspath:api2.feature:7\n"},{"result":{"nanos":0,"millis":0.0,"status":"skipped"},"step":{"line":8,"prefix":"And","index":4,"text":"match response.data[*].id == \"#[_ >0]\""}}],"line":3,"description":"","durationMillis":567.5214,"failed":true,"error":"no step-definition method match found for: 200\nclasspath:api2.feature:7","executorName":"main","name":"Get a s list of user","startTime":1699244276218,"refId":"[1:3]","endTime":1699244276786,"exampleIndex":-1}],"callDepth":0,"name":"GET API feature","description":"","resultDate":"2023-11-06 09:47:56 AM","durationMillis":567.5214,"passedCount":0}