{"failedCount":1,"prefixedPath":"classpath:api1.feature","packageQualifiedName":"api1","loopIndex":-1,"relativePath":"api1.feature","scenarioResults":[{"sectionIndex":0,"stepResults":[{"result":{"nanos":114180200,"millis":114.1802,"status":"passed"},"step":{"line":4,"prefix":"Given","index":0,"text":"url \"https:\/\/reqres.in\/api\""}},{"result":{"nanos":1183300,"millis":1.1833,"status":"passed"},"step":{"line":5,"prefix":"Given","index":1,"text":"path '\/users'"}},{"result":{"nanos":2614732800,"millis":2614.7328,"status":"passed"},"step":{"line":6,"prefix":"When","index":2,"text":"method GET"},"stepLog":"21:13:53.057 request:\n1 > GET https:\/\/reqres.in\/api\/users\n1 > Host: reqres.in\n1 > Connection: Keep-Alive\n1 > User-Agent: Apache-HttpClient\/4.5.13 (Java\/11.0.19)\n1 > Accept-Encoding: gzip,deflate\n\n\n21:13:55.028 response time in milliseconds: 1963\n1 < 200\n1 < Date: Tue, 07 Nov 2023 15:43:38 GMT\n1 < Content-Type: application\/json; charset=utf-8\n1 < Transfer-Encoding: chunked\n1 < Connection: keep-alive\n1 < Report-To: {\"group\":\"heroku-nel\",\"max_age\":3600,\"endpoints\":[{\"url\":\"https:\/\/nel.heroku.com\/reports?ts=1699295468&sid=c4c9725f-1ab0-44d8-820f-430df2718e11&s=o4ffHP%2B9IIHzwAbLe8zJBZoD7xXdqnQwnnAHVwAOIVc%3D\"}]}\n1 < Reporting-Endpoints: heroku-nel=https:\/\/nel.heroku.com\/reports?ts=1699295468&sid=c4c9725f-1ab0-44d8-820f-430df2718e11&s=o4ffHP%2B9IIHzwAbLe8zJBZoD7xXdqnQwnnAHVwAOIVc%3D\n1 < Nel: {\"report_to\":\"heroku-nel\",\"max_age\":3600,\"success_fraction\":0.005,\"failure_fraction\":0.05,\"response_headers\":[\"Via\"]}\n1 < X-Powered-By: Express\n1 < Access-Control-Allow-Origin: *\n1 < Etag: W\/\"3e4-2RLXvr5wTg9YQ6aH95CkYoFNuO8\"\n1 < Via: 1.1 vegur\n1 < Cache-Control: max-age=14400\n1 < CF-Cache-Status: HIT\n1 < Age: 2397\n1 < Vary: Accept-Encoding\n1 < Server: cloudflare\n1 < CF-RAY: 8226b16ac94c3d83-SIN\n{\"page\":1,\"per_page\":6,\"total\":12,\"total_pages\":2,\"data\":[{\"id\":1,\"email\":\"george.bluth@reqres.in\",\"first_name\":\"George\",\"last_name\":\"Bluth\",\"avatar\":\"https:\/\/reqres.in\/img\/faces\/1-image.jpg\"},{\"id\":2,\"email\":\"janet.weaver@reqres.in\",\"first_name\":\"Janet\",\"last_name\":\"Weaver\",\"avatar\":\"https:\/\/reqres.in\/img\/faces\/2-image.jpg\"},{\"id\":3,\"email\":\"emma.wong@reqres.in\",\"first_name\":\"Emma\",\"last_name\":\"Wong\",\"avatar\":\"https:\/\/reqres.in\/img\/faces\/3-image.jpg\"},{\"id\":4,\"email\":\"eve.holt@reqres.in\",\"first_name\":\"Eve\",\"last_name\":\"Holt\",\"avatar\":\"https:\/\/reqres.in\/img\/faces\/4-image.jpg\"},{\"id\":5,\"email\":\"charles.morris@reqres.in\",\"first_name\":\"Charles\",\"last_name\":\"Morris\",\"avatar\":\"https:\/\/reqres.in\/img\/faces\/5-image.jpg\"},{\"id\":6,\"email\":\"tracey.ramos@reqres.in\",\"first_name\":\"Tracey\",\"last_name\":\"Ramos\",\"avatar\":\"https:\/\/reqres.in\/img\/faces\/6-image.jpg\"}],\"support\":{\"url\":\"https:\/\/reqres.in\/#support-heading\",\"text\":\"To keep ReqRes free, contributions towards server costs are appreciated!\"}}\n\n"},{"result":{"nanos":54800,"millis":0.0548,"status":"passed"},"step":{"line":7,"prefix":"Then","index":3,"text":"status 200"}},{"result":{"nanos":114159900,"millis":114.1599,"status":"passed"},"step":{"line":8,"prefix":"And","index":4,"text":"match response.data[*].id == '#[_ >1]'"}}],"executorName":"main","line":3,"name":"Get a list of users","description":"","durationMillis":2844.311,"startTime":1699371832414,"failed":false,"refId":"[1:3]","endTime":1699371835285,"exampleIndex":-1},{"sectionIndex":1,"stepResults":[{"result":{"nanos":839700,"millis":0.8397,"status":"passed"},"step":{"line":12,"prefix":"Given","index":0,"text":"url \"https:\/\/reqres.in\/api\/users\""}},{"result":{"nanos":492400,"millis":0.4924,"status":"passed"},"step":{"line":13,"prefix":"Given","index":1,"text":"path  \"1\""}},{"result":{"nanos":1709148500,"millis":1709.1485,"status":"passed"},"step":{"line":14,"prefix":"When","index":2,"text":"method  GET"},"stepLog":"21:13:55.302 request:\n1 > GET https:\/\/reqres.in\/api\/users\/1\n1 > Host: reqres.in\n1 > Connection: Keep-Alive\n1 > User-Agent: Apache-HttpClient\/4.5.13 (Java\/11.0.19)\n1 > Accept-Encoding: gzip,deflate\n\n\n21:13:57.004 response time in milliseconds: 1699\n1 < 200\n1 < Date: Tue, 07 Nov 2023 15:43:40 GMT\n1 < Content-Type: application\/json; charset=utf-8\n1 < Transfer-Encoding: chunked\n1 < Connection: keep-alive\n1 < X-Powered-By: Express\n1 < Access-Control-Allow-Origin: *\n1 < Etag: W\/\"118-P3iKcVpIgCj9HqYeOOrGLX8qJVc\"\n1 < Via: 1.1 vegur\n1 < Cache-Control: max-age=14400\n1 < CF-Cache-Status: HIT\n1 < Age: 3075\n1 < Report-To: {\"endpoints\":[{\"url\":\"https:\\\/\\\/a.nel.cloudflare.com\\\/report\\\/v3?s=Va9z2zLCagukFWj4ARdIJnfT1NoUR5PYYHfdwOJuay1f7mVKg%2FdtWCDXLGeyKySKxz7XnCUpfZ6b%2FmAmgycqrbgv0htRFxpIHQV5EN213Jlrg5%2B%2BPEU4IuhkVQ%3D%3D\"}],\"group\":\"cf-nel\",\"max_age\":604800}\n1 < NEL: {\"success_fraction\":0,\"report_to\":\"cf-nel\",\"max_age\":604800}\n1 < Vary: Accept-Encoding\n1 < Server: cloudflare\n1 < CF-RAY: 8226b175bbd25ffc-SIN\n{\"data\":{\"id\":1,\"email\":\"george.bluth@reqres.in\",\"first_name\":\"George\",\"last_name\":\"Bluth\",\"avatar\":\"https:\/\/reqres.in\/img\/faces\/1-image.jpg\"},\"support\":{\"url\":\"https:\/\/reqres.in\/#support-heading\",\"text\":\"To keep ReqRes free, contributions towards server costs are appreciated!\"}}\n\n"},{"result":{"nanos":306000,"errorMessage":"status code was: 200, expected: 404, response time in milliseconds: 1699, url: https:\/\/reqres.in\/api\/users\/1, response: \n{\"data\":{\"id\":1,\"email\":\"george.bluth@reqres.in\",\"first_name\":\"George\",\"last_name\":\"Bluth\",\"avatar\":\"https:\/\/reqres.in\/img\/faces\/1-image.jpg\"},\"support\":{\"url\":\"https:\/\/reqres.in\/#support-heading\",\"text\":\"To keep ReqRes free, contributions towards server costs are appreciated!\"}}\nclasspath:api1.feature:15","millis":0.306,"status":"failed"},"step":{"line":15,"prefix":"Then","index":3,"text":"status  404"},"stepLog":"21:13:57.011 classpath:api1.feature:15\nThen status  404\nstatus code was: 200, expected: 404, response time in milliseconds: 1699, url: https:\/\/reqres.in\/api\/users\/1, response: \n{\"data\":{\"id\":1,\"email\":\"george.bluth@reqres.in\",\"first_name\":\"George\",\"last_name\":\"Bluth\",\"avatar\":\"https:\/\/reqres.in\/img\/faces\/1-image.jpg\"},\"support\":{\"url\":\"https:\/\/reqres.in\/#support-heading\",\"text\":\"To keep ReqRes free, contributions towards server costs are appreciated!\"}}\nclasspath:api1.feature:15\n"}],"line":11,"description":"","durationMillis":1710.7866,"failed":true,"error":"status code was: 200, expected: 404, response time in milliseconds: 1699, url: https:\/\/reqres.in\/api\/users\/1, response: \n{\"data\":{\"id\":1,\"email\":\"george.bluth@reqres.in\",\"first_name\":\"George\",\"last_name\":\"Bluth\",\"avatar\":\"https:\/\/reqres.in\/img\/faces\/1-image.jpg\"},\"support\":{\"url\":\"https:\/\/reqres.in\/#support-heading\",\"text\":\"To keep ReqRes free, contributions towards server costs are appreciated!\"}}\nclasspath:api1.feature:15","executorName":"main","name":"Get user details - user not found","startTime":1699371835299,"refId":"[2:11]","endTime":1699371837011,"exampleIndex":-1},{"sectionIndex":2,"stepResults":[{"result":{"nanos":2738701,"millis":2.738701,"status":"passed"},"step":{"line":19,"prefix":"Given","index":0,"text":"url \"https:\/\/reqres.in\/api\""}},{"result":{"nanos":2218400,"millis":2.2184,"status":"passed"},"step":{"line":20,"prefix":"Given","index":1,"text":"path  \"\/users\""}},{"result":{"nanos":7977901,"millis":7.977901,"status":"passed"},"step":{"line":21,"prefix":"And","index":2,"text":"request {\"name\": \"John Doe\",\"job\":\"Software Engineer\"}"}},{"result":{"nanos":2316866200,"millis":2316.8662,"status":"passed"},"step":{"line":22,"prefix":"When","index":3,"text":"method  POST"},"stepLog":"21:13:57.276 request:\n1 > POST https:\/\/reqres.in\/api\/users\n1 > Content-Type: application\/json; charset=UTF-8\n1 > Content-Length: 45\n1 > Host: reqres.in\n1 > Connection: Keep-Alive\n1 > User-Agent: Apache-HttpClient\/4.5.13 (Java\/11.0.19)\n1 > Accept-Encoding: gzip,deflate\n{\"name\":\"John Doe\",\"job\":\"Software Engineer\"}\n\n21:13:59.377 response time in milliseconds: 2101\n1 < 201\n1 < Date: Tue, 07 Nov 2023 15:43:43 GMT\n1 < Content-Type: application\/json; charset=utf-8\n1 < Content-Length: 95\n1 < Connection: keep-alive\n1 < Report-To: {\"group\":\"heroku-nel\",\"max_age\":3600,\"endpoints\":[{\"url\":\"https:\/\/nel.heroku.com\/reports?ts=1699371822&sid=c4c9725f-1ab0-44d8-820f-430df2718e11&s=pYj2mNXiBfB0CkPxUuQQVmX0rpzxAhQAXCEx7sU9fSw%3D\"}]}\n1 < Reporting-Endpoints: heroku-nel=https:\/\/nel.heroku.com\/reports?ts=1699371822&sid=c4c9725f-1ab0-44d8-820f-430df2718e11&s=pYj2mNXiBfB0CkPxUuQQVmX0rpzxAhQAXCEx7sU9fSw%3D\n1 < Nel: {\"report_to\":\"heroku-nel\",\"max_age\":3600,\"success_fraction\":0.005,\"failure_fraction\":0.05,\"response_headers\":[\"Via\"]}\n1 < X-Powered-By: Express\n1 < Access-Control-Allow-Origin: *\n1 < Etag: W\/\"5f-CPjeDPLV13sNMLd2DVricuAD7GA\"\n1 < Via: 1.1 vegur\n1 < CF-Cache-Status: DYNAMIC\n1 < Server: cloudflare\n1 < CF-RAY: 8226b183beca4499-SIN\n{\"name\":\"John Doe\",\"job\":\"Software Engineer\",\"id\":\"596\",\"createdAt\":\"2023-11-07T15:43:42.959Z\"}\n\n"},{"result":{"nanos":37399,"millis":0.037399,"status":"passed"},"step":{"line":23,"prefix":"Then","index":4,"text":"status  201"}},{"result":{"nanos":3703301,"millis":3.703301,"status":"passed"},"step":{"line":24,"prefix":"And","index":5,"text":"match response.job == \"Software Engineer\""}}],"executorName":"main","line":18,"name":"Create a new user","description":"","durationMillis":2333.541902,"startTime":1699371837049,"failed":false,"refId":"[3:18]","endTime":1699371839385,"exampleIndex":-1},{"sectionIndex":3,"stepResults":[{"result":{"nanos":2244400,"millis":2.2444,"status":"passed"},"step":{"line":27,"prefix":"Given","index":0,"text":"url \"https:\/\/reqres.in\/api\""}},{"result":{"nanos":1441001,"millis":1.441001,"status":"passed"},"step":{"line":28,"prefix":"Given","index":1,"text":"path  \"\/users\/2\""}},{"result":{"nanos":792201,"millis":0.792201,"status":"passed"},"step":{"line":29,"prefix":"And","index":2,"text":"request {\"job\": \"zion resident\"}"}},{"result":{"nanos":1408484001,"millis":1408.484001,"status":"passed"},"step":{"line":30,"prefix":"When","index":3,"text":"method  PUT"},"stepLog":"21:13:59.414 request:\n1 > PUT https:\/\/reqres.in\/api\/users\/2\n1 > Content-Type: application\/json; charset=UTF-8\n1 > Content-Length: 23\n1 > Host: reqres.in\n1 > Connection: Keep-Alive\n1 > User-Agent: Apache-HttpClient\/4.5.13 (Java\/11.0.19)\n1 > Accept-Encoding: gzip,deflate\n{\"job\":\"zion resident\"}\n\n21:14:00.812 response time in milliseconds: 1398\n1 < 200\n1 < Date: Tue, 07 Nov 2023 15:43:44 GMT\n1 < Content-Type: application\/json; charset=utf-8\n1 < Transfer-Encoding: chunked\n1 < Connection: keep-alive\n1 < X-Powered-By: Express\n1 < Access-Control-Allow-Origin: *\n1 < Etag: W\/\"3e-GaITivebClZ5fyUlnSKv5AolwUE\"\n1 < Via: 1.1 vegur\n1 < CF-Cache-Status: DYNAMIC\n1 < Report-To: {\"endpoints\":[{\"url\":\"https:\\\/\\\/a.nel.cloudflare.com\\\/report\\\/v3?s=wN9sA52XOWGkG7DBxwE%2FKfN7qWW%2BIdPxebEV4XhpQYSRzgQijEFHPj%2FcyGU2ZyYSWyZQs8rhqxVSx7ToLBv2N9UELdOfotSDeVBFQBlR2tnK5x0ZisMSQdfp6w%3D%3D\"}],\"group\":\"cf-nel\",\"max_age\":604800}\n1 < NEL: {\"success_fraction\":0,\"report_to\":\"cf-nel\",\"max_age\":604800}\n1 < Vary: Accept-Encoding\n1 < Server: cloudflare\n1 < CF-RAY: 8226b18d9e3b492c-BOM\n{\"job\":\"zion resident\",\"updatedAt\":\"2023-11-07T15:43:44.562Z\"}\n\n"},{"result":{"nanos":62700,"millis":0.0627,"status":"passed"},"step":{"line":31,"prefix":"Then","index":4,"text":"status  200"}},{"result":{"nanos":4565000,"millis":4.565,"status":"passed"},"step":{"line":32,"prefix":"And","index":5,"text":"match response.job == \"zion resident\""}}],"executorName":"main","line":26,"name":"Update user","description":"","durationMillis":1417.589303,"startTime":1699371839404,"failed":false,"refId":"[4:26]","endTime":1699371840824,"exampleIndex":-1},{"sectionIndex":4,"stepResults":[{"result":{"nanos":883100,"millis":0.8831,"status":"passed"},"step":{"line":35,"prefix":"Given","index":0,"text":"url \"https:\/\/reqres.in\/api\""}},{"result":{"nanos":446700,"millis":0.4467,"status":"passed"},"step":{"line":36,"prefix":"Given","index":1,"text":"path  \"\/users\/2\""}},{"result":{"nanos":890803600,"millis":890.8036,"status":"passed"},"step":{"line":37,"prefix":"When","index":2,"text":"method  DELETE"},"stepLog":"21:14:00.856 request:\n1 > DELETE https:\/\/reqres.in\/api\/users\/2\n1 > Host: reqres.in\n1 > Connection: Keep-Alive\n1 > User-Agent: Apache-HttpClient\/4.5.13 (Java\/11.0.19)\n1 > Accept-Encoding: gzip,deflate\n\n\n21:14:01.737 response time in milliseconds: 880\n1 < 204\n1 < Date: Tue, 07 Nov 2023 15:43:45 GMT\n1 < Content-Length: 0\n1 < Connection: keep-alive\n1 < Report-To: {\"group\":\"heroku-nel\",\"max_age\":3600,\"endpoints\":[{\"url\":\"https:\/\/nel.heroku.com\/reports?ts=1699371825&sid=c4c9725f-1ab0-44d8-820f-430df2718e11&s=KO0Amyx0M3n7%2BXL2qa3Ld%2FI66dFzyDm1AFWpFLfOzpk%3D\"}]}\n1 < Reporting-Endpoints: heroku-nel=https:\/\/nel.heroku.com\/reports?ts=1699371825&sid=c4c9725f-1ab0-44d8-820f-430df2718e11&s=KO0Amyx0M3n7%2BXL2qa3Ld%2FI66dFzyDm1AFWpFLfOzpk%3D\n1 < Nel: {\"report_to\":\"heroku-nel\",\"max_age\":3600,\"success_fraction\":0.005,\"failure_fraction\":0.05,\"response_headers\":[\"Via\"]}\n1 < X-Powered-By: Express\n1 < Access-Control-Allow-Origin: *\n1 < Etag: W\/\"2-vyGp6PvFo4RvsFtPoIWeCReyIC8\"\n1 < Via: 1.1 vegur\n1 < CF-Cache-Status: DYNAMIC\n1 < Server: cloudflare\n1 < CF-RAY: 8226b1938ddd41b6-BOM\n\n\n"},{"result":{"nanos":30301,"millis":0.030301,"status":"passed"},"step":{"line":38,"prefix":"Then","index":3,"text":"status  204"}}],"executorName":"main","line":34,"name":"Delete user","description":"","durationMillis":892.163701,"startTime":1699371840848,"failed":false,"refId":"[5:34]","endTime":1699371841741,"exampleIndex":-1}],"callDepth":0,"name":"GET API feature","description":"","resultDate":"2023-11-07 09:14:01 PM","durationMillis":9198.392506,"passedCount":4}