{"failedCount":1,"prefixedPath":"src\/test\/java\/api1.feature","packageQualifiedName":"src.test.java.api1","loopIndex":-1,"relativePath":"src\/test\/java\/api1.feature","scenarioResults":[{"sectionIndex":0,"stepResults":[{"result":{"nanos":237290999,"millis":237.290999,"status":"passed"},"step":{"line":4,"prefix":"Given","index":0,"text":"url \"https:\/\/reqres.in\/api\""}},{"result":{"nanos":791700,"millis":0.7917,"status":"passed"},"step":{"line":5,"prefix":"Given","index":1,"text":"path '\/users'"}},{"result":{"nanos":2497325800,"millis":2497.3258,"status":"passed"},"step":{"line":6,"prefix":"When","index":2,"text":"method GET"},"stepLog":"21:09:41.226 request:\n1 > GET https:\/\/reqres.in\/api\/users\n1 > Host: reqres.in\n1 > Connection: Keep-Alive\n1 > User-Agent: Apache-HttpClient\/4.5.13 (Java\/11.0.19)\n1 > Accept-Encoding: gzip,deflate\n\n\n21:09:42.705 response time in milliseconds: 1467\n1 < 200\n1 < Date: Tue, 07 Nov 2023 15:39:26 GMT\n1 < Content-Type: application\/json; charset=utf-8\n1 < Transfer-Encoding: chunked\n1 < Connection: keep-alive\n1 < Report-To: {\"group\":\"heroku-nel\",\"max_age\":3600,\"endpoints\":[{\"url\":\"https:\/\/nel.heroku.com\/reports?ts=1699257504&sid=c4c9725f-1ab0-44d8-820f-430df2718e11&s=T03kKmt67st0OaLh8FUuXSyjJUdd5XFPKQJAF245sOg%3D\"}]}\n1 < Reporting-Endpoints: heroku-nel=https:\/\/nel.heroku.com\/reports?ts=1699257504&sid=c4c9725f-1ab0-44d8-820f-430df2718e11&s=T03kKmt67st0OaLh8FUuXSyjJUdd5XFPKQJAF245sOg%3D\n1 < Nel: {\"report_to\":\"heroku-nel\",\"max_age\":3600,\"success_fraction\":0.005,\"failure_fraction\":0.05,\"response_headers\":[\"Via\"]}\n1 < X-Powered-By: Express\n1 < Access-Control-Allow-Origin: *\n1 < Etag: W\/\"3e4-2RLXvr5wTg9YQ6aH95CkYoFNuO8\"\n1 < Via: 1.1 vegur\n1 < Cache-Control: max-age=14400\n1 < CF-Cache-Status: HIT\n1 < Age: 1522\n1 < Vary: Accept-Encoding\n1 < Server: cloudflare\n1 < CF-RAY: 8226ab428f493c88-BOM\n{\"page\":1,\"per_page\":6,\"total\":12,\"total_pages\":2,\"data\":[{\"id\":1,\"email\":\"george.bluth@reqres.in\",\"first_name\":\"George\",\"last_name\":\"Bluth\",\"avatar\":\"https:\/\/reqres.in\/img\/faces\/1-image.jpg\"},{\"id\":2,\"email\":\"janet.weaver@reqres.in\",\"first_name\":\"Janet\",\"last_name\":\"Weaver\",\"avatar\":\"https:\/\/reqres.in\/img\/faces\/2-image.jpg\"},{\"id\":3,\"email\":\"emma.wong@reqres.in\",\"first_name\":\"Emma\",\"last_name\":\"Wong\",\"avatar\":\"https:\/\/reqres.in\/img\/faces\/3-image.jpg\"},{\"id\":4,\"email\":\"eve.holt@reqres.in\",\"first_name\":\"Eve\",\"last_name\":\"Holt\",\"avatar\":\"https:\/\/reqres.in\/img\/faces\/4-image.jpg\"},{\"id\":5,\"email\":\"charles.morris@reqres.in\",\"first_name\":\"Charles\",\"last_name\":\"Morris\",\"avatar\":\"https:\/\/reqres.in\/img\/faces\/5-image.jpg\"},{\"id\":6,\"email\":\"tracey.ramos@reqres.in\",\"first_name\":\"Tracey\",\"last_name\":\"Ramos\",\"avatar\":\"https:\/\/reqres.in\/img\/faces\/6-image.jpg\"}],\"support\":{\"url\":\"https:\/\/reqres.in\/#support-heading\",\"text\":\"To keep ReqRes free, contributions towards server costs are appreciated!\"}}\n\n"},{"result":{"nanos":94901,"millis":0.094901,"status":"passed"},"step":{"line":7,"prefix":"Then","index":3,"text":"status 200"}},{"result":{"nanos":218866100,"millis":218.8661,"status":"passed"},"step":{"line":8,"prefix":"And","index":4,"text":"match response.data[*].id == '#[_ >1]'"}}],"executorName":"main","line":3,"name":"Get a list of users","description":"","durationMillis":2954.3695,"startTime":1699371580125,"failed":false,"refId":"[1:3]","endTime":1699371583113,"exampleIndex":-1},{"sectionIndex":1,"stepResults":[{"result":{"nanos":984200,"millis":0.9842,"status":"passed"},"step":{"line":12,"prefix":"Given","index":0,"text":"url \"https:\/\/reqres.in\/api\/users\""}},{"result":{"nanos":681500,"millis":0.6815,"status":"passed"},"step":{"line":13,"prefix":"Given","index":1,"text":"path  \"1\""}},{"result":{"nanos":774905301,"millis":774.905301,"status":"passed"},"step":{"line":14,"prefix":"When","index":2,"text":"method  GET"},"stepLog":"21:09:43.131 request:\n1 > GET https:\/\/reqres.in\/api\/users\/1\n1 > Host: reqres.in\n1 > Connection: Keep-Alive\n1 > User-Agent: Apache-HttpClient\/4.5.13 (Java\/11.0.19)\n1 > Accept-Encoding: gzip,deflate\n\n\n21:09:43.901 response time in milliseconds: 770\n1 < 200\n1 < Date: Tue, 07 Nov 2023 15:39:27 GMT\n1 < Content-Type: application\/json; charset=utf-8\n1 < Transfer-Encoding: chunked\n1 < Connection: keep-alive\n1 < Report-To: {\"group\":\"heroku-nel\",\"max_age\":3600,\"endpoints\":[{\"url\":\"https:\/\/nel.heroku.com\/reports?ts=1698880807&sid=c4c9725f-1ab0-44d8-820f-430df2718e11&s=EZ32FCoUHFVhjvMv3ohFhzlQolaKsKiy3sNTL65dqFA%3D\"}]}\n1 < Reporting-Endpoints: heroku-nel=https:\/\/nel.heroku.com\/reports?ts=1698880807&sid=c4c9725f-1ab0-44d8-820f-430df2718e11&s=EZ32FCoUHFVhjvMv3ohFhzlQolaKsKiy3sNTL65dqFA%3D\n1 < Nel: {\"report_to\":\"heroku-nel\",\"max_age\":3600,\"success_fraction\":0.005,\"failure_fraction\":0.05,\"response_headers\":[\"Via\"]}\n1 < X-Powered-By: Express\n1 < Access-Control-Allow-Origin: *\n1 < Etag: W\/\"118-P3iKcVpIgCj9HqYeOOrGLX8qJVc\"\n1 < Via: 1.1 vegur\n1 < Cache-Control: max-age=14400\n1 < CF-Cache-Status: HIT\n1 < Age: 6656\n1 < Vary: Accept-Encoding\n1 < Server: cloudflare\n1 < CF-RAY: 8226ab4a6eeb3b34-BOM\n{\"data\":{\"id\":1,\"email\":\"george.bluth@reqres.in\",\"first_name\":\"George\",\"last_name\":\"Bluth\",\"avatar\":\"https:\/\/reqres.in\/img\/faces\/1-image.jpg\"},\"support\":{\"url\":\"https:\/\/reqres.in\/#support-heading\",\"text\":\"To keep ReqRes free, contributions towards server costs are appreciated!\"}}\n\n"},{"result":{"nanos":200200,"errorMessage":"status code was: 200, expected: 404, response time in milliseconds: 770, url: https:\/\/reqres.in\/api\/users\/1, response: \n{\"data\":{\"id\":1,\"email\":\"george.bluth@reqres.in\",\"first_name\":\"George\",\"last_name\":\"Bluth\",\"avatar\":\"https:\/\/reqres.in\/img\/faces\/1-image.jpg\"},\"support\":{\"url\":\"https:\/\/reqres.in\/#support-heading\",\"text\":\"To keep ReqRes free, contributions towards server costs are appreciated!\"}}\nsrc\/test\/java\/api1.feature:15","millis":0.2002,"status":"failed"},"step":{"line":15,"prefix":"Then","index":3,"text":"status  404"},"stepLog":"21:09:43.904 src\/test\/java\/api1.feature:15\nThen status  404\nstatus code was: 200, expected: 404, response time in milliseconds: 770, url: https:\/\/reqres.in\/api\/users\/1, response: \n{\"data\":{\"id\":1,\"email\":\"george.bluth@reqres.in\",\"first_name\":\"George\",\"last_name\":\"Bluth\",\"avatar\":\"https:\/\/reqres.in\/img\/faces\/1-image.jpg\"},\"support\":{\"url\":\"https:\/\/reqres.in\/#support-heading\",\"text\":\"To keep ReqRes free, contributions towards server costs are appreciated!\"}}\nsrc\/test\/java\/api1.feature:15\n"}],"line":11,"description":"","durationMillis":776.771201,"failed":true,"error":"status code was: 200, expected: 404, response time in milliseconds: 770, url: https:\/\/reqres.in\/api\/users\/1, response: \n{\"data\":{\"id\":1,\"email\":\"george.bluth@reqres.in\",\"first_name\":\"George\",\"last_name\":\"Bluth\",\"avatar\":\"https:\/\/reqres.in\/img\/faces\/1-image.jpg\"},\"support\":{\"url\":\"https:\/\/reqres.in\/#support-heading\",\"text\":\"To keep ReqRes free, contributions towards server costs are appreciated!\"}}\nsrc\/test\/java\/api1.feature:15","executorName":"main","name":"Get user details - user not found","startTime":1699371583126,"refId":"[2:11]","endTime":1699371583904,"exampleIndex":-1},{"sectionIndex":2,"stepResults":[{"result":{"nanos":1089799,"millis":1.089799,"status":"passed"},"step":{"line":19,"prefix":"Given","index":0,"text":"url \"https:\/\/reqres.in\/api\""}},{"result":{"nanos":1322700,"millis":1.3227,"status":"passed"},"step":{"line":20,"prefix":"Given","index":1,"text":"path  \"\/users\""}},{"result":{"nanos":3929800,"millis":3.9298,"status":"passed"},"step":{"line":21,"prefix":"And","index":2,"text":"request {\"name\": \"John Doe\",\"job\":\"Software Engineer\"}"}},{"result":{"nanos":1914184900,"millis":1914.1849,"status":"passed"},"step":{"line":22,"prefix":"When","index":3,"text":"method  POST"},"stepLog":"21:09:44.091 request:\n1 > POST https:\/\/reqres.in\/api\/users\n1 > Content-Type: application\/json; charset=UTF-8\n1 > Content-Length: 45\n1 > Host: reqres.in\n1 > Connection: Keep-Alive\n1 > User-Agent: Apache-HttpClient\/4.5.13 (Java\/11.0.19)\n1 > Accept-Encoding: gzip,deflate\n{\"name\":\"John Doe\",\"job\":\"Software Engineer\"}\n\n21:09:45.840 response time in milliseconds: 1747\n1 < 201\n1 < Date: Tue, 07 Nov 2023 15:39:29 GMT\n1 < Content-Type: application\/json; charset=utf-8\n1 < Content-Length: 95\n1 < Connection: keep-alive\n1 < Report-To: {\"group\":\"heroku-nel\",\"max_age\":3600,\"endpoints\":[{\"url\":\"https:\/\/nel.heroku.com\/reports?ts=1699371569&sid=c4c9725f-1ab0-44d8-820f-430df2718e11&s=qWjR3l%2BD2dGbeBfOHnbMM40jdnMCQqM5TOZpgXHHDSQ%3D\"}]}\n1 < Reporting-Endpoints: heroku-nel=https:\/\/nel.heroku.com\/reports?ts=1699371569&sid=c4c9725f-1ab0-44d8-820f-430df2718e11&s=qWjR3l%2BD2dGbeBfOHnbMM40jdnMCQqM5TOZpgXHHDSQ%3D\n1 < Nel: {\"report_to\":\"heroku-nel\",\"max_age\":3600,\"success_fraction\":0.005,\"failure_fraction\":0.05,\"response_headers\":[\"Via\"]}\n1 < X-Powered-By: Express\n1 < Access-Control-Allow-Origin: *\n1 < Etag: W\/\"5f-tddt7Bw0w\/0L9ZLeeGX4w\/aM\/pI\"\n1 < Via: 1.1 vegur\n1 < CF-Cache-Status: DYNAMIC\n1 < Server: cloudflare\n1 < CF-RAY: 8226ab534e184b98-SIN\n{\"name\":\"John Doe\",\"job\":\"Software Engineer\",\"id\":\"564\",\"createdAt\":\"2023-11-07T15:39:29.453Z\"}\n\n"},{"result":{"nanos":45101,"millis":0.045101,"status":"passed"},"step":{"line":23,"prefix":"Then","index":4,"text":"status  201"}},{"result":{"nanos":4516100,"millis":4.5161,"status":"passed"},"step":{"line":24,"prefix":"And","index":5,"text":"match response.job == \"Software Engineer\""}}],"executorName":"main","line":18,"name":"Create a new user","description":"","durationMillis":1925.0884,"startTime":1699371583923,"failed":false,"refId":"[3:18]","endTime":1699371585849,"exampleIndex":-1},{"sectionIndex":3,"stepResults":[{"result":{"nanos":1216801,"millis":1.216801,"status":"passed"},"step":{"line":27,"prefix":"Given","index":0,"text":"url \"https:\/\/reqres.in\/api\""}},{"result":{"nanos":2563200,"millis":2.5632,"status":"passed"},"step":{"line":28,"prefix":"Given","index":1,"text":"path  \"\/users\/2\""}},{"result":{"nanos":1350999,"millis":1.350999,"status":"passed"},"step":{"line":29,"prefix":"And","index":2,"text":"request {\"job\": \"zion resident\"}"}},{"result":{"nanos":1081866900,"millis":1081.8669,"status":"passed"},"step":{"line":30,"prefix":"When","index":3,"text":"method  PUT"},"stepLog":"21:09:45.894 request:\n1 > PUT https:\/\/reqres.in\/api\/users\/2\n1 > Content-Type: application\/json; charset=UTF-8\n1 > Content-Length: 23\n1 > Host: reqres.in\n1 > Connection: Keep-Alive\n1 > User-Agent: Apache-HttpClient\/4.5.13 (Java\/11.0.19)\n1 > Accept-Encoding: gzip,deflate\n{\"job\":\"zion resident\"}\n\n21:09:46.964 response time in milliseconds: 1069\n1 < 200\n1 < Date: Tue, 07 Nov 2023 15:39:30 GMT\n1 < Content-Type: application\/json; charset=utf-8\n1 < Transfer-Encoding: chunked\n1 < Connection: keep-alive\n1 < Report-To: {\"group\":\"heroku-nel\",\"max_age\":3600,\"endpoints\":[{\"url\":\"https:\/\/nel.heroku.com\/reports?ts=1699371570&sid=c4c9725f-1ab0-44d8-820f-430df2718e11&s=6L%2FmvF%2FEH2zB7KBdqC4kjLMMEX%2Fd28O8fSs3gIz9ccw%3D\"}]}\n1 < Reporting-Endpoints: heroku-nel=https:\/\/nel.heroku.com\/reports?ts=1699371570&sid=c4c9725f-1ab0-44d8-820f-430df2718e11&s=6L%2FmvF%2FEH2zB7KBdqC4kjLMMEX%2Fd28O8fSs3gIz9ccw%3D\n1 < Nel: {\"report_to\":\"heroku-nel\",\"max_age\":3600,\"success_fraction\":0.005,\"failure_fraction\":0.05,\"response_headers\":[\"Via\"]}\n1 < X-Powered-By: Express\n1 < Access-Control-Allow-Origin: *\n1 < Etag: W\/\"3e-PTnAKtJgngi+I4eXXRNPaLoABJ0\"\n1 < Via: 1.1 vegur\n1 < CF-Cache-Status: DYNAMIC\n1 < Vary: Accept-Encoding\n1 < Server: cloudflare\n1 < CF-RAY: 8226ab591cc54917-BOM\n{\"job\":\"zion resident\",\"updatedAt\":\"2023-11-07T15:39:30.412Z\"}\n\n"},{"result":{"nanos":31701,"millis":0.031701,"status":"passed"},"step":{"line":31,"prefix":"Then","index":4,"text":"status  200"}},{"result":{"nanos":5338700,"millis":5.3387,"status":"passed"},"step":{"line":32,"prefix":"And","index":5,"text":"match response.job == \"zion resident\""}}],"executorName":"main","line":26,"name":"Update user","description":"","durationMillis":1092.368301,"startTime":1699371585879,"failed":false,"refId":"[4:26]","endTime":1699371586974,"exampleIndex":-1},{"sectionIndex":4,"stepResults":[{"result":{"nanos":1833900,"millis":1.8339,"status":"passed"},"step":{"line":35,"prefix":"Given","index":0,"text":"url \"https:\/\/reqres.in\/api\""}},{"result":{"nanos":670999,"millis":0.670999,"status":"passed"},"step":{"line":36,"prefix":"Given","index":1,"text":"path  \"\/users\/2\""}},{"result":{"nanos":1106567601,"millis":1106.567601,"status":"passed"},"step":{"line":37,"prefix":"When","index":2,"text":"method  DELETE"},"stepLog":"21:09:47.015 request:\n1 > DELETE https:\/\/reqres.in\/api\/users\/2\n1 > Host: reqres.in\n1 > Connection: Keep-Alive\n1 > User-Agent: Apache-HttpClient\/4.5.13 (Java\/11.0.19)\n1 > Accept-Encoding: gzip,deflate\n\n\n21:09:48.105 response time in milliseconds: 1089\n1 < 204\n1 < Date: Tue, 07 Nov 2023 15:39:31 GMT\n1 < Content-Length: 0\n1 < Connection: keep-alive\n1 < Report-To: {\"group\":\"heroku-nel\",\"max_age\":3600,\"endpoints\":[{\"url\":\"https:\/\/nel.heroku.com\/reports?ts=1699371571&sid=c4c9725f-1ab0-44d8-820f-430df2718e11&s=ppVXDQsq2elWM2ndcKaJP56BejJyzyr3CURPeEWpke4%3D\"}]}\n1 < Reporting-Endpoints: heroku-nel=https:\/\/nel.heroku.com\/reports?ts=1699371571&sid=c4c9725f-1ab0-44d8-820f-430df2718e11&s=ppVXDQsq2elWM2ndcKaJP56BejJyzyr3CURPeEWpke4%3D\n1 < Nel: {\"report_to\":\"heroku-nel\",\"max_age\":3600,\"success_fraction\":0.005,\"failure_fraction\":0.05,\"response_headers\":[\"Via\"]}\n1 < X-Powered-By: Express\n1 < Access-Control-Allow-Origin: *\n1 < Etag: W\/\"2-vyGp6PvFo4RvsFtPoIWeCReyIC8\"\n1 < Via: 1.1 vegur\n1 < CF-Cache-Status: DYNAMIC\n1 < Server: cloudflare\n1 < CF-RAY: 8226ab63ea5194f8-LIS\n\n\n"},{"result":{"nanos":37700,"millis":0.0377,"status":"passed"},"step":{"line":38,"prefix":"Then","index":3,"text":"status  204"}}],"executorName":"main","line":34,"name":"Delete user","description":"","durationMillis":1109.1102,"startTime":1699371586999,"failed":false,"refId":"[5:34]","endTime":1699371588110,"exampleIndex":-1}],"callDepth":0,"name":"GET API feature","description":"","resultDate":"2023-11-07 09:09:48 PM","durationMillis":7857.707602,"passedCount":4}