{"failedCount":0,"prefixedPath":"src\/test\/java\/api1.feature","packageQualifiedName":"src.test.java.api1","loopIndex":-1,"relativePath":"src\/test\/java\/api1.feature","scenarioResults":[{"sectionIndex":0,"stepResults":[{"result":{"nanos":93743700,"millis":93.7437,"status":"passed"},"step":{"line":4,"prefix":"Given","index":0,"text":"url \"https:\/\/reqres.in\/api\""}},{"result":{"nanos":676500,"millis":0.6765,"status":"passed"},"step":{"line":5,"prefix":"Given","index":1,"text":"path '\/users'"}},{"result":{"nanos":16574561400,"millis":16574.5614,"status":"passed"},"step":{"line":6,"prefix":"When","index":2,"text":"method GET"},"stepLog":"12:09:01.775 request:\n1 > GET https:\/\/reqres.in\/api\/users\n1 > Host: reqres.in\n1 > Connection: Keep-Alive\n1 > User-Agent: Apache-HttpClient\/4.5.13 (Java\/11.0.19)\n1 > Accept-Encoding: gzip,deflate\n\n\n12:09:17.817 response time in milliseconds: 16038\n1 < 200\n1 < Date: Fri, 10 Nov 2023 06:38:46 GMT\n1 < Content-Type: application\/json; charset=utf-8\n1 < Transfer-Encoding: chunked\n1 < Connection: keep-alive\n1 < X-Powered-By: Express\n1 < Access-Control-Allow-Origin: *\n1 < Etag: W\/\"3e4-2RLXvr5wTg9YQ6aH95CkYoFNuO8\"\n1 < Via: 1.1 vegur\n1 < Cache-Control: max-age=14400\n1 < CF-Cache-Status: HIT\n1 < Age: 3696\n1 < Report-To: {\"endpoints\":[{\"url\":\"https:\\\/\\\/a.nel.cloudflare.com\\\/report\\\/v3?s=PbMb%2F%2BGvX%2BhHmWOokeUR9jc8pmlfvF4hDvxnQCmJlIRJuY37uzmoquYXkN58WusNMvelVA0YTabwsvCI4iCprlJUfetWhtziX0XazYuEZmENy7xxZfBKGCQv6w%3D%3D\"}],\"group\":\"cf-nel\",\"max_age\":604800}\n1 < NEL: {\"success_fraction\":0,\"report_to\":\"cf-nel\",\"max_age\":604800}\n1 < Vary: Accept-Encoding\n1 < Server: cloudflare\n1 < CF-RAY: 823c4b65eefd89bf-SIN\n{\"page\":1,\"per_page\":6,\"total\":12,\"total_pages\":2,\"data\":[{\"id\":1,\"email\":\"george.bluth@reqres.in\",\"first_name\":\"George\",\"last_name\":\"Bluth\",\"avatar\":\"https:\/\/reqres.in\/img\/faces\/1-image.jpg\"},{\"id\":2,\"email\":\"janet.weaver@reqres.in\",\"first_name\":\"Janet\",\"last_name\":\"Weaver\",\"avatar\":\"https:\/\/reqres.in\/img\/faces\/2-image.jpg\"},{\"id\":3,\"email\":\"emma.wong@reqres.in\",\"first_name\":\"Emma\",\"last_name\":\"Wong\",\"avatar\":\"https:\/\/reqres.in\/img\/faces\/3-image.jpg\"},{\"id\":4,\"email\":\"eve.holt@reqres.in\",\"first_name\":\"Eve\",\"last_name\":\"Holt\",\"avatar\":\"https:\/\/reqres.in\/img\/faces\/4-image.jpg\"},{\"id\":5,\"email\":\"charles.morris@reqres.in\",\"first_name\":\"Charles\",\"last_name\":\"Morris\",\"avatar\":\"https:\/\/reqres.in\/img\/faces\/5-image.jpg\"},{\"id\":6,\"email\":\"tracey.ramos@reqres.in\",\"first_name\":\"Tracey\",\"last_name\":\"Ramos\",\"avatar\":\"https:\/\/reqres.in\/img\/faces\/6-image.jpg\"}],\"support\":{\"url\":\"https:\/\/reqres.in\/#support-heading\",\"text\":\"To keep ReqRes free, contributions towards server costs are appreciated!\"}}\n\n"},{"result":{"nanos":35200,"millis":0.0352,"status":"passed"},"step":{"line":7,"prefix":"Then","index":3,"text":"status 200"}},{"result":{"nanos":99161500,"millis":99.1615,"status":"passed"},"step":{"line":8,"prefix":"And","index":4,"text":"match response.data[*].id == '#[_ >1]'"}}],"executorName":"main","line":3,"name":"Get a list of users","description":"","durationMillis":16768.1783,"startTime":1699598341185,"failed":false,"refId":"[1:3]","endTime":1699598357971,"exampleIndex":-1},{"sectionIndex":1,"stepResults":[{"result":{"nanos":735300,"millis":0.7353,"status":"passed"},"step":{"line":12,"prefix":"Given","index":0,"text":"url \"https:\/\/reqres.in\/api\""}},{"result":{"nanos":422500,"millis":0.4225,"status":"passed"},"step":{"line":13,"prefix":"Given","index":1,"text":"path  \"\/user\/2\""}},{"result":{"nanos":5310916000,"millis":5310.916,"status":"passed"},"step":{"line":14,"prefix":"When","index":2,"text":"method  GET"},"stepLog":"12:09:17.983 request:\n1 > GET https:\/\/reqres.in\/api\/user\/2\n1 > Host: reqres.in\n1 > Connection: Keep-Alive\n1 > User-Agent: Apache-HttpClient\/4.5.13 (Java\/11.0.19)\n1 > Accept-Encoding: gzip,deflate\n\n\n12:09:23.290 response time in milliseconds: 5307\n1 < 200\n1 < Date: Fri, 10 Nov 2023 06:39:01 GMT\n1 < Content-Type: application\/json; charset=utf-8\n1 < Transfer-Encoding: chunked\n1 < Connection: keep-alive\n1 < Report-To: {\"group\":\"heroku-nel\",\"max_age\":3600,\"endpoints\":[{\"url\":\"https:\/\/nel.heroku.com\/reports?ts=1699521351&sid=c4c9725f-1ab0-44d8-820f-430df2718e11&s=zKwa%2BqPAEzaPVpm85sg67KPPgFwCqoyapPb0HTseCro%3D\"}]}\n1 < Reporting-Endpoints: heroku-nel=https:\/\/nel.heroku.com\/reports?ts=1699521351&sid=c4c9725f-1ab0-44d8-820f-430df2718e11&s=zKwa%2BqPAEzaPVpm85sg67KPPgFwCqoyapPb0HTseCro%3D\n1 < Nel: {\"report_to\":\"heroku-nel\",\"max_age\":3600,\"success_fraction\":0.005,\"failure_fraction\":0.05,\"response_headers\":[\"Via\"]}\n1 < X-Powered-By: Express\n1 < Access-Control-Allow-Origin: *\n1 < Etag: W\/\"e8-ov4wWh4\/OY1IMQMqWgskYtOFnVs\"\n1 < Via: 1.1 vegur\n1 < Cache-Control: max-age=14400\n1 < CF-Cache-Status: HIT\n1 < Age: 460\n1 < Vary: Accept-Encoding\n1 < Server: cloudflare\n1 < CF-RAY: 823c4bc1add28982-SIN\n{\"data\":{\"id\":2,\"name\":\"fuchsia rose\",\"year\":2001,\"color\":\"#C74375\",\"pantone_value\":\"17-2031\"},\"support\":{\"url\":\"https:\/\/reqres.in\/#support-heading\",\"text\":\"To keep ReqRes free, contributions towards server costs are appreciated!\"}}\n\n"},{"result":{"nanos":14800,"millis":0.0148,"status":"passed"},"step":{"line":15,"prefix":"Then","index":3,"text":"status  200"}},{"result":{"nanos":11959900,"millis":11.9599,"status":"passed"},"step":{"line":16,"prefix":"And","index":4,"text":"match response.data.id == 2"}}],"executorName":"main","line":11,"name":"Get a single user","description":"","durationMillis":5324.0485,"startTime":1699598357979,"failed":false,"refId":"[2:11]","endTime":1699598363303,"exampleIndex":-1},{"sectionIndex":2,"stepResults":[{"result":{"nanos":1275300,"millis":1.2753,"status":"passed"},"step":{"line":20,"prefix":"Given","index":0,"text":"url \"https:\/\/reqres.in\/api\/users\""}},{"result":{"nanos":975400,"millis":0.9754,"status":"passed"},"step":{"line":21,"prefix":"Given","index":1,"text":"path  \"\/user\/1\""}},{"result":{"nanos":3805871700,"millis":3805.8717,"status":"passed"},"step":{"line":22,"prefix":"When","index":2,"text":"method  GET"},"stepLog":"12:09:23.319 request:\n1 > GET https:\/\/reqres.in\/api\/users\/user\/1\n1 > Host: reqres.in\n1 > Connection: Keep-Alive\n1 > User-Agent: Apache-HttpClient\/4.5.13 (Java\/11.0.19)\n1 > Accept-Encoding: gzip,deflate\n\n\n12:09:27.122 response time in milliseconds: 3803\n1 < 404\n1 < Date: Fri, 10 Nov 2023 06:39:07 GMT\n1 < Content-Type: application\/json; charset=utf-8\n1 < Content-Length: 2\n1 < Connection: keep-alive\n1 < Report-To: {\"group\":\"heroku-nel\",\"max_age\":3600,\"endpoints\":[{\"url\":\"https:\/\/nel.heroku.com\/reports?ts=1699598347&sid=c4c9725f-1ab0-44d8-820f-430df2718e11&s=g%2FEG9cptw7KQ2I7%2F1XdlZcT6zpCIil88Ysozmhp1eU4%3D\"}]}\n1 < Reporting-Endpoints: heroku-nel=https:\/\/nel.heroku.com\/reports?ts=1699598347&sid=c4c9725f-1ab0-44d8-820f-430df2718e11&s=g%2FEG9cptw7KQ2I7%2F1XdlZcT6zpCIil88Ysozmhp1eU4%3D\n1 < Nel: {\"report_to\":\"heroku-nel\",\"max_age\":3600,\"success_fraction\":0.005,\"failure_fraction\":0.05,\"response_headers\":[\"Via\"]}\n1 < X-Powered-By: Express\n1 < Access-Control-Allow-Origin: *\n1 < Etag: W\/\"2-vyGp6PvFo4RvsFtPoIWeCReyIC8\"\n1 < Via: 1.1 vegur\n1 < Cache-Control: max-age=14400\n1 < CF-Cache-Status: EXPIRED\n1 < Vary: Accept-Encoding\n1 < Server: cloudflare\n1 < CF-RAY: 823c4be8af6f4c5f-SIN\n{}\n\n"},{"result":{"nanos":14600,"millis":0.0146,"status":"passed"},"step":{"line":23,"prefix":"Then","index":3,"text":"status  404"}}],"executorName":"main","line":19,"name":"Get a single user - user not found","description":"","durationMillis":3808.137,"startTime":1699598363313,"failed":false,"refId":"[3:19]","endTime":1699598367123,"exampleIndex":-1},{"sectionIndex":3,"stepResults":[{"result":{"nanos":289200,"millis":0.2892,"status":"passed"},"step":{"line":27,"prefix":"Given","index":0,"text":"url \"https:\/\/reqres.in\/api\""}},{"result":{"nanos":518600,"millis":0.5186,"status":"passed"},"step":{"line":28,"prefix":"Given","index":1,"text":"path  \"\/users\""}},{"result":{"nanos":3239100,"millis":3.2391,"status":"passed"},"step":{"line":29,"prefix":"And","index":2,"text":"request {\"name\": \"John Doe\",\"job\":\"Software Engineer\"}"}},{"result":{"nanos":2753744500,"millis":2753.7445,"status":"passed"},"step":{"line":30,"prefix":"When","index":3,"text":"method  POST"},"stepLog":"12:09:27.255 request:\n1 > POST https:\/\/reqres.in\/api\/users\n1 > Content-Type: application\/json; charset=UTF-8\n1 > Content-Length: 45\n1 > Host: reqres.in\n1 > Connection: Keep-Alive\n1 > User-Agent: Apache-HttpClient\/4.5.13 (Java\/11.0.19)\n1 > Accept-Encoding: gzip,deflate\n{\"name\":\"John Doe\",\"job\":\"Software Engineer\"}\n\n12:09:29.885 response time in milliseconds: 2629\n1 < 201\n1 < Date: Fri, 10 Nov 2023 06:39:11 GMT\n1 < Content-Type: application\/json; charset=utf-8\n1 < Content-Length: 95\n1 < Connection: keep-alive\n1 < Report-To: {\"group\":\"heroku-nel\",\"max_age\":3600,\"endpoints\":[{\"url\":\"https:\/\/nel.heroku.com\/reports?ts=1699598351&sid=c4c9725f-1ab0-44d8-820f-430df2718e11&s=NZ4NGNiK%2F7MsW5LfInCzqRrD8BkfFLrCSU444aHVmZg%3D\"}]}\n1 < Reporting-Endpoints: heroku-nel=https:\/\/nel.heroku.com\/reports?ts=1699598351&sid=c4c9725f-1ab0-44d8-820f-430df2718e11&s=NZ4NGNiK%2F7MsW5LfInCzqRrD8BkfFLrCSU444aHVmZg%3D\n1 < Nel: {\"report_to\":\"heroku-nel\",\"max_age\":3600,\"success_fraction\":0.005,\"failure_fraction\":0.05,\"response_headers\":[\"Via\"]}\n1 < X-Powered-By: Express\n1 < Access-Control-Allow-Origin: *\n1 < Etag: W\/\"5f-q9Tve4Qz2tlcL8y5S3SPdSudOhc\"\n1 < Via: 1.1 vegur\n1 < CF-Cache-Status: DYNAMIC\n1 < Server: cloudflare\n1 < CF-RAY: 823c4bffe91a4c53-SIN\n{\"name\":\"John Doe\",\"job\":\"Software Engineer\",\"id\":\"808\",\"createdAt\":\"2023-11-10T06:39:11.615Z\"}\n\n"},{"result":{"nanos":28300,"millis":0.0283,"status":"passed"},"step":{"line":31,"prefix":"Then","index":4,"text":"status  201"}},{"result":{"nanos":2884600,"millis":2.8846,"status":"passed"},"step":{"line":32,"prefix":"And","index":5,"text":"match response.job == \"Software Engineer\""}}],"executorName":"main","line":26,"name":"Create a new user","description":"","durationMillis":2760.7043,"startTime":1699598367129,"failed":false,"refId":"[4:26]","endTime":1699598369890,"exampleIndex":-1},{"sectionIndex":4,"stepResults":[{"result":{"nanos":652800,"millis":0.6528,"status":"passed"},"step":{"line":35,"prefix":"Given","index":0,"text":"url \"https:\/\/reqres.in\/api\""}},{"result":{"nanos":1411200,"millis":1.4112,"status":"passed"},"step":{"line":36,"prefix":"Given","index":1,"text":"path  \"\/users\/2\""}},{"result":{"nanos":884900,"millis":0.8849,"status":"passed"},"step":{"line":37,"prefix":"And","index":2,"text":"request {\"job\": \"zion resident\"}"}},{"result":{"nanos":2130916900,"millis":2130.9169,"status":"passed"},"step":{"line":38,"prefix":"When","index":3,"text":"method  PUT"},"stepLog":"12:09:29.912 request:\n1 > PUT https:\/\/reqres.in\/api\/users\/2\n1 > Content-Type: application\/json; charset=UTF-8\n1 > Content-Length: 23\n1 > Host: reqres.in\n1 > Connection: Keep-Alive\n1 > User-Agent: Apache-HttpClient\/4.5.13 (Java\/11.0.19)\n1 > Accept-Encoding: gzip,deflate\n{\"job\":\"zion resident\"}\n\n12:09:32.036 response time in milliseconds: 2122\n1 < 200\n1 < Date: Fri, 10 Nov 2023 06:39:13 GMT\n1 < Content-Type: application\/json; charset=utf-8\n1 < Transfer-Encoding: chunked\n1 < Connection: keep-alive\n1 < X-Powered-By: Express\n1 < Access-Control-Allow-Origin: *\n1 < Etag: W\/\"3e-1YgFPHNjDao6wGYqYMO9t884XMs\"\n1 < Via: 1.1 vegur\n1 < CF-Cache-Status: DYNAMIC\n1 < Report-To: {\"endpoints\":[{\"url\":\"https:\\\/\\\/a.nel.cloudflare.com\\\/report\\\/v3?s=KU3CByPfBA1zJIwLqQnmIn5rcp0sElQrU8wOstzakO7R2Os2aHOcheq5kbuK4O3meGSCf8yCraEvALGkvJoKEoAvqSEfzp7Tc9rwIoyGxz5TsrhdTmQ%2FovO24w%3D%3D\"}],\"group\":\"cf-nel\",\"max_age\":604800}\n1 < NEL: {\"success_fraction\":0,\"report_to\":\"cf-nel\",\"max_age\":604800}\n1 < Vary: Accept-Encoding\n1 < Server: cloudflare\n1 < CF-RAY: 823c4c0dac1f8994-SIN\n{\"job\":\"zion resident\",\"updatedAt\":\"2023-11-10T06:39:13.824Z\"}\n\n"},{"result":{"nanos":15000,"millis":0.015,"status":"passed"},"step":{"line":39,"prefix":"Then","index":4,"text":"status  200"}},{"result":{"nanos":1298100,"millis":1.2981,"status":"passed"},"step":{"line":40,"prefix":"And","index":5,"text":"match response.job == \"zion resident\""}}],"executorName":"main","line":34,"name":"Update user","description":"","durationMillis":2135.1789,"startTime":1699598369902,"failed":false,"refId":"[5:34]","endTime":1699598372039,"exampleIndex":-1},{"sectionIndex":5,"stepResults":[{"result":{"nanos":413700,"millis":0.4137,"status":"passed"},"step":{"line":43,"prefix":"Given","index":0,"text":"url \"https:\/\/reqres.in\/api\""}},{"result":{"nanos":216400,"millis":0.2164,"status":"passed"},"step":{"line":44,"prefix":"Given","index":1,"text":"path  \"\/users\/2\""}},{"result":{"nanos":1118401200,"millis":1118.4012,"status":"passed"},"step":{"line":45,"prefix":"When","index":2,"text":"method  DELETE"},"stepLog":"12:09:32.048 request:\n1 > DELETE https:\/\/reqres.in\/api\/users\/2\n1 > Host: reqres.in\n1 > Connection: Keep-Alive\n1 > User-Agent: Apache-HttpClient\/4.5.13 (Java\/11.0.19)\n1 > Accept-Encoding: gzip,deflate\n\n\n12:09:33.162 response time in milliseconds: 1113\n1 < 204\n1 < Date: Fri, 10 Nov 2023 06:39:15 GMT\n1 < Content-Length: 0\n1 < Connection: keep-alive\n1 < Report-To: {\"group\":\"heroku-nel\",\"max_age\":3600,\"endpoints\":[{\"url\":\"https:\/\/nel.heroku.com\/reports?ts=1699598355&sid=c4c9725f-1ab0-44d8-820f-430df2718e11&s=uEokb0x9%2Btw20h8AX3r2okgW3jH%2FppEYBrQne9FVd%2BI%3D\"}]}\n1 < Reporting-Endpoints: heroku-nel=https:\/\/nel.heroku.com\/reports?ts=1699598355&sid=c4c9725f-1ab0-44d8-820f-430df2718e11&s=uEokb0x9%2Btw20h8AX3r2okgW3jH%2FppEYBrQne9FVd%2BI%3D\n1 < Nel: {\"report_to\":\"heroku-nel\",\"max_age\":3600,\"success_fraction\":0.005,\"failure_fraction\":0.05,\"response_headers\":[\"Via\"]}\n1 < X-Powered-By: Express\n1 < Access-Control-Allow-Origin: *\n1 < Etag: W\/\"2-vyGp6PvFo4RvsFtPoIWeCReyIC8\"\n1 < Via: 1.1 vegur\n1 < CF-Cache-Status: DYNAMIC\n1 < Server: cloudflare\n1 < CF-RAY: 823c4c15d8f53a33-BOM\n\n\n"},{"result":{"nanos":37200,"millis":0.0372,"status":"passed"},"step":{"line":46,"prefix":"Then","index":3,"text":"status  204"}}],"executorName":"main","line":42,"name":"Delete user","description":"","durationMillis":1119.0685,"startTime":1699598372044,"failed":false,"refId":"[6:42]","endTime":1699598373164,"exampleIndex":-1}],"callDepth":0,"name":"GET API feature","description":"","resultDate":"2023-11-10 12:09:33 PM","durationMillis":31915.3155,"passedCount":6}