{"failedCount":1,"prefixedPath":"src\/test\/java\/api.feature","packageQualifiedName":"src.test.java.api","loopIndex":-1,"relativePath":"src\/test\/java\/api.feature","scenarioResults":[{"sectionIndex":0,"stepResults":[{"result":{"nanos":69540300,"millis":69.5403,"status":"passed"},"step":{"line":4,"prefix":"Given","index":0,"text":"url \"https:\/\/reqres.in\/api\""}},{"result":{"nanos":495200,"millis":0.4952,"status":"passed"},"step":{"line":5,"prefix":"Given","index":1,"text":"path \"\/users\/2\""}},{"result":{"nanos":1670857400,"millis":1670.8574,"status":"passed"},"step":{"line":6,"prefix":"When","index":2,"text":"method GET"},"stepLog":"16:45:13.601 request:\n1 > GET https:\/\/reqres.in\/api\/users\/2\n1 > Host: reqres.in\n1 > Connection: Keep-Alive\n1 > User-Agent: Apache-HttpClient\/4.5.13 (Java\/11.0.19)\n1 > Accept-Encoding: gzip,deflate\n\n\n16:45:14.909 response time in milliseconds: 1305\n1 < 200\n1 < Date: Sun, 05 Nov 2023 11:15:00 GMT\n1 < Content-Type: application\/json; charset=utf-8\n1 < Transfer-Encoding: chunked\n1 < Connection: keep-alive\n1 < X-Powered-By: Express\n1 < Access-Control-Allow-Origin: *\n1 < Etag: W\/\"118-pbdwwFo9SKNhD3Lx5iHJyngpq00\"\n1 < Via: 1.1 vegur\n1 < Cache-Control: max-age=14400\n1 < CF-Cache-Status: HIT\n1 < Age: 2477\n1 < Report-To: {\"endpoints\":[{\"url\":\"https:\\\/\\\/a.nel.cloudflare.com\\\/report\\\/v3?s=peloOX7BBuK7km8DVn5U0a%2B%2FTM3iBc4le%2FS6t5d2JFTT%2B4Fdgt9YjdD6c2ApJMkx8KhRpb7q93bAN0TBA97gIMdpKv1ysBOtn%2BJdv4M40SWXkT1r%2FJDu8V26Sg%3D%3D\"}],\"group\":\"cf-nel\",\"max_age\":604800}\n1 < NEL: {\"success_fraction\":0,\"report_to\":\"cf-nel\",\"max_age\":604800}\n1 < Vary: Accept-Encoding\n1 < Server: cloudflare\n1 < CF-RAY: 8214ad27b8d04467-BOM\n{\"data\":{\"id\":2,\"email\":\"janet.weaver@reqres.in\",\"first_name\":\"Janet\",\"last_name\":\"Weaver\",\"avatar\":\"https:\/\/reqres.in\/img\/faces\/2-image.jpg\"},\"support\":{\"url\":\"https:\/\/reqres.in\/#support-heading\",\"text\":\"To keep ReqRes free, contributions towards server costs are appreciated!\"}}\n\n"},{"result":{"nanos":17700,"millis":0.0177,"status":"passed"},"step":{"line":7,"prefix":"Then","index":3,"text":"status 200"}},{"result":{"nanos":54091600,"errorMessage":"match failed: EQUALS\n  $ | data types don't match (LIST:NUMBER)\n  []\n  2\n\nsrc\/test\/java\/api.feature:8","millis":54.0916,"status":"failed"},"step":{"line":8,"prefix":"And","index":4,"text":"match response.data[*].id == 2"},"stepLog":"16:45:14.997 src\/test\/java\/api.feature:8\nAnd match response.data[*].id == 2\nmatch failed: EQUALS\n  $ | data types don't match (LIST:NUMBER)\n  []\n  2\n\nsrc\/test\/java\/api.feature:8\n"}],"line":3,"description":"","durationMillis":1795.0022,"failed":true,"error":"match failed: EQUALS\n  $ | data types don't match (LIST:NUMBER)\n  []\n  2\n\nsrc\/test\/java\/api.feature:8","executorName":"main","name":"get single users","startTime":1699182913184,"refId":"[1:3]","endTime":1699182914997,"exampleIndex":-1},{"sectionIndex":1,"stepResults":[{"result":{"nanos":514700,"millis":0.5147,"status":"passed"},"step":{"line":18,"prefix":"Given","index":0,"text":"url \"https:\/\/reqres.in\/api\""}},{"result":{"nanos":294600,"millis":0.2946,"status":"passed"},"step":{"line":19,"prefix":"Given","index":1,"text":"path \"\/users\""}},{"result":{"nanos":1061417600,"millis":1061.4176,"status":"passed"},"step":{"line":20,"prefix":"When","index":2,"text":"method GET"},"stepLog":"16:45:15.005 request:\n1 > GET https:\/\/reqres.in\/api\/users\n1 > Host: reqres.in\n1 > Connection: Keep-Alive\n1 > User-Agent: Apache-HttpClient\/4.5.13 (Java\/11.0.19)\n1 > Accept-Encoding: gzip,deflate\n\n\n16:45:16.064 response time in milliseconds: 1058\n1 < 200\n1 < Date: Sun, 05 Nov 2023 11:15:01 GMT\n1 < Content-Type: application\/json; charset=utf-8\n1 < Transfer-Encoding: chunked\n1 < Connection: keep-alive\n1 < Report-To: {\"group\":\"heroku-nel\",\"max_age\":3600,\"endpoints\":[{\"url\":\"https:\/\/nel.heroku.com\/reports?ts=1698836381&sid=c4c9725f-1ab0-44d8-820f-430df2718e11&s=SAkXBY9%2BllVbzpWd8Bl1aIcCBrCHVFcULO%2FFVJRCP8k%3D\"}]}\n1 < Reporting-Endpoints: heroku-nel=https:\/\/nel.heroku.com\/reports?ts=1698836381&sid=c4c9725f-1ab0-44d8-820f-430df2718e11&s=SAkXBY9%2BllVbzpWd8Bl1aIcCBrCHVFcULO%2FFVJRCP8k%3D\n1 < Nel: {\"report_to\":\"heroku-nel\",\"max_age\":3600,\"success_fraction\":0.005,\"failure_fraction\":0.05,\"response_headers\":[\"Via\"]}\n1 < X-Powered-By: Express\n1 < Access-Control-Allow-Origin: *\n1 < Etag: W\/\"3e4-2RLXvr5wTg9YQ6aH95CkYoFNuO8\"\n1 < Via: 1.1 vegur\n1 < Cache-Control: max-age=14400\n1 < CF-Cache-Status: REVALIDATED\n1 < Vary: Accept-Encoding\n1 < Server: cloudflare\n1 < CF-RAY: 8214ad29cf21f296-BOM\n{\"page\":1,\"per_page\":6,\"total\":12,\"total_pages\":2,\"data\":[{\"id\":1,\"email\":\"george.bluth@reqres.in\",\"first_name\":\"George\",\"last_name\":\"Bluth\",\"avatar\":\"https:\/\/reqres.in\/img\/faces\/1-image.jpg\"},{\"id\":2,\"email\":\"janet.weaver@reqres.in\",\"first_name\":\"Janet\",\"last_name\":\"Weaver\",\"avatar\":\"https:\/\/reqres.in\/img\/faces\/2-image.jpg\"},{\"id\":3,\"email\":\"emma.wong@reqres.in\",\"first_name\":\"Emma\",\"last_name\":\"Wong\",\"avatar\":\"https:\/\/reqres.in\/img\/faces\/3-image.jpg\"},{\"id\":4,\"email\":\"eve.holt@reqres.in\",\"first_name\":\"Eve\",\"last_name\":\"Holt\",\"avatar\":\"https:\/\/reqres.in\/img\/faces\/4-image.jpg\"},{\"id\":5,\"email\":\"charles.morris@reqres.in\",\"first_name\":\"Charles\",\"last_name\":\"Morris\",\"avatar\":\"https:\/\/reqres.in\/img\/faces\/5-image.jpg\"},{\"id\":6,\"email\":\"tracey.ramos@reqres.in\",\"first_name\":\"Tracey\",\"last_name\":\"Ramos\",\"avatar\":\"https:\/\/reqres.in\/img\/faces\/6-image.jpg\"}],\"support\":{\"url\":\"https:\/\/reqres.in\/#support-heading\",\"text\":\"To keep ReqRes free, contributions towards server costs are appreciated!\"}}\n\n"},{"result":{"nanos":9500,"millis":0.0095,"status":"passed"},"step":{"line":21,"prefix":"Then","index":3,"text":"status 200"}},{"result":{"nanos":13256800,"millis":13.2568,"status":"passed"},"step":{"line":22,"prefix":"And","index":4,"text":"match response.data[*].id == \"#[_ >2]\""}}],"executorName":"main","line":17,"name":"get a list of users","description":"","durationMillis":1075.4932,"startTime":1699182915002,"failed":false,"refId":"[2:17]","endTime":1699182916078,"exampleIndex":-1}],"callDepth":0,"name":"GET API feature","description":"","resultDate":"2023-11-05 04:45:16 PM","durationMillis":2870.4954,"passedCount":1}