{"failedCount":1,"prefixedPath":"classpath:api1.feature","packageQualifiedName":"api1","loopIndex":-1,"relativePath":"api1.feature","scenarioResults":[{"sectionIndex":0,"stepResults":[{"result":{"nanos":69597900,"millis":69.5979,"status":"passed"},"step":{"line":4,"prefix":"Given","index":0,"text":"url \"https:\/\/reqres.in\/api\""}},{"result":{"nanos":573300,"millis":0.5733,"status":"passed"},"step":{"line":5,"prefix":"Given","index":1,"text":"path '\/users'"}},{"result":{"nanos":3136747800,"millis":3136.7478,"status":"passed"},"step":{"line":6,"prefix":"When","index":2,"text":"method GET"},"stepLog":"14:33:29.745 request:\n1 > GET https:\/\/reqres.in\/api\/users\n1 > Host: reqres.in\n1 > Connection: Keep-Alive\n1 > User-Agent: Apache-HttpClient\/4.5.13 (Java\/11.0.19)\n1 > Accept-Encoding: gzip,deflate\n\n\n14:33:32.466 response time in milliseconds: 2718\n1 < 200\n1 < Date: Mon, 06 Nov 2023 09:03:17 GMT\n1 < Content-Type: application\/json; charset=utf-8\n1 < Transfer-Encoding: chunked\n1 < Connection: keep-alive\n1 < X-Powered-By: Express\n1 < Access-Control-Allow-Origin: *\n1 < Etag: W\/\"3e4-2RLXvr5wTg9YQ6aH95CkYoFNuO8\"\n1 < Via: 1.1 vegur\n1 < Cache-Control: max-age=14400\n1 < CF-Cache-Status: HIT\n1 < Age: 4093\n1 < Report-To: {\"endpoints\":[{\"url\":\"https:\\\/\\\/a.nel.cloudflare.com\\\/report\\\/v3?s=NUvBpGsSvdIkRISnXSClSxDq5gaf0qrYYkocGEW1N6LzRmYzN7iVvPBCD105C7waRP4vO937JAH65%2FASPbsMJqk%2Fx0kjtJYZRtz1EZ9F3HsN%2FPO4uyJ3FluZ5A%3D%3D\"}],\"group\":\"cf-nel\",\"max_age\":604800}\n1 < NEL: {\"success_fraction\":0,\"report_to\":\"cf-nel\",\"max_age\":604800}\n1 < Vary: Accept-Encoding\n1 < Server: cloudflare\n1 < CF-RAY: 821c29942a87448f-SIN\n{\"page\":1,\"per_page\":6,\"total\":12,\"total_pages\":2,\"data\":[{\"id\":1,\"email\":\"george.bluth@reqres.in\",\"first_name\":\"George\",\"last_name\":\"Bluth\",\"avatar\":\"https:\/\/reqres.in\/img\/faces\/1-image.jpg\"},{\"id\":2,\"email\":\"janet.weaver@reqres.in\",\"first_name\":\"Janet\",\"last_name\":\"Weaver\",\"avatar\":\"https:\/\/reqres.in\/img\/faces\/2-image.jpg\"},{\"id\":3,\"email\":\"emma.wong@reqres.in\",\"first_name\":\"Emma\",\"last_name\":\"Wong\",\"avatar\":\"https:\/\/reqres.in\/img\/faces\/3-image.jpg\"},{\"id\":4,\"email\":\"eve.holt@reqres.in\",\"first_name\":\"Eve\",\"last_name\":\"Holt\",\"avatar\":\"https:\/\/reqres.in\/img\/faces\/4-image.jpg\"},{\"id\":5,\"email\":\"charles.morris@reqres.in\",\"first_name\":\"Charles\",\"last_name\":\"Morris\",\"avatar\":\"https:\/\/reqres.in\/img\/faces\/5-image.jpg\"},{\"id\":6,\"email\":\"tracey.ramos@reqres.in\",\"first_name\":\"Tracey\",\"last_name\":\"Ramos\",\"avatar\":\"https:\/\/reqres.in\/img\/faces\/6-image.jpg\"}],\"support\":{\"url\":\"https:\/\/reqres.in\/#support-heading\",\"text\":\"To keep ReqRes free, contributions towards server costs are appreciated!\"}}\n\n"},{"result":{"nanos":30000,"millis":0.03,"status":"passed"},"step":{"line":7,"prefix":"Then","index":3,"text":"status 200"}},{"result":{"nanos":59285300,"millis":59.2853,"status":"passed"},"step":{"line":8,"prefix":"And","index":4,"text":"match response.data[*].id == '#[_ >1]'"}}],"executorName":"main","line":3,"name":"Get a  list of users","description":"","durationMillis":3266.2343,"startTime":1699261409281,"failed":false,"refId":"[1:3]","endTime":1699261412563,"exampleIndex":-1},{"sectionIndex":1,"stepResults":[{"result":{"nanos":852100,"millis":0.8521,"status":"passed"},"step":{"line":12,"prefix":"Given","index":0,"text":"url \"https:\/\/reqres.in\/api\/users\""}},{"result":{"nanos":382300,"millis":0.3823,"status":"passed"},"step":{"line":13,"prefix":"Given","index":1,"text":"path  \"1\""}},{"result":{"nanos":229502300,"millis":229.5023,"status":"passed"},"step":{"line":14,"prefix":"When","index":2,"text":"method  GET"},"stepLog":"14:33:32.574 request:\n1 > GET https:\/\/reqres.in\/api\/users\/1\n1 > Host: reqres.in\n1 > Connection: Keep-Alive\n1 > User-Agent: Apache-HttpClient\/4.5.13 (Java\/11.0.19)\n1 > Accept-Encoding: gzip,deflate\n\n\n14:33:32.800 response time in milliseconds: 225\n1 < 200\n1 < Date: Mon, 06 Nov 2023 09:03:17 GMT\n1 < Content-Type: application\/json; charset=utf-8\n1 < Transfer-Encoding: chunked\n1 < Connection: keep-alive\n1 < X-Powered-By: Express\n1 < Access-Control-Allow-Origin: *\n1 < Etag: W\/\"118-P3iKcVpIgCj9HqYeOOrGLX8qJVc\"\n1 < Via: 1.1 vegur\n1 < Cache-Control: max-age=14400\n1 < CF-Cache-Status: HIT\n1 < Age: 6025\n1 < Report-To: {\"endpoints\":[{\"url\":\"https:\\\/\\\/a.nel.cloudflare.com\\\/report\\\/v3?s=eC0lBF41Gk3tcdOBjsbK5VnJ3%2BkZY%2F6KX3GkZ6oJBEVnjwqNAg1meLmzCriqiC5vk21D5phBEpfB5eAh5jSd%2B4qBjbvBFICFCFPIdeVedfhREpLdLiFXa4AnmQ%3D%3D\"}],\"group\":\"cf-nel\",\"max_age\":604800}\n1 < NEL: {\"success_fraction\":0,\"report_to\":\"cf-nel\",\"max_age\":604800}\n1 < Vary: Accept-Encoding\n1 < Server: cloudflare\n1 < CF-RAY: 821c29975ed446b0-BOM\n{\"data\":{\"id\":1,\"email\":\"george.bluth@reqres.in\",\"first_name\":\"George\",\"last_name\":\"Bluth\",\"avatar\":\"https:\/\/reqres.in\/img\/faces\/1-image.jpg\"},\"support\":{\"url\":\"https:\/\/reqres.in\/#support-heading\",\"text\":\"To keep ReqRes free, contributions towards server costs are appreciated!\"}}\n\n"},{"result":{"nanos":194800,"errorMessage":"status code was: 200, expected: 404, response time in milliseconds: 225, url: https:\/\/reqres.in\/api\/users\/1, response: \n{\"data\":{\"id\":1,\"email\":\"george.bluth@reqres.in\",\"first_name\":\"George\",\"last_name\":\"Bluth\",\"avatar\":\"https:\/\/reqres.in\/img\/faces\/1-image.jpg\"},\"support\":{\"url\":\"https:\/\/reqres.in\/#support-heading\",\"text\":\"To keep ReqRes free, contributions towards server costs are appreciated!\"}}\nclasspath:api1.feature:15","millis":0.1948,"status":"failed"},"step":{"line":15,"prefix":"Then","index":3,"text":"status  404"},"stepLog":"14:33:32.803 classpath:api1.feature:15\nThen status  404\nstatus code was: 200, expected: 404, response time in milliseconds: 225, url: https:\/\/reqres.in\/api\/users\/1, response: \n{\"data\":{\"id\":1,\"email\":\"george.bluth@reqres.in\",\"first_name\":\"George\",\"last_name\":\"Bluth\",\"avatar\":\"https:\/\/reqres.in\/img\/faces\/1-image.jpg\"},\"support\":{\"url\":\"https:\/\/reqres.in\/#support-heading\",\"text\":\"To keep ReqRes free, contributions towards server costs are appreciated!\"}}\nclasspath:api1.feature:15\n"}],"line":11,"description":"","durationMillis":230.9315,"failed":true,"error":"status code was: 200, expected: 404, response time in milliseconds: 225, url: https:\/\/reqres.in\/api\/users\/1, response: \n{\"data\":{\"id\":1,\"email\":\"george.bluth@reqres.in\",\"first_name\":\"George\",\"last_name\":\"Bluth\",\"avatar\":\"https:\/\/reqres.in\/img\/faces\/1-image.jpg\"},\"support\":{\"url\":\"https:\/\/reqres.in\/#support-heading\",\"text\":\"To keep ReqRes free, contributions towards server costs are appreciated!\"}}\nclasspath:api1.feature:15","executorName":"main","name":"Get user details - user not found","startTime":1699261412571,"refId":"[2:11]","endTime":1699261412803,"exampleIndex":-1},{"sectionIndex":2,"stepResults":[{"result":{"nanos":624100,"millis":0.6241,"status":"passed"},"step":{"line":18,"prefix":"Given","index":0,"text":"url \"https:\/\/reqres.in\/api\""}},{"result":{"nanos":517600,"millis":0.5176,"status":"passed"},"step":{"line":19,"prefix":"Given","index":1,"text":"path  \"\/user\/2\""}},{"result":{"nanos":186398900,"millis":186.3989,"status":"passed"},"step":{"line":20,"prefix":"When","index":2,"text":"method  GET"},"stepLog":"14:33:32.817 request:\n1 > GET https:\/\/reqres.in\/api\/user\/2\n1 > Host: reqres.in\n1 > Connection: Keep-Alive\n1 > User-Agent: Apache-HttpClient\/4.5.13 (Java\/11.0.19)\n1 > Accept-Encoding: gzip,deflate\n\n\n14:33:32.999 response time in milliseconds: 181\n1 < 200\n1 < Date: Mon, 06 Nov 2023 09:03:17 GMT\n1 < Content-Type: application\/json; charset=utf-8\n1 < Transfer-Encoding: chunked\n1 < Connection: keep-alive\n1 < Report-To: {\"group\":\"heroku-nel\",\"max_age\":3600,\"endpoints\":[{\"url\":\"https:\/\/nel.heroku.com\/reports?ts=1698994672&sid=c4c9725f-1ab0-44d8-820f-430df2718e11&s=0B0rF7Gc%2BPklYiDE0ktYTQQn4aIwinDWLTdMSik9JPA%3D\"}]}\n1 < Reporting-Endpoints: heroku-nel=https:\/\/nel.heroku.com\/reports?ts=1698994672&sid=c4c9725f-1ab0-44d8-820f-430df2718e11&s=0B0rF7Gc%2BPklYiDE0ktYTQQn4aIwinDWLTdMSik9JPA%3D\n1 < Nel: {\"report_to\":\"heroku-nel\",\"max_age\":3600,\"success_fraction\":0.005,\"failure_fraction\":0.05,\"response_headers\":[\"Via\"]}\n1 < X-Powered-By: Express\n1 < Access-Control-Allow-Origin: *\n1 < Etag: W\/\"e8-ov4wWh4\/OY1IMQMqWgskYtOFnVs\"\n1 < Via: 1.1 vegur\n1 < Cache-Control: max-age=14400\n1 < CF-Cache-Status: HIT\n1 < Age: 415\n1 < Vary: Accept-Encoding\n1 < Server: cloudflare\n1 < CF-RAY: 821c2998acea442a-BOM\n{\"data\":{\"id\":2,\"name\":\"fuchsia rose\",\"year\":2001,\"color\":\"#C74375\",\"pantone_value\":\"17-2031\"},\"support\":{\"url\":\"https:\/\/reqres.in\/#support-heading\",\"text\":\"To keep ReqRes free, contributions towards server costs are appreciated!\"}}\n\n"},{"result":{"nanos":12500,"millis":0.0125,"status":"passed"},"step":{"line":21,"prefix":"Then","index":3,"text":"status  200"}},{"result":{"nanos":12183800,"millis":12.1838,"status":"passed"},"step":{"line":22,"prefix":"And","index":4,"text":"match response.data.id == 2"}}],"executorName":"main","line":17,"name":"Get a single user","description":"","durationMillis":199.7369,"startTime":1699261412814,"failed":false,"refId":"[3:17]","endTime":1699261413014,"exampleIndex":-1},{"sectionIndex":3,"stepResults":[{"result":{"nanos":358300,"millis":0.3583,"status":"passed"},"step":{"line":25,"prefix":"Given","index":0,"text":"url \"https:\/\/reqres.in\/api\""}},{"result":{"nanos":1377500,"millis":1.3775,"status":"passed"},"step":{"line":26,"prefix":"Given","index":1,"text":"path  \"\/users\""}},{"result":{"nanos":2765200,"millis":2.7652,"status":"passed"},"step":{"line":27,"prefix":"And","index":2,"text":"request {\"name\": \"John Doe\",\"job\":\"Software Engineer\"}"}},{"result":{"nanos":1164335000,"millis":1164.335,"status":"passed"},"step":{"line":28,"prefix":"When","index":3,"text":"method  POST"},"stepLog":"14:33:33.091 request:\n1 > POST https:\/\/reqres.in\/api\/users\n1 > Content-Type: application\/json; charset=UTF-8\n1 > Content-Length: 45\n1 > Host: reqres.in\n1 > Connection: Keep-Alive\n1 > User-Agent: Apache-HttpClient\/4.5.13 (Java\/11.0.19)\n1 > Accept-Encoding: gzip,deflate\n{\"name\":\"John Doe\",\"job\":\"Software Engineer\"}\n\n14:33:34.188 response time in milliseconds: 1097\n1 < 201\n1 < Date: Mon, 06 Nov 2023 09:03:18 GMT\n1 < Content-Type: application\/json; charset=utf-8\n1 < Content-Length: 95\n1 < Connection: keep-alive\n1 < Report-To: {\"group\":\"heroku-nel\",\"max_age\":3600,\"endpoints\":[{\"url\":\"https:\/\/nel.heroku.com\/reports?ts=1699261398&sid=c4c9725f-1ab0-44d8-820f-430df2718e11&s=gC5d2Tl%2F9edLe6kIzpQXfq%2BQCF4Uclm%2FbNpKBm2OR%2FI%3D\"}]}\n1 < Reporting-Endpoints: heroku-nel=https:\/\/nel.heroku.com\/reports?ts=1699261398&sid=c4c9725f-1ab0-44d8-820f-430df2718e11&s=gC5d2Tl%2F9edLe6kIzpQXfq%2BQCF4Uclm%2FbNpKBm2OR%2FI%3D\n1 < Nel: {\"report_to\":\"heroku-nel\",\"max_age\":3600,\"success_fraction\":0.005,\"failure_fraction\":0.05,\"response_headers\":[\"Via\"]}\n1 < X-Powered-By: Express\n1 < Access-Control-Allow-Origin: *\n1 < Etag: W\/\"5f-5BAQOkSUb0u3l+F9Ow4VM22chtw\"\n1 < Via: 1.1 vegur\n1 < CF-Cache-Status: DYNAMIC\n1 < Server: cloudflare\n1 < CF-RAY: 821c299ca9e13fec-SIN\n{\"name\":\"John Doe\",\"job\":\"Software Engineer\",\"id\":\"653\",\"createdAt\":\"2023-11-06T09:03:18.788Z\"}\n\n"},{"result":{"nanos":10900,"millis":0.0109,"status":"passed"},"step":{"line":29,"prefix":"Then","index":4,"text":"status  201"}},{"result":{"nanos":1236700,"millis":1.2367,"status":"passed"},"step":{"line":30,"prefix":"And","index":5,"text":"match response.job == \"Software Engineer\""}}],"executorName":"main","line":24,"name":"Create a new user","description":"","durationMillis":1170.0836,"startTime":1699261413020,"failed":false,"refId":"[4:24]","endTime":1699261414191,"exampleIndex":-1},{"sectionIndex":4,"stepResults":[{"result":{"nanos":324100,"millis":0.3241,"status":"passed"},"step":{"line":33,"prefix":"Given","index":0,"text":"url \"https:\/\/reqres.in\/api\""}},{"result":{"nanos":551800,"millis":0.5518,"status":"passed"},"step":{"line":34,"prefix":"Given","index":1,"text":"path  \"\/users\/2\""}},{"result":{"nanos":350600,"millis":0.3506,"status":"passed"},"step":{"line":35,"prefix":"And","index":2,"text":"request {\"job\": \"zion resident\"}"}},{"result":{"nanos":581747500,"millis":581.7475,"status":"passed"},"step":{"line":36,"prefix":"When","index":3,"text":"method  PUT"},"stepLog":"14:33:34.201 request:\n1 > PUT https:\/\/reqres.in\/api\/users\/2\n1 > Content-Type: application\/json; charset=UTF-8\n1 > Content-Length: 23\n1 > Host: reqres.in\n1 > Connection: Keep-Alive\n1 > User-Agent: Apache-HttpClient\/4.5.13 (Java\/11.0.19)\n1 > Accept-Encoding: gzip,deflate\n{\"job\":\"zion resident\"}\n\n14:33:34.778 response time in milliseconds: 577\n1 < 200\n1 < Date: Mon, 06 Nov 2023 09:03:19 GMT\n1 < Content-Type: application\/json; charset=utf-8\n1 < Transfer-Encoding: chunked\n1 < Connection: keep-alive\n1 < Report-To: {\"group\":\"heroku-nel\",\"max_age\":3600,\"endpoints\":[{\"url\":\"https:\/\/nel.heroku.com\/reports?ts=1699261399&sid=c4c9725f-1ab0-44d8-820f-430df2718e11&s=cMZstEKHwgoC9%2BmrCpEZT0FGbs9bXfMaF6KAITITtG4%3D\"}]}\n1 < Reporting-Endpoints: heroku-nel=https:\/\/nel.heroku.com\/reports?ts=1699261399&sid=c4c9725f-1ab0-44d8-820f-430df2718e11&s=cMZstEKHwgoC9%2BmrCpEZT0FGbs9bXfMaF6KAITITtG4%3D\n1 < Nel: {\"report_to\":\"heroku-nel\",\"max_age\":3600,\"success_fraction\":0.005,\"failure_fraction\":0.05,\"response_headers\":[\"Via\"]}\n1 < X-Powered-By: Express\n1 < Access-Control-Allow-Origin: *\n1 < Etag: W\/\"3e-kOlta681kb\/ZpJxhltkUcmliYM8\"\n1 < Via: 1.1 vegur\n1 < CF-Cache-Status: DYNAMIC\n1 < Vary: Accept-Encoding\n1 < Server: cloudflare\n1 < CF-RAY: 821c29a15fb140b7-BOM\n{\"job\":\"zion resident\",\"updatedAt\":\"2023-11-06T09:03:19.564Z\"}\n\n"},{"result":{"nanos":8600,"millis":0.0086,"status":"passed"},"step":{"line":37,"prefix":"Then","index":4,"text":"status  200"}},{"result":{"nanos":1102700,"millis":1.1027,"status":"passed"},"step":{"line":38,"prefix":"And","index":5,"text":"match response.job == \"zion resident\""}}],"executorName":"main","line":32,"name":"Update user","description":"","durationMillis":584.0853,"startTime":1699261414197,"failed":false,"refId":"[5:32]","endTime":1699261414781,"exampleIndex":-1},{"sectionIndex":5,"stepResults":[{"result":{"nanos":385500,"millis":0.3855,"status":"passed"},"step":{"line":41,"prefix":"Given","index":0,"text":"url \"https:\/\/reqres.in\/api\""}},{"result":{"nanos":105800,"millis":0.1058,"status":"passed"},"step":{"line":42,"prefix":"Given","index":1,"text":"path  \"\/users\/2\""}},{"result":{"nanos":1055972400,"millis":1055.9724,"status":"passed"},"step":{"line":43,"prefix":"When","index":2,"text":"method  DELETE"},"stepLog":"14:33:34.788 request:\n1 > DELETE https:\/\/reqres.in\/api\/users\/2\n1 > Host: reqres.in\n1 > Connection: Keep-Alive\n1 > User-Agent: Apache-HttpClient\/4.5.13 (Java\/11.0.19)\n1 > Accept-Encoding: gzip,deflate\n\n\n14:33:35.842 response time in milliseconds: 1054\n1 < 204\n1 < Date: Mon, 06 Nov 2023 09:03:20 GMT\n1 < Content-Length: 0\n1 < Connection: keep-alive\n1 < X-Powered-By: Express\n1 < Access-Control-Allow-Origin: *\n1 < Etag: W\/\"2-vyGp6PvFo4RvsFtPoIWeCReyIC8\"\n1 < Via: 1.1 vegur\n1 < CF-Cache-Status: DYNAMIC\n1 < Report-To: {\"endpoints\":[{\"url\":\"https:\\\/\\\/a.nel.cloudflare.com\\\/report\\\/v3?s=0YVJtNkbDnJfWQLnT21xPQMHZRPQCiolPAkEh5bRyH%2FZAsPCtYSFbQuNML%2BKCwoXQJUcjcWjhG7ldNGbrCQ0gHZbLIr3BTw8qK%2Bcx7JUZef3A2%2B4zmMQT%2BDslA%3D%3D\"}],\"group\":\"cf-nel\",\"max_age\":604800}\n1 < NEL: {\"success_fraction\":0,\"report_to\":\"cf-nel\",\"max_age\":604800}\n1 < Server: cloudflare\n1 < CF-RAY: 821c29a73cd83fb6-SIN\n\n\n"},{"result":{"nanos":9000,"millis":0.009,"status":"passed"},"step":{"line":44,"prefix":"Then","index":3,"text":"status  204"}}],"executorName":"main","line":40,"name":"Delete user","description":"","durationMillis":1056.4727,"startTime":1699261414786,"failed":false,"refId":"[6:40]","endTime":1699261415843,"exampleIndex":-1}],"callDepth":0,"name":"GET API feature","description":"","resultDate":"2023-11-06 02:33:35 PM","durationMillis":6507.5443,"passedCount":5}