{"failedCount":1,"prefixedPath":"src\/test\/java\/api1.feature","packageQualifiedName":"src.test.java.api1","loopIndex":-1,"relativePath":"src\/test\/java\/api1.feature","scenarioResults":[{"sectionIndex":0,"stepResults":[{"result":{"nanos":66088500,"millis":66.0885,"status":"passed"},"step":{"line":4,"prefix":"Given","index":0,"text":"url \"https:\/\/reqres.in\/api\""}},{"result":{"nanos":513500,"millis":0.5135,"status":"passed"},"step":{"line":5,"prefix":"Given","index":1,"text":"path '\/users'"}},{"result":{"nanos":1641534600,"millis":1641.5346,"status":"passed"},"step":{"line":6,"prefix":"When","index":2,"text":"method GET"},"stepLog":"14:31:53.641 request:\n1 > GET https:\/\/reqres.in\/api\/users\n1 > Host: reqres.in\n1 > Connection: Keep-Alive\n1 > User-Agent: Apache-HttpClient\/4.5.13 (Java\/11.0.19)\n1 > Accept-Encoding: gzip,deflate\n\n\n14:31:54.905 response time in milliseconds: 1262\n1 < 200\n1 < Date: Mon, 06 Nov 2023 09:01:39 GMT\n1 < Content-Type: application\/json; charset=utf-8\n1 < Transfer-Encoding: chunked\n1 < Connection: keep-alive\n1 < X-Powered-By: Express\n1 < Access-Control-Allow-Origin: *\n1 < Etag: W\/\"3e4-2RLXvr5wTg9YQ6aH95CkYoFNuO8\"\n1 < Via: 1.1 vegur\n1 < Cache-Control: max-age=14400\n1 < CF-Cache-Status: HIT\n1 < Age: 3995\n1 < Report-To: {\"endpoints\":[{\"url\":\"https:\\\/\\\/a.nel.cloudflare.com\\\/report\\\/v3?s=DhrAnQD5IGQ%2FkdW2znuPzL%2BCQnTNYUDOSKyPRgpRa8zzBVl7mlImYwu4SdWxqLca7qnZhSHUQxYga2kTa9UhdhtE0cGkbN8OoB%2BKtvQYYL3EBVgWgwqMFLC9tA%3D%3D\"}],\"group\":\"cf-nel\",\"max_age\":604800}\n1 < NEL: {\"success_fraction\":0,\"report_to\":\"cf-nel\",\"max_age\":604800}\n1 < Vary: Accept-Encoding\n1 < Server: cloudflare\n1 < CF-RAY: 821c27327d7a3f98-SIN\n{\"page\":1,\"per_page\":6,\"total\":12,\"total_pages\":2,\"data\":[{\"id\":1,\"email\":\"george.bluth@reqres.in\",\"first_name\":\"George\",\"last_name\":\"Bluth\",\"avatar\":\"https:\/\/reqres.in\/img\/faces\/1-image.jpg\"},{\"id\":2,\"email\":\"janet.weaver@reqres.in\",\"first_name\":\"Janet\",\"last_name\":\"Weaver\",\"avatar\":\"https:\/\/reqres.in\/img\/faces\/2-image.jpg\"},{\"id\":3,\"email\":\"emma.wong@reqres.in\",\"first_name\":\"Emma\",\"last_name\":\"Wong\",\"avatar\":\"https:\/\/reqres.in\/img\/faces\/3-image.jpg\"},{\"id\":4,\"email\":\"eve.holt@reqres.in\",\"first_name\":\"Eve\",\"last_name\":\"Holt\",\"avatar\":\"https:\/\/reqres.in\/img\/faces\/4-image.jpg\"},{\"id\":5,\"email\":\"charles.morris@reqres.in\",\"first_name\":\"Charles\",\"last_name\":\"Morris\",\"avatar\":\"https:\/\/reqres.in\/img\/faces\/5-image.jpg\"},{\"id\":6,\"email\":\"tracey.ramos@reqres.in\",\"first_name\":\"Tracey\",\"last_name\":\"Ramos\",\"avatar\":\"https:\/\/reqres.in\/img\/faces\/6-image.jpg\"}],\"support\":{\"url\":\"https:\/\/reqres.in\/#support-heading\",\"text\":\"To keep ReqRes free, contributions towards server costs are appreciated!\"}}\n\n"},{"result":{"nanos":20000,"millis":0.02,"status":"passed"},"step":{"line":7,"prefix":"Then","index":3,"text":"status 200"}},{"result":{"nanos":58838400,"millis":58.8384,"status":"passed"},"step":{"line":8,"prefix":"And","index":4,"text":"match response.data[*].id == '#[_ >1]'"}}],"executorName":"main","line":3,"name":"Get a  list of users","description":"","durationMillis":1766.995,"startTime":1699261313220,"failed":false,"refId":"[1:3]","endTime":1699261314999,"exampleIndex":-1},{"sectionIndex":1,"stepResults":[{"result":{"nanos":401900,"millis":0.4019,"status":"passed"},"step":{"line":12,"prefix":"Given","index":0,"text":"url \"https:\/\/reqres.in\/api\/users\""}},{"result":{"nanos":245800,"millis":0.2458,"status":"passed"},"step":{"line":13,"prefix":"Given","index":1,"text":"path  \"1\""}},{"result":{"nanos":726058200,"millis":726.0582,"status":"passed"},"step":{"line":14,"prefix":"When","index":2,"text":"method  GET"},"stepLog":"14:31:55.006 request:\n1 > GET https:\/\/reqres.in\/api\/users\/1\n1 > Host: reqres.in\n1 > Connection: Keep-Alive\n1 > User-Agent: Apache-HttpClient\/4.5.13 (Java\/11.0.19)\n1 > Accept-Encoding: gzip,deflate\n\n\n14:31:55.730 response time in milliseconds: 724\n1 < 200\n1 < Date: Mon, 06 Nov 2023 09:01:40 GMT\n1 < Content-Type: application\/json; charset=utf-8\n1 < Transfer-Encoding: chunked\n1 < Connection: keep-alive\n1 < X-Powered-By: Express\n1 < Access-Control-Allow-Origin: *\n1 < Etag: W\/\"118-P3iKcVpIgCj9HqYeOOrGLX8qJVc\"\n1 < Via: 1.1 vegur\n1 < Cache-Control: max-age=14400\n1 < CF-Cache-Status: HIT\n1 < Age: 4369\n1 < Report-To: {\"endpoints\":[{\"url\":\"https:\\\/\\\/a.nel.cloudflare.com\\\/report\\\/v3?s=cKFRi1ZEgLa2XAfW%2F34yFj6cW7TDakbktEiSY2X54fRI7qGQ96Xwd0sxCn%2Bk%2B97R38E2wzrDC5I60AQskGX4ZTnthOBQmUCh996DpGsaCljendmOOKb1vWYWnQ%3D%3D\"}],\"group\":\"cf-nel\",\"max_age\":604800}\n1 < NEL: {\"success_fraction\":0,\"report_to\":\"cf-nel\",\"max_age\":604800}\n1 < Vary: Accept-Encoding\n1 < Server: cloudflare\n1 < CF-RAY: 821c2737bc903fb3-SIN\n{\"data\":{\"id\":1,\"email\":\"george.bluth@reqres.in\",\"first_name\":\"George\",\"last_name\":\"Bluth\",\"avatar\":\"https:\/\/reqres.in\/img\/faces\/1-image.jpg\"},\"support\":{\"url\":\"https:\/\/reqres.in\/#support-heading\",\"text\":\"To keep ReqRes free, contributions towards server costs are appreciated!\"}}\n\n"},{"result":{"nanos":158700,"errorMessage":"status code was: 200, expected: 404, response time in milliseconds: 724, url: https:\/\/reqres.in\/api\/users\/1, response: \n{\"data\":{\"id\":1,\"email\":\"george.bluth@reqres.in\",\"first_name\":\"George\",\"last_name\":\"Bluth\",\"avatar\":\"https:\/\/reqres.in\/img\/faces\/1-image.jpg\"},\"support\":{\"url\":\"https:\/\/reqres.in\/#support-heading\",\"text\":\"To keep ReqRes free, contributions towards server costs are appreciated!\"}}\nsrc\/test\/java\/api1.feature:15","millis":0.1587,"status":"failed"},"step":{"line":15,"prefix":"Then","index":3,"text":"status  404"},"stepLog":"14:31:55.732 src\/test\/java\/api1.feature:15\nThen status  404\nstatus code was: 200, expected: 404, response time in milliseconds: 724, url: https:\/\/reqres.in\/api\/users\/1, response: \n{\"data\":{\"id\":1,\"email\":\"george.bluth@reqres.in\",\"first_name\":\"George\",\"last_name\":\"Bluth\",\"avatar\":\"https:\/\/reqres.in\/img\/faces\/1-image.jpg\"},\"support\":{\"url\":\"https:\/\/reqres.in\/#support-heading\",\"text\":\"To keep ReqRes free, contributions towards server costs are appreciated!\"}}\nsrc\/test\/java\/api1.feature:15\n"}],"line":11,"description":"","durationMillis":726.8646,"failed":true,"error":"status code was: 200, expected: 404, response time in milliseconds: 724, url: https:\/\/reqres.in\/api\/users\/1, response: \n{\"data\":{\"id\":1,\"email\":\"george.bluth@reqres.in\",\"first_name\":\"George\",\"last_name\":\"Bluth\",\"avatar\":\"https:\/\/reqres.in\/img\/faces\/1-image.jpg\"},\"support\":{\"url\":\"https:\/\/reqres.in\/#support-heading\",\"text\":\"To keep ReqRes free, contributions towards server costs are appreciated!\"}}\nsrc\/test\/java\/api1.feature:15","executorName":"main","name":"Get user details - user not found","startTime":1699261315004,"refId":"[2:11]","endTime":1699261315732,"exampleIndex":-1},{"sectionIndex":2,"stepResults":[{"result":{"nanos":551100,"millis":0.5511,"status":"passed"},"step":{"line":18,"prefix":"Given","index":0,"text":"url \"https:\/\/reqres.in\/api\""}},{"result":{"nanos":337900,"millis":0.3379,"status":"passed"},"step":{"line":19,"prefix":"Given","index":1,"text":"path  \"\/user\/2\""}},{"result":{"nanos":712650200,"millis":712.6502,"status":"passed"},"step":{"line":20,"prefix":"When","index":2,"text":"method  GET"},"stepLog":"14:31:55.741 request:\n1 > GET https:\/\/reqres.in\/api\/user\/2\n1 > Host: reqres.in\n1 > Connection: Keep-Alive\n1 > User-Agent: Apache-HttpClient\/4.5.13 (Java\/11.0.19)\n1 > Accept-Encoding: gzip,deflate\n\n\n14:31:56.451 response time in milliseconds: 710\n1 < 200\n1 < Date: Mon, 06 Nov 2023 09:01:41 GMT\n1 < Content-Type: application\/json; charset=utf-8\n1 < Transfer-Encoding: chunked\n1 < Connection: keep-alive\n1 < X-Powered-By: Express\n1 < Access-Control-Allow-Origin: *\n1 < Etag: W\/\"e8-ov4wWh4\/OY1IMQMqWgskYtOFnVs\"\n1 < Via: 1.1 vegur\n1 < Cache-Control: max-age=14400\n1 < CF-Cache-Status: HIT\n1 < Age: 6065\n1 < Report-To: {\"endpoints\":[{\"url\":\"https:\\\/\\\/a.nel.cloudflare.com\\\/report\\\/v3?s=ohOTVZKzhZij0RuTbPlJElF8sQORT6rxNQjH8H94IXtsTYGTP0wWVAibBiEI6lXv5BG%2F8ZlZNG1P4OMX29bTmzh1680uFukHAs23vhhvI2zH5tdTxUSvl2sXNA%3D%3D\"}],\"group\":\"cf-nel\",\"max_age\":604800}\n1 < NEL: {\"success_fraction\":0,\"report_to\":\"cf-nel\",\"max_age\":604800}\n1 < Vary: Accept-Encoding\n1 < Server: cloudflare\n1 < CF-RAY: 821c273c3e4e3fa5-SIN\n{\"data\":{\"id\":2,\"name\":\"fuchsia rose\",\"year\":2001,\"color\":\"#C74375\",\"pantone_value\":\"17-2031\"},\"support\":{\"url\":\"https:\/\/reqres.in\/#support-heading\",\"text\":\"To keep ReqRes free, contributions towards server costs are appreciated!\"}}\n\n"},{"result":{"nanos":11100,"millis":0.0111,"status":"passed"},"step":{"line":21,"prefix":"Then","index":3,"text":"status  200"}},{"result":{"nanos":7655500,"millis":7.6555,"status":"passed"},"step":{"line":22,"prefix":"And","index":4,"text":"match response.data.id == 2"}}],"executorName":"main","line":17,"name":"Get a single user","description":"","durationMillis":721.2058,"startTime":1699261315738,"failed":false,"refId":"[3:17]","endTime":1699261316460,"exampleIndex":-1},{"sectionIndex":3,"stepResults":[{"result":{"nanos":185900,"millis":0.1859,"status":"passed"},"step":{"line":25,"prefix":"Given","index":0,"text":"url \"https:\/\/reqres.in\/api\""}},{"result":{"nanos":337500,"millis":0.3375,"status":"passed"},"step":{"line":26,"prefix":"Given","index":1,"text":"path  \"\/users\""}},{"result":{"nanos":1721200,"millis":1.7212,"status":"passed"},"step":{"line":27,"prefix":"And","index":2,"text":"request {\"name\": \"John Doe\",\"job\":\"Software Engineer\"}"}},{"result":{"nanos":698570800,"millis":698.5708,"status":"passed"},"step":{"line":28,"prefix":"When","index":3,"text":"method  POST"},"stepLog":"14:31:56.528 request:\n1 > POST https:\/\/reqres.in\/api\/users\n1 > Content-Type: application\/json; charset=UTF-8\n1 > Content-Length: 45\n1 > Host: reqres.in\n1 > Connection: Keep-Alive\n1 > User-Agent: Apache-HttpClient\/4.5.13 (Java\/11.0.19)\n1 > Accept-Encoding: gzip,deflate\n{\"name\":\"John Doe\",\"job\":\"Software Engineer\"}\n\n14:31:57.164 response time in milliseconds: 635\n1 < 201\n1 < Date: Mon, 06 Nov 2023 09:01:42 GMT\n1 < Content-Type: application\/json; charset=utf-8\n1 < Content-Length: 95\n1 < Connection: keep-alive\n1 < X-Powered-By: Express\n1 < Access-Control-Allow-Origin: *\n1 < Etag: W\/\"5f-79ry+hRCyMK7LYdyoXHIkVFQY0I\"\n1 < Via: 1.1 vegur\n1 < CF-Cache-Status: DYNAMIC\n1 < Report-To: {\"endpoints\":[{\"url\":\"https:\\\/\\\/a.nel.cloudflare.com\\\/report\\\/v3?s=JASTtLFnHfyU3sQ2hbVJLi8K71VU6Wb689TLU8hYk9qQm2kX56NC3B4W0B%2FJTtNoV5wzusFhILXrOQ1xDyXDrzIZd6YI7Yao8cze%2FREDErgsdpcPxFTV%2BvwbrA%3D%3D\"}],\"group\":\"cf-nel\",\"max_age\":604800}\n1 < NEL: {\"success_fraction\":0,\"report_to\":\"cf-nel\",\"max_age\":604800}\n1 < Server: cloudflare\n1 < CF-RAY: 821c273f3abe46b0-BOM\n{\"name\":\"John Doe\",\"job\":\"Software Engineer\",\"id\":\"669\",\"createdAt\":\"2023-11-06T09:01:41.948Z\"}\n\n"},{"result":{"nanos":11800,"millis":0.0118,"status":"passed"},"step":{"line":29,"prefix":"Then","index":4,"text":"status  201"}},{"result":{"nanos":975400,"millis":0.9754,"status":"passed"},"step":{"line":30,"prefix":"And","index":5,"text":"match response.job == \"Software Engineer\""}}],"executorName":"main","line":24,"name":"Create a new user","description":"","durationMillis":701.8026,"startTime":1699261316463,"failed":false,"refId":"[4:24]","endTime":1699261317165,"exampleIndex":-1},{"sectionIndex":4,"stepResults":[{"result":{"nanos":167400,"millis":0.1674,"status":"passed"},"step":{"line":33,"prefix":"Given","index":0,"text":"url \"https:\/\/reqres.in\/api\""}},{"result":{"nanos":319500,"millis":0.3195,"status":"passed"},"step":{"line":34,"prefix":"Given","index":1,"text":"path  \"\/users\/2\""}},{"result":{"nanos":264800,"millis":0.2648,"status":"passed"},"step":{"line":35,"prefix":"And","index":2,"text":"request {\"job\": \"zion resident\"}"}},{"result":{"nanos":1462463700,"millis":1462.4637,"status":"passed"},"step":{"line":36,"prefix":"When","index":3,"text":"method  PUT"},"stepLog":"14:31:57.171 request:\n1 > PUT https:\/\/reqres.in\/api\/users\/2\n1 > Content-Type: application\/json; charset=UTF-8\n1 > Content-Length: 23\n1 > Host: reqres.in\n1 > Connection: Keep-Alive\n1 > User-Agent: Apache-HttpClient\/4.5.13 (Java\/11.0.19)\n1 > Accept-Encoding: gzip,deflate\n{\"job\":\"zion resident\"}\n\n14:31:58.630 response time in milliseconds: 1459\n1 < 200\n1 < Date: Mon, 06 Nov 2023 09:01:43 GMT\n1 < Content-Type: application\/json; charset=utf-8\n1 < Transfer-Encoding: chunked\n1 < Connection: keep-alive\n1 < Report-To: {\"group\":\"heroku-nel\",\"max_age\":3600,\"endpoints\":[{\"url\":\"https:\/\/nel.heroku.com\/reports?ts=1699261303&sid=c4c9725f-1ab0-44d8-820f-430df2718e11&s=sxG2oSioadQg8fbJnwtpxJ7POXVKcCqRtzIipUMKNMg%3D\"}]}\n1 < Reporting-Endpoints: heroku-nel=https:\/\/nel.heroku.com\/reports?ts=1699261303&sid=c4c9725f-1ab0-44d8-820f-430df2718e11&s=sxG2oSioadQg8fbJnwtpxJ7POXVKcCqRtzIipUMKNMg%3D\n1 < Nel: {\"report_to\":\"heroku-nel\",\"max_age\":3600,\"success_fraction\":0.005,\"failure_fraction\":0.05,\"response_headers\":[\"Via\"]}\n1 < X-Powered-By: Express\n1 < Access-Control-Allow-Origin: *\n1 < Etag: W\/\"3e-tE\/igVG40RtEDl9V1ylMFWnOr8I\"\n1 < Via: 1.1 vegur\n1 < CF-Cache-Status: DYNAMIC\n1 < Vary: Accept-Encoding\n1 < Server: cloudflare\n1 < CF-RAY: 821c2747a8f53f81-SIN\n{\"job\":\"zion resident\",\"updatedAt\":\"2023-11-06T09:01:43.257Z\"}\n\n"},{"result":{"nanos":15000,"millis":0.015,"status":"passed"},"step":{"line":37,"prefix":"Then","index":4,"text":"status  200"}},{"result":{"nanos":1514100,"millis":1.5141,"status":"passed"},"step":{"line":38,"prefix":"And","index":5,"text":"match response.job == \"zion resident\""}}],"executorName":"main","line":32,"name":"Update user","description":"","durationMillis":1464.7445,"startTime":1699261317168,"failed":false,"refId":"[5:32]","endTime":1699261318633,"exampleIndex":-1},{"sectionIndex":5,"stepResults":[{"result":{"nanos":227900,"millis":0.2279,"status":"passed"},"step":{"line":41,"prefix":"Given","index":0,"text":"url \"https:\/\/reqres.in\/api\""}},{"result":{"nanos":117100,"millis":0.1171,"status":"passed"},"step":{"line":42,"prefix":"Given","index":1,"text":"path  \"\/users\/2\""}},{"result":{"nanos":617964000,"millis":617.964,"status":"passed"},"step":{"line":43,"prefix":"When","index":2,"text":"method  DELETE"},"stepLog":"14:31:58.640 request:\n1 > DELETE https:\/\/reqres.in\/api\/users\/2\n1 > Host: reqres.in\n1 > Connection: Keep-Alive\n1 > User-Agent: Apache-HttpClient\/4.5.13 (Java\/11.0.19)\n1 > Accept-Encoding: gzip,deflate\n\n\n14:31:59.257 response time in milliseconds: 616\n1 < 204\n1 < Date: Mon, 06 Nov 2023 09:01:44 GMT\n1 < Content-Length: 0\n1 < Connection: keep-alive\n1 < Report-To: {\"group\":\"heroku-nel\",\"max_age\":3600,\"endpoints\":[{\"url\":\"https:\/\/nel.heroku.com\/reports?ts=1699261304&sid=c4c9725f-1ab0-44d8-820f-430df2718e11&s=BVFg84VK90ioqyZfeakLHAnrmMKNveSjY8uZ4zE%2BG8A%3D\"}]}\n1 < Reporting-Endpoints: heroku-nel=https:\/\/nel.heroku.com\/reports?ts=1699261304&sid=c4c9725f-1ab0-44d8-820f-430df2718e11&s=BVFg84VK90ioqyZfeakLHAnrmMKNveSjY8uZ4zE%2BG8A%3D\n1 < Nel: {\"report_to\":\"heroku-nel\",\"max_age\":3600,\"success_fraction\":0.005,\"failure_fraction\":0.05,\"response_headers\":[\"Via\"]}\n1 < X-Powered-By: Express\n1 < Access-Control-Allow-Origin: *\n1 < Etag: W\/\"2-vyGp6PvFo4RvsFtPoIWeCReyIC8\"\n1 < Via: 1.1 vegur\n1 < CF-Cache-Status: DYNAMIC\n1 < Server: cloudflare\n1 < CF-RAY: 821c274c3b718630-BOM\n\n\n"},{"result":{"nanos":8500,"millis":0.0085,"status":"passed"},"step":{"line":44,"prefix":"Then","index":3,"text":"status  204"}}],"executorName":"main","line":40,"name":"Delete user","description":"","durationMillis":618.3175,"startTime":1699261318638,"failed":false,"refId":"[6:40]","endTime":1699261319257,"exampleIndex":-1}],"callDepth":0,"name":"GET API feature","description":"","resultDate":"2023-11-06 02:31:59 PM","durationMillis":5999.93,"passedCount":5}