{"failedCount":1,"prefixedPath":"classpath:api1.feature","packageQualifiedName":"api1","loopIndex":-1,"relativePath":"api1.feature","scenarioResults":[{"sectionIndex":0,"stepResults":[{"result":{"nanos":137528399,"millis":137.528399,"status":"passed"},"step":{"line":4,"prefix":"Given","index":0,"text":"url \"https:\/\/reqres.in\/api\""}},{"result":{"nanos":950100,"millis":0.9501,"status":"passed"},"step":{"line":5,"prefix":"Given","index":1,"text":"path '\/users'"}},{"result":{"nanos":1826379100,"millis":1826.3791,"status":"passed"},"step":{"line":6,"prefix":"When","index":2,"text":"method GET"},"stepLog":"21:25:17.638 request:\n1 > GET https:\/\/reqres.in\/api\/users\n1 > Host: reqres.in\n1 > Connection: Keep-Alive\n1 > User-Agent: Apache-HttpClient\/4.5.13 (Java\/11.0.19)\n1 > Accept-Encoding: gzip,deflate\n\n\n21:25:18.843 response time in milliseconds: 1197\n1 < 200\n1 < Date: Wed, 08 Nov 2023 15:55:01 GMT\n1 < Content-Type: application\/json; charset=utf-8\n1 < Transfer-Encoding: chunked\n1 < Connection: keep-alive\n1 < Report-To: {\"group\":\"heroku-nel\",\"max_age\":3600,\"endpoints\":[{\"url\":\"https:\/\/nel.heroku.com\/reports?ts=1699433464&sid=c4c9725f-1ab0-44d8-820f-430df2718e11&s=3IiPSDfOv0eRRMdIDtNVt%2Bj11l3zEKGUxRWDcHO3k7E%3D\"}]}\n1 < Reporting-Endpoints: heroku-nel=https:\/\/nel.heroku.com\/reports?ts=1699433464&sid=c4c9725f-1ab0-44d8-820f-430df2718e11&s=3IiPSDfOv0eRRMdIDtNVt%2Bj11l3zEKGUxRWDcHO3k7E%3D\n1 < Nel: {\"report_to\":\"heroku-nel\",\"max_age\":3600,\"success_fraction\":0.005,\"failure_fraction\":0.05,\"response_headers\":[\"Via\"]}\n1 < X-Powered-By: Express\n1 < Access-Control-Allow-Origin: *\n1 < Etag: W\/\"3e4-2RLXvr5wTg9YQ6aH95CkYoFNuO8\"\n1 < Via: 1.1 vegur\n1 < Cache-Control: max-age=14400\n1 < CF-Cache-Status: HIT\n1 < Age: 4857\n1 < Vary: Accept-Encoding\n1 < Server: cloudflare\n1 < CF-RAY: 822eff784d996ee0-BOM\n{\"page\":1,\"per_page\":6,\"total\":12,\"total_pages\":2,\"data\":[{\"id\":1,\"email\":\"george.bluth@reqres.in\",\"first_name\":\"George\",\"last_name\":\"Bluth\",\"avatar\":\"https:\/\/reqres.in\/img\/faces\/1-image.jpg\"},{\"id\":2,\"email\":\"janet.weaver@reqres.in\",\"first_name\":\"Janet\",\"last_name\":\"Weaver\",\"avatar\":\"https:\/\/reqres.in\/img\/faces\/2-image.jpg\"},{\"id\":3,\"email\":\"emma.wong@reqres.in\",\"first_name\":\"Emma\",\"last_name\":\"Wong\",\"avatar\":\"https:\/\/reqres.in\/img\/faces\/3-image.jpg\"},{\"id\":4,\"email\":\"eve.holt@reqres.in\",\"first_name\":\"Eve\",\"last_name\":\"Holt\",\"avatar\":\"https:\/\/reqres.in\/img\/faces\/4-image.jpg\"},{\"id\":5,\"email\":\"charles.morris@reqres.in\",\"first_name\":\"Charles\",\"last_name\":\"Morris\",\"avatar\":\"https:\/\/reqres.in\/img\/faces\/5-image.jpg\"},{\"id\":6,\"email\":\"tracey.ramos@reqres.in\",\"first_name\":\"Tracey\",\"last_name\":\"Ramos\",\"avatar\":\"https:\/\/reqres.in\/img\/faces\/6-image.jpg\"}],\"support\":{\"url\":\"https:\/\/reqres.in\/#support-heading\",\"text\":\"To keep ReqRes free, contributions towards server costs are appreciated!\"}}\n\n"},{"result":{"nanos":57100,"millis":0.0571,"status":"passed"},"step":{"line":7,"prefix":"Then","index":3,"text":"status 200"}},{"result":{"nanos":102518600,"millis":102.5186,"status":"passed"},"step":{"line":8,"prefix":"And","index":4,"text":"match response.data[*].id == '#[_ >1]'"}}],"executorName":"main","line":3,"name":"Get a list of users","description":"","durationMillis":2067.433299,"startTime":1699458916980,"failed":false,"refId":"[1:3]","endTime":1699458919073,"exampleIndex":-1},{"sectionIndex":1,"stepResults":[{"result":{"nanos":1044900,"millis":1.0449,"status":"passed"},"step":{"line":12,"prefix":"Given","index":0,"text":"url \"https:\/\/reqres.in\/api\""}},{"result":{"nanos":530500,"millis":0.5305,"status":"passed"},"step":{"line":13,"prefix":"Given","index":1,"text":"path  \"\/user\/2\""}},{"result":{"nanos":1026731200,"millis":1026.7312,"status":"passed"},"step":{"line":14,"prefix":"When","index":2,"text":"method  GET"},"stepLog":"21:25:19.087 request:\n1 > GET https:\/\/reqres.in\/api\/user\/2\n1 > Host: reqres.in\n1 > Connection: Keep-Alive\n1 > User-Agent: Apache-HttpClient\/4.5.13 (Java\/11.0.19)\n1 > Accept-Encoding: gzip,deflate\n\n\n21:25:20.108 response time in milliseconds: 1020\n1 < 200\n1 < Date: Wed, 08 Nov 2023 15:55:03 GMT\n1 < Content-Type: application\/json; charset=utf-8\n1 < Transfer-Encoding: chunked\n1 < Connection: keep-alive\n1 < Report-To: {\"group\":\"heroku-nel\",\"max_age\":3600,\"endpoints\":[{\"url\":\"https:\/\/nel.heroku.com\/reports?ts=1699343462&sid=c4c9725f-1ab0-44d8-820f-430df2718e11&s=ZTA2dpUFrzH872LJVeijudPLje8ogaNdhUcQ%2FZpk%2Bzw%3D\"}]}\n1 < Reporting-Endpoints: heroku-nel=https:\/\/nel.heroku.com\/reports?ts=1699343462&sid=c4c9725f-1ab0-44d8-820f-430df2718e11&s=ZTA2dpUFrzH872LJVeijudPLje8ogaNdhUcQ%2FZpk%2Bzw%3D\n1 < Nel: {\"report_to\":\"heroku-nel\",\"max_age\":3600,\"success_fraction\":0.005,\"failure_fraction\":0.05,\"response_headers\":[\"Via\"]}\n1 < X-Powered-By: Express\n1 < Access-Control-Allow-Origin: *\n1 < Etag: W\/\"e8-ov4wWh4\/OY1IMQMqWgskYtOFnVs\"\n1 < Via: 1.1 vegur\n1 < Cache-Control: max-age=14400\n1 < CF-Cache-Status: REVALIDATED\n1 < Vary: Accept-Encoding\n1 < Server: cloudflare\n1 < CF-RAY: 822eff7daf103bf2-BOM\n{\"data\":{\"id\":2,\"name\":\"fuchsia rose\",\"year\":2001,\"color\":\"#C74375\",\"pantone_value\":\"17-2031\"},\"support\":{\"url\":\"https:\/\/reqres.in\/#support-heading\",\"text\":\"To keep ReqRes free, contributions towards server costs are appreciated!\"}}\n\n"},{"result":{"nanos":33000,"millis":0.033,"status":"passed"},"step":{"line":15,"prefix":"Then","index":3,"text":"status  200"}},{"result":{"nanos":30282599,"millis":30.282599,"status":"passed"},"step":{"line":16,"prefix":"And","index":4,"text":"match response.data.id == 2"}}],"executorName":"main","line":11,"name":"Get a single user","description":"","durationMillis":1058.622199,"startTime":1699458919084,"failed":false,"refId":"[2:11]","endTime":1699458920143,"exampleIndex":-1},{"sectionIndex":2,"stepResults":[{"result":{"nanos":3011900,"millis":3.0119,"status":"passed"},"step":{"line":20,"prefix":"Given","index":0,"text":"url \"https:\/\/reqres.in\/api\/users\""}},{"result":{"nanos":2175700,"millis":2.1757,"status":"passed"},"step":{"line":21,"prefix":"Given","index":1,"text":"path  \"1\""}},{"result":{"nanos":545585500,"millis":545.5855,"status":"passed"},"step":{"line":22,"prefix":"When","index":2,"text":"method  GET"},"stepLog":"21:25:20.188 request:\n1 > GET https:\/\/reqres.in\/api\/users\/1\n1 > Host: reqres.in\n1 > Connection: Keep-Alive\n1 > User-Agent: Apache-HttpClient\/4.5.13 (Java\/11.0.19)\n1 > Accept-Encoding: gzip,deflate\n\n\n21:25:20.724 response time in milliseconds: 536\n1 < 200\n1 < Date: Wed, 08 Nov 2023 15:55:03 GMT\n1 < Content-Type: application\/json; charset=utf-8\n1 < Transfer-Encoding: chunked\n1 < Connection: keep-alive\n1 < Report-To: {\"group\":\"heroku-nel\",\"max_age\":3600,\"endpoints\":[{\"url\":\"https:\/\/nel.heroku.com\/reports?ts=1699458703&sid=c4c9725f-1ab0-44d8-820f-430df2718e11&s=gnU3JqTjiOU0UmByKTT6CZt6kcb2BHFy9VWJsYooZWA%3D\"}]}\n1 < Reporting-Endpoints: heroku-nel=https:\/\/nel.heroku.com\/reports?ts=1699458703&sid=c4c9725f-1ab0-44d8-820f-430df2718e11&s=gnU3JqTjiOU0UmByKTT6CZt6kcb2BHFy9VWJsYooZWA%3D\n1 < Nel: {\"report_to\":\"heroku-nel\",\"max_age\":3600,\"success_fraction\":0.005,\"failure_fraction\":0.05,\"response_headers\":[\"Via\"]}\n1 < X-Powered-By: Express\n1 < Access-Control-Allow-Origin: *\n1 < Etag: W\/\"118-P3iKcVpIgCj9HqYeOOrGLX8qJVc\"\n1 < Via: 1.1 vegur\n1 < Cache-Control: max-age=14400\n1 < CF-Cache-Status: HIT\n1 < Age: 200\n1 < Vary: Accept-Encoding\n1 < Server: cloudflare\n1 < CF-RAY: 822eff845ef61bd4-DEL\n{\"data\":{\"id\":1,\"email\":\"george.bluth@reqres.in\",\"first_name\":\"George\",\"last_name\":\"Bluth\",\"avatar\":\"https:\/\/reqres.in\/img\/faces\/1-image.jpg\"},\"support\":{\"url\":\"https:\/\/reqres.in\/#support-heading\",\"text\":\"To keep ReqRes free, contributions towards server costs are appreciated!\"}}\n\n"},{"result":{"nanos":352600,"errorMessage":"status code was: 200, expected: 404, response time in milliseconds: 536, url: https:\/\/reqres.in\/api\/users\/1, response: \n{\"data\":{\"id\":1,\"email\":\"george.bluth@reqres.in\",\"first_name\":\"George\",\"last_name\":\"Bluth\",\"avatar\":\"https:\/\/reqres.in\/img\/faces\/1-image.jpg\"},\"support\":{\"url\":\"https:\/\/reqres.in\/#support-heading\",\"text\":\"To keep ReqRes free, contributions towards server costs are appreciated!\"}}\nclasspath:api1.feature:23","millis":0.3526,"status":"failed"},"step":{"line":23,"prefix":"Then","index":3,"text":"status  404"},"stepLog":"21:25:20.732 classpath:api1.feature:23\nThen status  404\nstatus code was: 200, expected: 404, response time in milliseconds: 536, url: https:\/\/reqres.in\/api\/users\/1, response: \n{\"data\":{\"id\":1,\"email\":\"george.bluth@reqres.in\",\"first_name\":\"George\",\"last_name\":\"Bluth\",\"avatar\":\"https:\/\/reqres.in\/img\/faces\/1-image.jpg\"},\"support\":{\"url\":\"https:\/\/reqres.in\/#support-heading\",\"text\":\"To keep ReqRes free, contributions towards server costs are appreciated!\"}}\nclasspath:api1.feature:23\n"}],"line":19,"description":"","durationMillis":551.1257,"failed":true,"error":"status code was: 200, expected: 404, response time in milliseconds: 536, url: https:\/\/reqres.in\/api\/users\/1, response: \n{\"data\":{\"id\":1,\"email\":\"george.bluth@reqres.in\",\"first_name\":\"George\",\"last_name\":\"Bluth\",\"avatar\":\"https:\/\/reqres.in\/img\/faces\/1-image.jpg\"},\"support\":{\"url\":\"https:\/\/reqres.in\/#support-heading\",\"text\":\"To keep ReqRes free, contributions towards server costs are appreciated!\"}}\nclasspath:api1.feature:23","executorName":"main","name":"Get user details - user not found","startTime":1699458920177,"refId":"[3:19]","endTime":1699458920732,"exampleIndex":-1},{"sectionIndex":3,"stepResults":[{"result":{"nanos":1030500,"millis":1.0305,"status":"passed"},"step":{"line":27,"prefix":"Given","index":0,"text":"url \"https:\/\/reqres.in\/api\""}},{"result":{"nanos":1623499,"millis":1.623499,"status":"passed"},"step":{"line":28,"prefix":"Given","index":1,"text":"path  \"\/users\""}},{"result":{"nanos":6376799,"millis":6.376799,"status":"passed"},"step":{"line":29,"prefix":"And","index":2,"text":"request {\"name\": \"John Doe\",\"job\":\"Software Engineer\"}"}},{"result":{"nanos":977995401,"millis":977.995401,"status":"passed"},"step":{"line":30,"prefix":"When","index":3,"text":"method  POST"},"stepLog":"21:25:20.994 request:\n1 > POST https:\/\/reqres.in\/api\/users\n1 > Content-Type: application\/json; charset=UTF-8\n1 > Content-Length: 45\n1 > Host: reqres.in\n1 > Connection: Keep-Alive\n1 > User-Agent: Apache-HttpClient\/4.5.13 (Java\/11.0.19)\n1 > Accept-Encoding: gzip,deflate\n{\"name\":\"John Doe\",\"job\":\"Software Engineer\"}\n\n21:25:21.750 response time in milliseconds: 755\n1 < 201\n1 < Date: Wed, 08 Nov 2023 15:55:04 GMT\n1 < Content-Type: application\/json; charset=utf-8\n1 < Content-Length: 95\n1 < Connection: keep-alive\n1 < X-Powered-By: Express\n1 < Access-Control-Allow-Origin: *\n1 < Etag: W\/\"5f-SrnyiJGiFieZPPMo01hyq3gbljk\"\n1 < Via: 1.1 vegur\n1 < CF-Cache-Status: DYNAMIC\n1 < Report-To: {\"endpoints\":[{\"url\":\"https:\\\/\\\/a.nel.cloudflare.com\\\/report\\\/v3?s=0e92JtQbV27x7X6fO0%2B19ECbqZDJNUe4mWAqP%2BoAbqfjGV4jVOXugQQSC9R7FtmtZylTUaBT9vM1y1oIs5dxrHJlI9a5Q53CRHT9xCeE2orSj28hY0rZd7JBMA%3D%3D\"}],\"group\":\"cf-nel\",\"max_age\":604800}\n1 < NEL: {\"success_fraction\":0,\"report_to\":\"cf-nel\",\"max_age\":604800}\n1 < Server: cloudflare\n1 < CF-RAY: 822eff88ad053a59-BOM\n{\"name\":\"John Doe\",\"job\":\"Software Engineer\",\"id\":\"927\",\"createdAt\":\"2023-11-08T15:55:04.734Z\"}\n\n"},{"result":{"nanos":65001,"millis":0.065001,"status":"passed"},"step":{"line":31,"prefix":"Then","index":4,"text":"status  201"}},{"result":{"nanos":4398500,"millis":4.3985,"status":"passed"},"step":{"line":32,"prefix":"And","index":5,"text":"match response.job == \"Software Engineer\""}}],"executorName":"main","line":26,"name":"Create a new user","description":"","durationMillis":991.4897,"startTime":1699458920767,"failed":false,"refId":"[4:26]","endTime":1699458921761,"exampleIndex":-1},{"sectionIndex":4,"stepResults":[{"result":{"nanos":793599,"millis":0.793599,"status":"passed"},"step":{"line":35,"prefix":"Given","index":0,"text":"url \"https:\/\/reqres.in\/api\""}},{"result":{"nanos":1592400,"millis":1.5924,"status":"passed"},"step":{"line":36,"prefix":"Given","index":1,"text":"path  \"\/users\/2\""}},{"result":{"nanos":1246500,"millis":1.2465,"status":"passed"},"step":{"line":37,"prefix":"And","index":2,"text":"request {\"job\": \"zion resident\"}"}},{"result":{"nanos":990438300,"millis":990.4383,"status":"passed"},"step":{"line":38,"prefix":"When","index":3,"text":"method  PUT"},"stepLog":"21:25:21.787 request:\n1 > PUT https:\/\/reqres.in\/api\/users\/2\n1 > Content-Type: application\/json; charset=UTF-8\n1 > Content-Length: 23\n1 > Host: reqres.in\n1 > Connection: Keep-Alive\n1 > User-Agent: Apache-HttpClient\/4.5.13 (Java\/11.0.19)\n1 > Accept-Encoding: gzip,deflate\n{\"job\":\"zion resident\"}\n\n21:25:22.770 response time in milliseconds: 982\n1 < 200\n1 < Date: Wed, 08 Nov 2023 15:55:05 GMT\n1 < Content-Type: application\/json; charset=utf-8\n1 < Transfer-Encoding: chunked\n1 < Connection: keep-alive\n1 < Report-To: {\"group\":\"heroku-nel\",\"max_age\":3600,\"endpoints\":[{\"url\":\"https:\/\/nel.heroku.com\/reports?ts=1699458905&sid=c4c9725f-1ab0-44d8-820f-430df2718e11&s=XALIAsfzJrsdz8gOhhzucehtpYrudkyYoVKVIhpqtMU%3D\"}]}\n1 < Reporting-Endpoints: heroku-nel=https:\/\/nel.heroku.com\/reports?ts=1699458905&sid=c4c9725f-1ab0-44d8-820f-430df2718e11&s=XALIAsfzJrsdz8gOhhzucehtpYrudkyYoVKVIhpqtMU%3D\n1 < Nel: {\"report_to\":\"heroku-nel\",\"max_age\":3600,\"success_fraction\":0.005,\"failure_fraction\":0.05,\"response_headers\":[\"Via\"]}\n1 < X-Powered-By: Express\n1 < Access-Control-Allow-Origin: *\n1 < Etag: W\/\"3e-D14sRNNrc99F\/403bCHg5x3h2Jo\"\n1 < Via: 1.1 vegur\n1 < CF-Cache-Status: DYNAMIC\n1 < Vary: Accept-Encoding\n1 < Server: cloudflare\n1 < CF-RAY: 822eff8e9c61424e-BOM\n{\"job\":\"zion resident\",\"updatedAt\":\"2023-11-08T15:55:05.692Z\"}\n\n"},{"result":{"nanos":29200,"millis":0.0292,"status":"passed"},"step":{"line":39,"prefix":"Then","index":4,"text":"status  200"}},{"result":{"nanos":3516801,"millis":3.516801,"status":"passed"},"step":{"line":40,"prefix":"And","index":5,"text":"match response.job == \"zion resident\""}}],"executorName":"main","line":34,"name":"Update user","description":"","durationMillis":997.6168,"startTime":1699458921778,"failed":false,"refId":"[5:34]","endTime":1699458922777,"exampleIndex":-1},{"sectionIndex":5,"stepResults":[{"result":{"nanos":760401,"millis":0.760401,"status":"passed"},"step":{"line":43,"prefix":"Given","index":0,"text":"url \"https:\/\/reqres.in\/api\""}},{"result":{"nanos":358800,"millis":0.3588,"status":"passed"},"step":{"line":44,"prefix":"Given","index":1,"text":"path  \"\/users\/2\""}},{"result":{"nanos":1003153501,"millis":1003.153501,"status":"passed"},"step":{"line":45,"prefix":"When","index":2,"text":"method  DELETE"},"stepLog":"21:25:22.799 request:\n1 > DELETE https:\/\/reqres.in\/api\/users\/2\n1 > Host: reqres.in\n1 > Connection: Keep-Alive\n1 > User-Agent: Apache-HttpClient\/4.5.13 (Java\/11.0.19)\n1 > Accept-Encoding: gzip,deflate\n\n\n21:25:23.794 response time in milliseconds: 994\n1 < 204\n1 < Date: Wed, 08 Nov 2023 15:55:06 GMT\n1 < Content-Length: 0\n1 < Connection: keep-alive\n1 < Report-To: {\"group\":\"heroku-nel\",\"max_age\":3600,\"endpoints\":[{\"url\":\"https:\/\/nel.heroku.com\/reports?ts=1699458906&sid=c4c9725f-1ab0-44d8-820f-430df2718e11&s=wxYcCKFjobdJd%2FqPstxgBHzgLKrxHEiLrSEZdEZ0IKM%3D\"}]}\n1 < Reporting-Endpoints: heroku-nel=https:\/\/nel.heroku.com\/reports?ts=1699458906&sid=c4c9725f-1ab0-44d8-820f-430df2718e11&s=wxYcCKFjobdJd%2FqPstxgBHzgLKrxHEiLrSEZdEZ0IKM%3D\n1 < Nel: {\"report_to\":\"heroku-nel\",\"max_age\":3600,\"success_fraction\":0.005,\"failure_fraction\":0.05,\"response_headers\":[\"Via\"]}\n1 < X-Powered-By: Express\n1 < Access-Control-Allow-Origin: *\n1 < Etag: W\/\"2-vyGp6PvFo4RvsFtPoIWeCReyIC8\"\n1 < Via: 1.1 vegur\n1 < CF-Cache-Status: DYNAMIC\n1 < Server: cloudflare\n1 < CF-RAY: 822eff94ed7b46ad-BOM\n\n\n"},{"result":{"nanos":28499,"millis":0.028499,"status":"passed"},"step":{"line":46,"prefix":"Then","index":3,"text":"status  204"}}],"executorName":"main","line":42,"name":"Delete user","description":"","durationMillis":1004.301201,"startTime":1699458922792,"failed":false,"refId":"[6:42]","endTime":1699458923798,"exampleIndex":-1}],"callDepth":0,"name":"GET API feature","description":"","resultDate":"2023-11-08 09:25:23 PM","durationMillis":6670.588899,"passedCount":5}