{"failedCount":1,"prefixedPath":"src\/test\/java\/api1.feature","packageQualifiedName":"src.test.java.api1","loopIndex":-1,"relativePath":"src\/test\/java\/api1.feature","scenarioResults":[{"sectionIndex":0,"stepResults":[{"result":{"nanos":70465000,"millis":70.465,"status":"passed"},"step":{"line":4,"prefix":"Given","index":0,"text":"url \"https:\/\/reqres.in\/api\""}},{"result":{"nanos":554300,"millis":0.5543,"status":"passed"},"step":{"line":5,"prefix":"Given","index":1,"text":"path '\/users'"}},{"result":{"nanos":1252177000,"millis":1252.177,"status":"passed"},"step":{"line":6,"prefix":"When","index":2,"text":"method GET"},"stepLog":"15:26:35.481 request:\n1 > GET https:\/\/reqres.in\/api\/users\n1 > Host: reqres.in\n1 > Connection: Keep-Alive\n1 > User-Agent: Apache-HttpClient\/4.5.13 (Java\/11.0.19)\n1 > Accept-Encoding: gzip,deflate\n\n\n15:26:36.350 response time in milliseconds: 867\n1 < 200\n1 < Date: Mon, 06 Nov 2023 09:56:21 GMT\n1 < Content-Type: application\/json; charset=utf-8\n1 < Transfer-Encoding: chunked\n1 < Connection: keep-alive\n1 < Report-To: {\"group\":\"heroku-nel\",\"max_age\":3600,\"endpoints\":[{\"url\":\"https:\/\/nel.heroku.com\/reports?ts=1698823238&sid=c4c9725f-1ab0-44d8-820f-430df2718e11&s=No9lpk8dRxq6BaBVRVKYClBh8H6GBaOP9gHQgFyu2Pw%3D\"}]}\n1 < Reporting-Endpoints: heroku-nel=https:\/\/nel.heroku.com\/reports?ts=1698823238&sid=c4c9725f-1ab0-44d8-820f-430df2718e11&s=No9lpk8dRxq6BaBVRVKYClBh8H6GBaOP9gHQgFyu2Pw%3D\n1 < Nel: {\"report_to\":\"heroku-nel\",\"max_age\":3600,\"success_fraction\":0.005,\"failure_fraction\":0.05,\"response_headers\":[\"Via\"]}\n1 < X-Powered-By: Express\n1 < Access-Control-Allow-Origin: *\n1 < Etag: W\/\"3e4-2RLXvr5wTg9YQ6aH95CkYoFNuO8\"\n1 < Via: 1.1 vegur\n1 < Cache-Control: max-age=14400\n1 < CF-Cache-Status: HIT\n1 < Age: 3650\n1 < Vary: Accept-Encoding\n1 < Server: cloudflare\n1 < CF-RAY: 821c7750391885a5-BOM\n{\"page\":1,\"per_page\":6,\"total\":12,\"total_pages\":2,\"data\":[{\"id\":1,\"email\":\"george.bluth@reqres.in\",\"first_name\":\"George\",\"last_name\":\"Bluth\",\"avatar\":\"https:\/\/reqres.in\/img\/faces\/1-image.jpg\"},{\"id\":2,\"email\":\"janet.weaver@reqres.in\",\"first_name\":\"Janet\",\"last_name\":\"Weaver\",\"avatar\":\"https:\/\/reqres.in\/img\/faces\/2-image.jpg\"},{\"id\":3,\"email\":\"emma.wong@reqres.in\",\"first_name\":\"Emma\",\"last_name\":\"Wong\",\"avatar\":\"https:\/\/reqres.in\/img\/faces\/3-image.jpg\"},{\"id\":4,\"email\":\"eve.holt@reqres.in\",\"first_name\":\"Eve\",\"last_name\":\"Holt\",\"avatar\":\"https:\/\/reqres.in\/img\/faces\/4-image.jpg\"},{\"id\":5,\"email\":\"charles.morris@reqres.in\",\"first_name\":\"Charles\",\"last_name\":\"Morris\",\"avatar\":\"https:\/\/reqres.in\/img\/faces\/5-image.jpg\"},{\"id\":6,\"email\":\"tracey.ramos@reqres.in\",\"first_name\":\"Tracey\",\"last_name\":\"Ramos\",\"avatar\":\"https:\/\/reqres.in\/img\/faces\/6-image.jpg\"}],\"support\":{\"url\":\"https:\/\/reqres.in\/#support-heading\",\"text\":\"To keep ReqRes free, contributions towards server costs are appreciated!\"}}\n\n"},{"result":{"nanos":19700,"millis":0.0197,"status":"passed"},"step":{"line":7,"prefix":"Then","index":3,"text":"status 200"}},{"result":{"nanos":56723000,"millis":56.723,"status":"passed"},"step":{"line":8,"prefix":"And","index":4,"text":"match response.data[*].id == '#[_ >1]'"}}],"executorName":"main","line":3,"name":"Get a list of users","description":"","durationMillis":1379.939,"startTime":1699264595046,"failed":false,"refId":"[1:3]","endTime":1699264596442,"exampleIndex":-1},{"sectionIndex":1,"stepResults":[{"result":{"nanos":560200,"millis":0.5602,"status":"passed"},"step":{"line":12,"prefix":"Given","index":0,"text":"url \"https:\/\/reqres.in\/api\/users\""}},{"result":{"nanos":322500,"millis":0.3225,"status":"passed"},"step":{"line":13,"prefix":"Given","index":1,"text":"path  \"1\""}},{"result":{"nanos":1006695200,"millis":1006.6952,"status":"passed"},"step":{"line":14,"prefix":"When","index":2,"text":"method  GET"},"stepLog":"15:26:36.449 request:\n1 > GET https:\/\/reqres.in\/api\/users\/1\n1 > Host: reqres.in\n1 > Connection: Keep-Alive\n1 > User-Agent: Apache-HttpClient\/4.5.13 (Java\/11.0.19)\n1 > Accept-Encoding: gzip,deflate\n\n\n15:26:37.454 response time in milliseconds: 1005\n1 < 200\n1 < Date: Mon, 06 Nov 2023 09:56:22 GMT\n1 < Content-Type: application\/json; charset=utf-8\n1 < Transfer-Encoding: chunked\n1 < Connection: keep-alive\n1 < X-Powered-By: Express\n1 < Access-Control-Allow-Origin: *\n1 < Etag: W\/\"118-P3iKcVpIgCj9HqYeOOrGLX8qJVc\"\n1 < Via: 1.1 vegur\n1 < Cache-Control: max-age=14400\n1 < CF-Cache-Status: HIT\n1 < Age: 450\n1 < Report-To: {\"endpoints\":[{\"url\":\"https:\\\/\\\/a.nel.cloudflare.com\\\/report\\\/v3?s=OSvhJBR9rPBOorwB2GZKirVRYMg5cvMO5z61NzlKumhGTcNTLiW89ShKh1ZzA1%2Fln0NzjToMBfMGOCHl700lKL%2FB43Ib1RF%2FqRHJegoLX%2BINRAS79pbQRJCR0g%3D%3D\"}],\"group\":\"cf-nel\",\"max_age\":604800}\n1 < NEL: {\"success_fraction\":0,\"report_to\":\"cf-nel\",\"max_age\":604800}\n1 < Vary: Accept-Encoding\n1 < Server: cloudflare\n1 < CF-RAY: 821c7755dca43f6c-SIN\n{\"data\":{\"id\":1,\"email\":\"george.bluth@reqres.in\",\"first_name\":\"George\",\"last_name\":\"Bluth\",\"avatar\":\"https:\/\/reqres.in\/img\/faces\/1-image.jpg\"},\"support\":{\"url\":\"https:\/\/reqres.in\/#support-heading\",\"text\":\"To keep ReqRes free, contributions towards server costs are appreciated!\"}}\n\n"},{"result":{"nanos":120500,"errorMessage":"status code was: 200, expected: 404, response time in milliseconds: 1005, url: https:\/\/reqres.in\/api\/users\/1, response: \n{\"data\":{\"id\":1,\"email\":\"george.bluth@reqres.in\",\"first_name\":\"George\",\"last_name\":\"Bluth\",\"avatar\":\"https:\/\/reqres.in\/img\/faces\/1-image.jpg\"},\"support\":{\"url\":\"https:\/\/reqres.in\/#support-heading\",\"text\":\"To keep ReqRes free, contributions towards server costs are appreciated!\"}}\nsrc\/test\/java\/api1.feature:15","millis":0.1205,"status":"failed"},"step":{"line":15,"prefix":"Then","index":3,"text":"status  404"},"stepLog":"15:26:37.456 src\/test\/java\/api1.feature:15\nThen status  404\nstatus code was: 200, expected: 404, response time in milliseconds: 1005, url: https:\/\/reqres.in\/api\/users\/1, response: \n{\"data\":{\"id\":1,\"email\":\"george.bluth@reqres.in\",\"first_name\":\"George\",\"last_name\":\"Bluth\",\"avatar\":\"https:\/\/reqres.in\/img\/faces\/1-image.jpg\"},\"support\":{\"url\":\"https:\/\/reqres.in\/#support-heading\",\"text\":\"To keep ReqRes free, contributions towards server costs are appreciated!\"}}\nsrc\/test\/java\/api1.feature:15\n"}],"line":11,"description":"","durationMillis":1007.6984,"failed":true,"error":"status code was: 200, expected: 404, response time in milliseconds: 1005, url: https:\/\/reqres.in\/api\/users\/1, response: \n{\"data\":{\"id\":1,\"email\":\"george.bluth@reqres.in\",\"first_name\":\"George\",\"last_name\":\"Bluth\",\"avatar\":\"https:\/\/reqres.in\/img\/faces\/1-image.jpg\"},\"support\":{\"url\":\"https:\/\/reqres.in\/#support-heading\",\"text\":\"To keep ReqRes free, contributions towards server costs are appreciated!\"}}\nsrc\/test\/java\/api1.feature:15","executorName":"main","name":"Get user details - user not found","startTime":1699264596446,"refId":"[2:11]","endTime":1699264597456,"exampleIndex":-1},{"sectionIndex":2,"stepResults":[{"result":{"nanos":688700,"millis":0.6887,"status":"passed"},"step":{"line":19,"prefix":"Given","index":0,"text":"url \"https:\/\/reqres.in\/api\""}},{"result":{"nanos":462900,"millis":0.4629,"status":"passed"},"step":{"line":20,"prefix":"Given","index":1,"text":"path  \"\/users\""}},{"result":{"nanos":1677500,"millis":1.6775,"status":"passed"},"step":{"line":21,"prefix":"And","index":2,"text":"request {\"name\": \"John Doe\",\"job\":\"Software Engineer\"}"}},{"result":{"nanos":1725539700,"millis":1725.5397,"status":"passed"},"step":{"line":22,"prefix":"When","index":3,"text":"method  POST"},"stepLog":"15:26:37.523 request:\n1 > POST https:\/\/reqres.in\/api\/users\n1 > Content-Type: application\/json; charset=UTF-8\n1 > Content-Length: 45\n1 > Host: reqres.in\n1 > Connection: Keep-Alive\n1 > User-Agent: Apache-HttpClient\/4.5.13 (Java\/11.0.19)\n1 > Accept-Encoding: gzip,deflate\n{\"name\":\"John Doe\",\"job\":\"Software Engineer\"}\n\n15:26:39.187 response time in milliseconds: 1663\n1 < 201\n1 < Date: Mon, 06 Nov 2023 09:56:23 GMT\n1 < Content-Type: application\/json; charset=utf-8\n1 < Content-Length: 95\n1 < Connection: keep-alive\n1 < Report-To: {\"group\":\"heroku-nel\",\"max_age\":3600,\"endpoints\":[{\"url\":\"https:\/\/nel.heroku.com\/reports?ts=1699264583&sid=c4c9725f-1ab0-44d8-820f-430df2718e11&s=rhYVeRcDI4pDYyUI2WPHa7f2%2B0WjecwoPEtImM8XhIo%3D\"}]}\n1 < Reporting-Endpoints: heroku-nel=https:\/\/nel.heroku.com\/reports?ts=1699264583&sid=c4c9725f-1ab0-44d8-820f-430df2718e11&s=rhYVeRcDI4pDYyUI2WPHa7f2%2B0WjecwoPEtImM8XhIo%3D\n1 < Nel: {\"report_to\":\"heroku-nel\",\"max_age\":3600,\"success_fraction\":0.005,\"failure_fraction\":0.05,\"response_headers\":[\"Via\"]}\n1 < X-Powered-By: Express\n1 < Access-Control-Allow-Origin: *\n1 < Etag: W\/\"5f-j+2d9GMnNlY3Yh4Ac5WoK8g5Yuk\"\n1 < Via: 1.1 vegur\n1 < CF-Cache-Status: DYNAMIC\n1 < Server: cloudflare\n1 < CF-RAY: 821c775c1cb04ccb-SIN\n{\"name\":\"John Doe\",\"job\":\"Software Engineer\",\"id\":\"281\",\"createdAt\":\"2023-11-06T09:56:23.316Z\"}\n\n"},{"result":{"nanos":19100,"millis":0.0191,"status":"passed"},"step":{"line":23,"prefix":"Then","index":4,"text":"status  201"}},{"result":{"nanos":1735800,"millis":1.7358,"status":"passed"},"step":{"line":24,"prefix":"And","index":5,"text":"match response.job == \"Software Engineer\""}}],"executorName":"main","line":18,"name":"Create a new user","description":"","durationMillis":1730.1237,"startTime":1699264597459,"failed":false,"refId":"[3:18]","endTime":1699264599190,"exampleIndex":-1},{"sectionIndex":3,"stepResults":[{"result":{"nanos":243700,"millis":0.2437,"status":"passed"},"step":{"line":27,"prefix":"Given","index":0,"text":"url \"https:\/\/reqres.in\/api\""}},{"result":{"nanos":779700,"millis":0.7797,"status":"passed"},"step":{"line":28,"prefix":"Given","index":1,"text":"path  \"\/users\/2\""}},{"result":{"nanos":367900,"millis":0.3679,"status":"passed"},"step":{"line":29,"prefix":"And","index":2,"text":"request {\"job\": \"zion resident\"}"}},{"result":{"nanos":1277983300,"millis":1277.9833,"status":"passed"},"step":{"line":30,"prefix":"When","index":3,"text":"method  PUT"},"stepLog":"15:26:39.197 request:\n1 > PUT https:\/\/reqres.in\/api\/users\/2\n1 > Content-Type: application\/json; charset=UTF-8\n1 > Content-Length: 23\n1 > Host: reqres.in\n1 > Connection: Keep-Alive\n1 > User-Agent: Apache-HttpClient\/4.5.13 (Java\/11.0.19)\n1 > Accept-Encoding: gzip,deflate\n{\"job\":\"zion resident\"}\n\n15:26:40.473 response time in milliseconds: 1275\n1 < 200\n1 < Date: Mon, 06 Nov 2023 09:56:25 GMT\n1 < Content-Type: application\/json; charset=utf-8\n1 < Transfer-Encoding: chunked\n1 < Connection: keep-alive\n1 < X-Powered-By: Express\n1 < Access-Control-Allow-Origin: *\n1 < Etag: W\/\"3e-7K4pGcGYtgqOi3VRyp1Yhib++sM\"\n1 < Via: 1.1 vegur\n1 < CF-Cache-Status: DYNAMIC\n1 < Report-To: {\"endpoints\":[{\"url\":\"https:\\\/\\\/a.nel.cloudflare.com\\\/report\\\/v3?s=Snn8DXzj6gzGwjmYRJjzXDRAfJowDLZc706kKkwLmeijoQ%2B7e%2BAHP4hVv1ILiTTwJTd4AtdicrFTdPIvwZN4fDy9cePK5Dlexd1aJjRDpG8RaD21rsMOz76fvw%3D%3D\"}],\"group\":\"cf-nel\",\"max_age\":604800}\n1 < NEL: {\"success_fraction\":0,\"report_to\":\"cf-nel\",\"max_age\":604800}\n1 < Vary: Accept-Encoding\n1 < Server: cloudflare\n1 < CF-RAY: 821c7766790e8982-SIN\n{\"job\":\"zion resident\",\"updatedAt\":\"2023-11-06T09:56:24.980Z\"}\n\n"},{"result":{"nanos":8600,"millis":0.0086,"status":"passed"},"step":{"line":31,"prefix":"Then","index":4,"text":"status  200"}},{"result":{"nanos":914300,"millis":0.9143,"status":"passed"},"step":{"line":32,"prefix":"And","index":5,"text":"match response.job == \"zion resident\""}}],"executorName":"main","line":26,"name":"Update user","description":"","durationMillis":1280.2975,"startTime":1699264599193,"failed":false,"refId":"[4:26]","endTime":1699264600474,"exampleIndex":-1},{"sectionIndex":4,"stepResults":[{"result":{"nanos":159700,"millis":0.1597,"status":"passed"},"step":{"line":35,"prefix":"Given","index":0,"text":"url \"https:\/\/reqres.in\/api\""}},{"result":{"nanos":79000,"millis":0.079,"status":"passed"},"step":{"line":36,"prefix":"Given","index":1,"text":"path  \"\/users\/2\""}},{"result":{"nanos":629596400,"millis":629.5964,"status":"passed"},"step":{"line":37,"prefix":"When","index":2,"text":"method  DELETE"},"stepLog":"15:26:40.480 request:\n1 > DELETE https:\/\/reqres.in\/api\/users\/2\n1 > Host: reqres.in\n1 > Connection: Keep-Alive\n1 > User-Agent: Apache-HttpClient\/4.5.13 (Java\/11.0.19)\n1 > Accept-Encoding: gzip,deflate\n\n\n15:26:41.106 response time in milliseconds: 626\n1 < 204\n1 < Date: Mon, 06 Nov 2023 09:56:25 GMT\n1 < Content-Length: 0\n1 < Connection: keep-alive\n1 < Report-To: {\"group\":\"heroku-nel\",\"max_age\":3600,\"endpoints\":[{\"url\":\"https:\/\/nel.heroku.com\/reports?ts=1699264585&sid=c4c9725f-1ab0-44d8-820f-430df2718e11&s=K1%2FM2q1Bh3YfWXyKLe0lYrxJEM4QGwwWKn%2BL6Os9xe0%3D\"}]}\n1 < Reporting-Endpoints: heroku-nel=https:\/\/nel.heroku.com\/reports?ts=1699264585&sid=c4c9725f-1ab0-44d8-820f-430df2718e11&s=K1%2FM2q1Bh3YfWXyKLe0lYrxJEM4QGwwWKn%2BL6Os9xe0%3D\n1 < Nel: {\"report_to\":\"heroku-nel\",\"max_age\":3600,\"success_fraction\":0.005,\"failure_fraction\":0.05,\"response_headers\":[\"Via\"]}\n1 < X-Powered-By: Express\n1 < Access-Control-Allow-Origin: *\n1 < Etag: W\/\"2-vyGp6PvFo4RvsFtPoIWeCReyIC8\"\n1 < Via: 1.1 vegur\n1 < CF-Cache-Status: DYNAMIC\n1 < Server: cloudflare\n1 < CF-RAY: 821c776ba9a63b25-BOM\n\n\n"},{"result":{"nanos":11000,"millis":0.011,"status":"passed"},"step":{"line":38,"prefix":"Then","index":3,"text":"status  204"}}],"executorName":"main","line":34,"name":"Delete user","description":"","durationMillis":629.8461,"startTime":1699264600478,"failed":false,"refId":"[5:34]","endTime":1699264601108,"exampleIndex":-1}],"callDepth":0,"name":"GET API feature","description":"","resultDate":"2023-11-06 03:26:41 PM","durationMillis":6027.9047,"passedCount":4}