{"failedCount":2,"prefixedPath":"src\/test\/java\/api1.feature","packageQualifiedName":"src.test.java.api1","loopIndex":-1,"relativePath":"src\/test\/java\/api1.feature","scenarioResults":[{"sectionIndex":0,"stepResults":[{"result":{"nanos":78699300,"millis":78.6993,"status":"passed"},"step":{"line":4,"prefix":"Given","index":0,"text":"url \"https:\/\/reqres.in\/api\""}},{"result":{"nanos":504600,"millis":0.5046,"status":"passed"},"step":{"line":5,"prefix":"Given","index":1,"text":"path '\/users'"}},{"result":{"nanos":3290799800,"millis":3290.7998,"status":"passed"},"step":{"line":6,"prefix":"When","index":2,"text":"method GET"},"stepLog":"12:01:28.259 request:\n1 > GET https:\/\/reqres.in\/api\/users\n1 > Host: reqres.in\n1 > Connection: Keep-Alive\n1 > User-Agent: Apache-HttpClient\/4.5.13 (Java\/11.0.19)\n1 > Accept-Encoding: gzip,deflate\n\n\n12:01:31.063 response time in milliseconds: 2802\n1 < 200\n1 < Date: Fri, 10 Nov 2023 06:31:12 GMT\n1 < Content-Type: application\/json; charset=utf-8\n1 < Transfer-Encoding: chunked\n1 < Connection: keep-alive\n1 < X-Powered-By: Express\n1 < Access-Control-Allow-Origin: *\n1 < Etag: W\/\"3e4-2RLXvr5wTg9YQ6aH95CkYoFNuO8\"\n1 < Via: 1.1 vegur\n1 < Cache-Control: max-age=14400\n1 < CF-Cache-Status: HIT\n1 < Age: 3242\n1 < Report-To: {\"endpoints\":[{\"url\":\"https:\\\/\\\/a.nel.cloudflare.com\\\/report\\\/v3?s=Mzh09tRAeVp8giBkuW1HVfGw4lLwikQaSAzO%2FXSs2Qb4LJnhTTr2Amxakv6BrhjUr4lo1PHF7OmjKOfpvaidz6yKode4aQXfz%2FFL%2FEA2gQMYwuqevzczEejV6A%3D%3D\"}],\"group\":\"cf-nel\",\"max_age\":604800}\n1 < NEL: {\"success_fraction\":0,\"report_to\":\"cf-nel\",\"max_age\":604800}\n1 < Vary: Accept-Encoding\n1 < Server: cloudflare\n1 < CF-RAY: 823c4051e9704cdd-SIN\n{\"page\":1,\"per_page\":6,\"total\":12,\"total_pages\":2,\"data\":[{\"id\":1,\"email\":\"george.bluth@reqres.in\",\"first_name\":\"George\",\"last_name\":\"Bluth\",\"avatar\":\"https:\/\/reqres.in\/img\/faces\/1-image.jpg\"},{\"id\":2,\"email\":\"janet.weaver@reqres.in\",\"first_name\":\"Janet\",\"last_name\":\"Weaver\",\"avatar\":\"https:\/\/reqres.in\/img\/faces\/2-image.jpg\"},{\"id\":3,\"email\":\"emma.wong@reqres.in\",\"first_name\":\"Emma\",\"last_name\":\"Wong\",\"avatar\":\"https:\/\/reqres.in\/img\/faces\/3-image.jpg\"},{\"id\":4,\"email\":\"eve.holt@reqres.in\",\"first_name\":\"Eve\",\"last_name\":\"Holt\",\"avatar\":\"https:\/\/reqres.in\/img\/faces\/4-image.jpg\"},{\"id\":5,\"email\":\"charles.morris@reqres.in\",\"first_name\":\"Charles\",\"last_name\":\"Morris\",\"avatar\":\"https:\/\/reqres.in\/img\/faces\/5-image.jpg\"},{\"id\":6,\"email\":\"tracey.ramos@reqres.in\",\"first_name\":\"Tracey\",\"last_name\":\"Ramos\",\"avatar\":\"https:\/\/reqres.in\/img\/faces\/6-image.jpg\"}],\"support\":{\"url\":\"https:\/\/reqres.in\/#support-heading\",\"text\":\"To keep ReqRes free, contributions towards server costs are appreciated!\"}}\n\n"},{"result":{"nanos":115500,"millis":0.1155,"status":"passed"},"step":{"line":7,"prefix":"Then","index":3,"text":"status 200"}},{"result":{"nanos":63986900,"millis":63.9869,"status":"passed"},"step":{"line":8,"prefix":"And","index":4,"text":"match response.data[*].id == '#[_ >1]'"}}],"executorName":"main","line":3,"name":"Get a list of users","description":"","durationMillis":3434.1061,"startTime":1699597887719,"failed":false,"refId":"[1:3]","endTime":1699597891167,"exampleIndex":-1},{"sectionIndex":1,"stepResults":[{"result":{"nanos":803800,"millis":0.8038,"status":"passed"},"step":{"line":12,"prefix":"Given","index":0,"text":"url \"https:\/\/reqres.in\/api\""}},{"result":{"nanos":454900,"millis":0.4549,"status":"passed"},"step":{"line":13,"prefix":"Given","index":1,"text":"path  \"\/user\/2\""}},{"result":{"nanos":37348483000,"errorMessage":"http call failed after 37348 milliseconds for url: https:\/\/reqres.in\/api\/user\/2\nsrc\/test\/java\/api1.feature:14","millis":37348.483,"status":"failed"},"step":{"line":14,"prefix":"When","index":2,"text":"method  GET"},"stepLog":"12:01:31.176 request:\n1 > GET https:\/\/reqres.in\/api\/user\/2\n1 > Host: reqres.in\n1 > Connection: Keep-Alive\n1 > User-Agent: Apache-HttpClient\/4.5.13 (Java\/11.0.19)\n1 > Accept-Encoding: gzip,deflate\n\n\n12:02:08.523 java.net.SocketTimeoutException: Read timed out, http call failed after 37348 milliseconds for url: https:\/\/reqres.in\/api\/user\/2\n12:02:08.524 src\/test\/java\/api1.feature:14\nWhen method  GET\nhttp call failed after 37348 milliseconds for url: https:\/\/reqres.in\/api\/user\/2\nsrc\/test\/java\/api1.feature:14\n"},{"result":{"nanos":0,"millis":0.0,"status":"skipped"},"step":{"line":15,"prefix":"Then","index":3,"text":"status  200"}},{"result":{"nanos":0,"millis":0.0,"status":"skipped"},"step":{"line":16,"prefix":"And","index":4,"text":"match response.data.id == 2"}}],"line":11,"description":"","durationMillis":37349.7417,"failed":true,"error":"http call failed after 37348 milliseconds for url: https:\/\/reqres.in\/api\/user\/2\nsrc\/test\/java\/api1.feature:14","executorName":"main","name":"Get a single user","startTime":1699597891173,"refId":"[2:11]","endTime":1699597928524,"exampleIndex":-1},{"sectionIndex":2,"stepResults":[{"result":{"nanos":517000,"millis":0.517,"status":"passed"},"step":{"line":20,"prefix":"Given","index":0,"text":"url \"https:\/\/reqres.in\/api\/users\""}},{"result":{"nanos":129100,"millis":0.1291,"status":"passed"},"step":{"line":21,"prefix":"Given","index":1,"text":"path  \"\/user\/2\""}},{"result":{"nanos":25418152400,"errorMessage":"http call failed after 25418 milliseconds for url: https:\/\/reqres.in\/api\/users\/user\/2\nsrc\/test\/java\/api1.feature:22","millis":25418.1524,"status":"failed"},"step":{"line":22,"prefix":"When","index":2,"text":"method  GET"},"stepLog":"12:02:08.530 request:\n1 > GET https:\/\/reqres.in\/api\/users\/user\/2\n1 > Host: reqres.in\n1 > Connection: Keep-Alive\n1 > User-Agent: Apache-HttpClient\/4.5.13 (Java\/11.0.19)\n1 > Accept-Encoding: gzip,deflate\n\n\n12:02:33.947 org.apache.http.NoHttpResponseException: The target server failed to respond, http call failed after 25418 milliseconds for url: https:\/\/reqres.in\/api\/users\/user\/2\n12:02:33.947 src\/test\/java\/api1.feature:22\nWhen method  GET\nhttp call failed after 25418 milliseconds for url: https:\/\/reqres.in\/api\/users\/user\/2\nsrc\/test\/java\/api1.feature:22\n"},{"result":{"nanos":0,"millis":0.0,"status":"skipped"},"step":{"line":23,"prefix":"Then","index":3,"text":"status  404"}}],"line":19,"description":"","durationMillis":25418.7985,"failed":true,"error":"http call failed after 25418 milliseconds for url: https:\/\/reqres.in\/api\/users\/user\/2\nsrc\/test\/java\/api1.feature:22","executorName":"main","name":"Get a single user - user not found","startTime":1699597928528,"refId":"[3:19]","endTime":1699597953947,"exampleIndex":-1},{"sectionIndex":3,"stepResults":[{"result":{"nanos":2120100,"millis":2.1201,"status":"passed"},"step":{"line":27,"prefix":"Given","index":0,"text":"url \"https:\/\/reqres.in\/api\""}},{"result":{"nanos":608100,"millis":0.6081,"status":"passed"},"step":{"line":28,"prefix":"Given","index":1,"text":"path  \"\/users\""}},{"result":{"nanos":2730500,"millis":2.7305,"status":"passed"},"step":{"line":29,"prefix":"And","index":2,"text":"request {\"name\": \"John Doe\",\"job\":\"Software Engineer\"}"}},{"result":{"nanos":46273976800,"millis":46273.9768,"status":"passed"},"step":{"line":30,"prefix":"When","index":3,"text":"method  POST"},"stepLog":"12:02:34.075 request:\n1 > POST https:\/\/reqres.in\/api\/users\n1 > Content-Type: application\/json; charset=UTF-8\n1 > Content-Length: 45\n1 > Host: reqres.in\n1 > Connection: Keep-Alive\n1 > User-Agent: Apache-HttpClient\/4.5.13 (Java\/11.0.19)\n1 > Accept-Encoding: gzip,deflate\n{\"name\":\"John Doe\",\"job\":\"Software Engineer\"}\n\n12:03:20.234 response time in milliseconds: 46158\n1 < 201\n1 < Date: Fri, 10 Nov 2023 06:33:01 GMT\n1 < Content-Type: application\/json; charset=utf-8\n1 < Content-Length: 95\n1 < Connection: keep-alive\n1 < Report-To: {\"group\":\"heroku-nel\",\"max_age\":3600,\"endpoints\":[{\"url\":\"https:\/\/nel.heroku.com\/reports?ts=1699597981&sid=c4c9725f-1ab0-44d8-820f-430df2718e11&s=YCTUWkIV6l5hXQpUbuuS%2BuX07WVyEj0SDxqmdrrht3k%3D\"}]}\n1 < Reporting-Endpoints: heroku-nel=https:\/\/nel.heroku.com\/reports?ts=1699597981&sid=c4c9725f-1ab0-44d8-820f-430df2718e11&s=YCTUWkIV6l5hXQpUbuuS%2BuX07WVyEj0SDxqmdrrht3k%3D\n1 < Nel: {\"report_to\":\"heroku-nel\",\"max_age\":3600,\"success_fraction\":0.005,\"failure_fraction\":0.05,\"response_headers\":[\"Via\"]}\n1 < X-Powered-By: Express\n1 < Access-Control-Allow-Origin: *\n1 < Etag: W\/\"5f-l57jklsOdrGhkNuMgE9QdBJ9zJw\"\n1 < Via: 1.1 vegur\n1 < CF-Cache-Status: DYNAMIC\n1 < Server: cloudflare\n1 < CF-RAY: 823c42f7eea391b4-SIN\n{\"name\":\"John Doe\",\"job\":\"Software Engineer\",\"id\":\"776\",\"createdAt\":\"2023-11-10T06:33:01.690Z\"}\n\n"},{"result":{"nanos":14900,"millis":0.0149,"status":"passed"},"step":{"line":31,"prefix":"Then","index":4,"text":"status  201"}},{"result":{"nanos":1578600,"millis":1.5786,"status":"passed"},"step":{"line":32,"prefix":"And","index":5,"text":"match response.job == \"Software Engineer\""}}],"executorName":"main","line":26,"name":"Create a new user","description":"","durationMillis":46281.029,"startTime":1699597953955,"failed":false,"refId":"[4:26]","endTime":1699598000237,"exampleIndex":-1},{"sectionIndex":4,"stepResults":[{"result":{"nanos":282300,"millis":0.2823,"status":"passed"},"step":{"line":35,"prefix":"Given","index":0,"text":"url \"https:\/\/reqres.in\/api\""}},{"result":{"nanos":608000,"millis":0.608,"status":"passed"},"step":{"line":36,"prefix":"Given","index":1,"text":"path  \"\/users\/2\""}},{"result":{"nanos":400100,"millis":0.4001,"status":"passed"},"step":{"line":37,"prefix":"And","index":2,"text":"request {\"job\": \"zion resident\"}"}},{"result":{"nanos":721690600,"millis":721.6906,"status":"passed"},"step":{"line":38,"prefix":"When","index":3,"text":"method  PUT"},"stepLog":"12:03:20.247 request:\n1 > PUT https:\/\/reqres.in\/api\/users\/2\n1 > Content-Type: application\/json; charset=UTF-8\n1 > Content-Length: 23\n1 > Host: reqres.in\n1 > Connection: Keep-Alive\n1 > User-Agent: Apache-HttpClient\/4.5.13 (Java\/11.0.19)\n1 > Accept-Encoding: gzip,deflate\n{\"job\":\"zion resident\"}\n\n12:03:20.963 response time in milliseconds: 716\n1 < 200\n1 < Date: Fri, 10 Nov 2023 06:33:03 GMT\n1 < Content-Type: application\/json; charset=utf-8\n1 < Transfer-Encoding: chunked\n1 < Connection: keep-alive\n1 < Report-To: {\"group\":\"heroku-nel\",\"max_age\":3600,\"endpoints\":[{\"url\":\"https:\/\/nel.heroku.com\/reports?ts=1699597982&sid=c4c9725f-1ab0-44d8-820f-430df2718e11&s=WxHIcKlVTenPXnwG6iHIIDPTewLYYXtU2wXaSP9BiTI%3D\"}]}\n1 < Reporting-Endpoints: heroku-nel=https:\/\/nel.heroku.com\/reports?ts=1699597982&sid=c4c9725f-1ab0-44d8-820f-430df2718e11&s=WxHIcKlVTenPXnwG6iHIIDPTewLYYXtU2wXaSP9BiTI%3D\n1 < Nel: {\"report_to\":\"heroku-nel\",\"max_age\":3600,\"success_fraction\":0.005,\"failure_fraction\":0.05,\"response_headers\":[\"Via\"]}\n1 < X-Powered-By: Express\n1 < Access-Control-Allow-Origin: *\n1 < Etag: W\/\"3e-19avGxKtNzNViV8mLpU0EvL9f6o\"\n1 < Via: 1.1 vegur\n1 < CF-Cache-Status: DYNAMIC\n1 < Vary: Accept-Encoding\n1 < Server: cloudflare\n1 < CF-RAY: 823c42ffc9db3d30-BOM\n{\"job\":\"zion resident\",\"updatedAt\":\"2023-11-10T06:33:02.996Z\"}\n\n"},{"result":{"nanos":25400,"millis":0.0254,"status":"passed"},"step":{"line":39,"prefix":"Then","index":4,"text":"status  200"}},{"result":{"nanos":2560100,"millis":2.5601,"status":"passed"},"step":{"line":40,"prefix":"And","index":5,"text":"match response.job == \"zion resident\""}}],"executorName":"main","line":34,"name":"Update user","description":"","durationMillis":725.5665,"startTime":1699598000243,"failed":false,"refId":"[5:34]","endTime":1699598000969,"exampleIndex":-1},{"sectionIndex":5,"stepResults":[{"result":{"nanos":704300,"millis":0.7043,"status":"passed"},"step":{"line":43,"prefix":"Given","index":0,"text":"url \"https:\/\/reqres.in\/api\""}},{"result":{"nanos":524900,"millis":0.5249,"status":"passed"},"step":{"line":44,"prefix":"Given","index":1,"text":"path  \"\/users\/2\""}},{"result":{"nanos":5265715700,"millis":5265.7157,"status":"passed"},"step":{"line":45,"prefix":"When","index":2,"text":"method  DELETE"},"stepLog":"12:03:20.987 request:\n1 > DELETE https:\/\/reqres.in\/api\/users\/2\n1 > Host: reqres.in\n1 > Connection: Keep-Alive\n1 > User-Agent: Apache-HttpClient\/4.5.13 (Java\/11.0.19)\n1 > Accept-Encoding: gzip,deflate\n\n\n12:03:26.246 response time in milliseconds: 5258\n1 < 204\n1 < Date: Fri, 10 Nov 2023 06:33:05 GMT\n1 < Content-Length: 0\n1 < Connection: keep-alive\n1 < Report-To: {\"group\":\"heroku-nel\",\"max_age\":3600,\"endpoints\":[{\"url\":\"https:\/\/nel.heroku.com\/reports?ts=1699597985&sid=c4c9725f-1ab0-44d8-820f-430df2718e11&s=3KcqSH%2Fady2mwszdliroETVe19CcsLMiSPGR1wjET2U%3D\"}]}\n1 < Reporting-Endpoints: heroku-nel=https:\/\/nel.heroku.com\/reports?ts=1699597985&sid=c4c9725f-1ab0-44d8-820f-430df2718e11&s=3KcqSH%2Fady2mwszdliroETVe19CcsLMiSPGR1wjET2U%3D\n1 < Nel: {\"report_to\":\"heroku-nel\",\"max_age\":3600,\"success_fraction\":0.005,\"failure_fraction\":0.05,\"response_headers\":[\"Via\"]}\n1 < X-Powered-By: Express\n1 < Access-Control-Allow-Origin: *\n1 < Etag: W\/\"2-vyGp6PvFo4RvsFtPoIWeCReyIC8\"\n1 < Via: 1.1 vegur\n1 < CF-Cache-Status: DYNAMIC\n1 < Server: cloudflare\n1 < CF-RAY: 823c4312398f8994-SIN\n\n\n"},{"result":{"nanos":16100,"millis":0.0161,"status":"passed"},"step":{"line":46,"prefix":"Then","index":3,"text":"status  204"}}],"executorName":"main","line":42,"name":"Delete user","description":"","durationMillis":5266.961,"startTime":1699598000979,"failed":false,"refId":"[6:42]","endTime":1699598006247,"exampleIndex":-1}],"callDepth":0,"name":"GET API feature","description":"","resultDate":"2023-11-10 12:03:26 PM","durationMillis":118476.2028,"passedCount":4}