{"failedCount":4,"prefixedPath":"classpath:api1.feature","packageQualifiedName":"api1","loopIndex":-1,"relativePath":"api1.feature","scenarioResults":[{"sectionIndex":0,"stepResults":[{"result":{"nanos":92857999,"millis":92.857999,"status":"passed"},"step":{"line":4,"prefix":"Given","index":0,"text":"url \"https:\/\/reqres.in\/api\""}},{"result":{"nanos":1203899,"millis":1.203899,"status":"passed"},"step":{"line":5,"prefix":"Given","index":1,"text":"path '\/users'"}},{"result":{"nanos":1315350200,"millis":1315.3502,"status":"passed"},"step":{"line":6,"prefix":"When","index":2,"text":"method GET"},"stepLog":"21:19:08.027 request:\n1 > GET https:\/\/reqres.in\/api\/users\n1 > Host: reqres.in\n1 > Connection: Keep-Alive\n1 > User-Agent: Apache-HttpClient\/4.5.13 (Java\/11.0.19)\n1 > Accept-Encoding: gzip,deflate\n\n\n21:19:08.581 response time in milliseconds: 549\n1 < 200\n1 < Date: Wed, 08 Nov 2023 15:48:51 GMT\n1 < Content-Type: application\/json; charset=utf-8\n1 < Transfer-Encoding: chunked\n1 < Connection: keep-alive\n1 < Report-To: {\"group\":\"heroku-nel\",\"max_age\":3600,\"endpoints\":[{\"url\":\"https:\/\/nel.heroku.com\/reports?ts=1699347089&sid=c4c9725f-1ab0-44d8-820f-430df2718e11&s=sDhCgUI2crBU%2FTbchPUyBLP030Ym3zWqFAtBRxcxxSQ%3D\"}]}\n1 < Reporting-Endpoints: heroku-nel=https:\/\/nel.heroku.com\/reports?ts=1699347089&sid=c4c9725f-1ab0-44d8-820f-430df2718e11&s=sDhCgUI2crBU%2FTbchPUyBLP030Ym3zWqFAtBRxcxxSQ%3D\n1 < Nel: {\"report_to\":\"heroku-nel\",\"max_age\":3600,\"success_fraction\":0.005,\"failure_fraction\":0.05,\"response_headers\":[\"Via\"]}\n1 < X-Powered-By: Express\n1 < Access-Control-Allow-Origin: *\n1 < Etag: W\/\"3e4-2RLXvr5wTg9YQ6aH95CkYoFNuO8\"\n1 < Via: 1.1 vegur\n1 < Cache-Control: max-age=14400\n1 < CF-Cache-Status: HIT\n1 < Age: 6587\n1 < Vary: Accept-Encoding\n1 < Server: cloudflare\n1 < CF-RAY: 822ef66e6ffd85e8-BOM\n{\"page\":1,\"per_page\":6,\"total\":12,\"total_pages\":2,\"data\":[{\"id\":1,\"email\":\"george.bluth@reqres.in\",\"first_name\":\"George\",\"last_name\":\"Bluth\",\"avatar\":\"https:\/\/reqres.in\/img\/faces\/1-image.jpg\"},{\"id\":2,\"email\":\"janet.weaver@reqres.in\",\"first_name\":\"Janet\",\"last_name\":\"Weaver\",\"avatar\":\"https:\/\/reqres.in\/img\/faces\/2-image.jpg\"},{\"id\":3,\"email\":\"emma.wong@reqres.in\",\"first_name\":\"Emma\",\"last_name\":\"Wong\",\"avatar\":\"https:\/\/reqres.in\/img\/faces\/3-image.jpg\"},{\"id\":4,\"email\":\"eve.holt@reqres.in\",\"first_name\":\"Eve\",\"last_name\":\"Holt\",\"avatar\":\"https:\/\/reqres.in\/img\/faces\/4-image.jpg\"},{\"id\":5,\"email\":\"charles.morris@reqres.in\",\"first_name\":\"Charles\",\"last_name\":\"Morris\",\"avatar\":\"https:\/\/reqres.in\/img\/faces\/5-image.jpg\"},{\"id\":6,\"email\":\"tracey.ramos@reqres.in\",\"first_name\":\"Tracey\",\"last_name\":\"Ramos\",\"avatar\":\"https:\/\/reqres.in\/img\/faces\/6-image.jpg\"}],\"support\":{\"url\":\"https:\/\/reqres.in\/#support-heading\",\"text\":\"To keep ReqRes free, contributions towards server costs are appreciated!\"}}\n\n"},{"result":{"nanos":37899,"millis":0.037899,"status":"passed"},"step":{"line":7,"prefix":"Then","index":3,"text":"status 200"}},{"result":{"nanos":132875499,"millis":132.875499,"status":"passed"},"step":{"line":8,"prefix":"And","index":4,"text":"match response.data[*].id == '#[_ >1]'"}}],"executorName":"main","line":3,"name":"Get a list of users","description":"","durationMillis":1542.325496,"startTime":1699458547216,"failed":false,"refId":"[1:3]","endTime":1699458548782,"exampleIndex":-1},{"sectionIndex":1,"stepResults":[{"result":{"nanos":837599,"millis":0.837599,"status":"passed"},"step":{"line":12,"prefix":"Given","index":0,"text":"url \"https:\/\/reqres.in\/api\/users\""}},{"result":{"nanos":881800,"millis":0.8818,"status":"passed"},"step":{"line":13,"prefix":"Given","index":1,"text":"path  \"1\""}},{"result":{"nanos":430721200,"millis":430.7212,"status":"passed"},"step":{"line":14,"prefix":"When","index":2,"text":"method  GET"},"stepLog":"21:19:08.798 request:\n1 > GET https:\/\/reqres.in\/api\/users\/1\n1 > Host: reqres.in\n1 > Connection: Keep-Alive\n1 > User-Agent: Apache-HttpClient\/4.5.13 (Java\/11.0.19)\n1 > Accept-Encoding: gzip,deflate\n\n\n21:19:09.217 response time in milliseconds: 418\n1 < 200\n1 < Date: Wed, 08 Nov 2023 15:48:52 GMT\n1 < Content-Type: application\/json; charset=utf-8\n1 < Transfer-Encoding: chunked\n1 < Connection: keep-alive\n1 < X-Powered-By: Express\n1 < Access-Control-Allow-Origin: *\n1 < Etag: W\/\"118-P3iKcVpIgCj9HqYeOOrGLX8qJVc\"\n1 < Via: 1.1 vegur\n1 < Cache-Control: max-age=14400\n1 < CF-Cache-Status: HIT\n1 < Age: 4465\n1 < Report-To: {\"endpoints\":[{\"url\":\"https:\\\/\\\/a.nel.cloudflare.com\\\/report\\\/v3?s=7EPOl869XwwJG3YjKRuuQAzSisSgoVH8omDq%2FUhVA5AuKVE0XoxgiG8pg1FnkmifTMVe%2FLd%2BCDOL0J7Bk2gzNwaGjaLuLv5SEczQM4Wq5dG1ks5gAl7pu2GgTQ%3D%3D\"}],\"group\":\"cf-nel\",\"max_age\":604800}\n1 < NEL: {\"success_fraction\":0,\"report_to\":\"cf-nel\",\"max_age\":604800}\n1 < Vary: Accept-Encoding\n1 < Server: cloudflare\n1 < CF-RAY: 822ef672bcf88565-BOM\n{\"data\":{\"id\":1,\"email\":\"george.bluth@reqres.in\",\"first_name\":\"George\",\"last_name\":\"Bluth\",\"avatar\":\"https:\/\/reqres.in\/img\/faces\/1-image.jpg\"},\"support\":{\"url\":\"https:\/\/reqres.in\/#support-heading\",\"text\":\"To keep ReqRes free, contributions towards server costs are appreciated!\"}}\n\n"},{"result":{"nanos":390500,"errorMessage":"status code was: 200, expected: 404, response time in milliseconds: 418, url: https:\/\/reqres.in\/api\/users\/1, response: \n{\"data\":{\"id\":1,\"email\":\"george.bluth@reqres.in\",\"first_name\":\"George\",\"last_name\":\"Bluth\",\"avatar\":\"https:\/\/reqres.in\/img\/faces\/1-image.jpg\"},\"support\":{\"url\":\"https:\/\/reqres.in\/#support-heading\",\"text\":\"To keep ReqRes free, contributions towards server costs are appreciated!\"}}\nclasspath:api1.feature:15","millis":0.3905,"status":"failed"},"step":{"line":15,"prefix":"Then","index":3,"text":"status  404"},"stepLog":"21:19:09.228 classpath:api1.feature:15\nThen status  404\nstatus code was: 200, expected: 404, response time in milliseconds: 418, url: https:\/\/reqres.in\/api\/users\/1, response: \n{\"data\":{\"id\":1,\"email\":\"george.bluth@reqres.in\",\"first_name\":\"George\",\"last_name\":\"Bluth\",\"avatar\":\"https:\/\/reqres.in\/img\/faces\/1-image.jpg\"},\"support\":{\"url\":\"https:\/\/reqres.in\/#support-heading\",\"text\":\"To keep ReqRes free, contributions towards server costs are appreciated!\"}}\nclasspath:api1.feature:15\n"}],"line":11,"description":"","durationMillis":432.831099,"failed":true,"error":"status code was: 200, expected: 404, response time in milliseconds: 418, url: https:\/\/reqres.in\/api\/users\/1, response: \n{\"data\":{\"id\":1,\"email\":\"george.bluth@reqres.in\",\"first_name\":\"George\",\"last_name\":\"Bluth\",\"avatar\":\"https:\/\/reqres.in\/img\/faces\/1-image.jpg\"},\"support\":{\"url\":\"https:\/\/reqres.in\/#support-heading\",\"text\":\"To keep ReqRes free, contributions towards server costs are appreciated!\"}}\nclasspath:api1.feature:15","executorName":"main","name":"Get user details - user not found","startTime":1699458548793,"refId":"[2:11]","endTime":1699458549229,"exampleIndex":-1},{"sectionIndex":2,"stepResults":[{"result":{"nanos":2423800,"millis":2.4238,"status":"passed"},"step":{"line":19,"prefix":"Given","index":0,"text":"url \"https:\/\/reqres.in\/api\""}},{"result":{"nanos":2183900,"millis":2.1839,"status":"passed"},"step":{"line":20,"prefix":"Given","index":1,"text":"path  \"\/users\""}},{"result":{"nanos":8652001,"millis":8.652001,"status":"passed"},"step":{"line":21,"prefix":"And","index":2,"text":"request {\"name\": \"John Doe\",\"job\":\"Software Engineer\"}"}},{"result":{"nanos":985263200,"millis":985.2632,"status":"passed"},"step":{"line":22,"prefix":"When","index":3,"text":"method  POST"},"stepLog":"21:19:09.457 request:\n1 > POST https:\/\/reqres.in\/api\/users\n1 > Content-Type: application\/json; charset=UTF-8\n1 > Content-Length: 45\n1 > Host: reqres.in\n1 > Connection: Keep-Alive\n1 > User-Agent: Apache-HttpClient\/4.5.13 (Java\/11.0.19)\n1 > Accept-Encoding: gzip,deflate\n{\"name\":\"John Doe\",\"job\":\"Software Engineer\"}\n\n21:19:10.282 response time in milliseconds: 824\n1 < 530\n1 < Date: Wed, 08 Nov 2023 15:48:53 GMT\n1 < Content-Type: text\/plain; charset=UTF-8\n1 < Content-Length: 16\n1 < Connection: keep-alive\n1 < Report-To: {\"endpoints\":[{\"url\":\"https:\\\/\\\/a.nel.cloudflare.com\\\/report\\\/v3?s=LwZcBx0eYCsjKuJVmvjRnJI23%2FBlU1IMVGM9Iw0NJd6CUGocRfxMbXa48DN7okLDZ7WyIt9Ljkbig0YSQXVjEVr8dqRDYMBdTwm%2FudI5KMceq6nXdcNpke1jOw%3D%3D\"}],\"group\":\"cf-nel\",\"max_age\":604800}\n1 < NEL: {\"success_fraction\":0,\"report_to\":\"cf-nel\",\"max_age\":604800}\n1 < X-Frame-Options: SAMEORIGIN\n1 < Referrer-Policy: same-origin\n1 < Cache-Control: private, max-age=0, no-store, no-cache, must-revalidate, post-check=0, pre-check=0\n1 < Expires: Thu, 01 Jan 1970 00:00:01 GMT\n1 < Server: cloudflare\n1 < CF-RAY: 822ef678c9f11fc2-HKG\nerror code: 1016\n\n"},{"result":{"nanos":115000,"errorMessage":"status code was: 530, expected: 201, response time in milliseconds: 824, url: https:\/\/reqres.in\/api\/users, response: \nerror code: 1016\nclasspath:api1.feature:23","millis":0.115,"status":"failed"},"step":{"line":23,"prefix":"Then","index":4,"text":"status  201"},"stepLog":"21:19:10.287 classpath:api1.feature:23\nThen status  201\nstatus code was: 530, expected: 201, response time in milliseconds: 824, url: https:\/\/reqres.in\/api\/users, response: \nerror code: 1016\nclasspath:api1.feature:23\n"},{"result":{"nanos":0,"millis":0.0,"status":"skipped"},"step":{"line":24,"prefix":"And","index":5,"text":"match response.job == \"Software Engineer\""}}],"line":18,"description":"","durationMillis":998.637901,"failed":true,"error":"status code was: 530, expected: 201, response time in milliseconds: 824, url: https:\/\/reqres.in\/api\/users, response: \nerror code: 1016\nclasspath:api1.feature:23","executorName":"main","name":"Create a new user","startTime":1699458549279,"refId":"[3:18]","endTime":1699458550287,"exampleIndex":-1},{"sectionIndex":3,"stepResults":[{"result":{"nanos":1311500,"millis":1.3115,"status":"passed"},"step":{"line":27,"prefix":"Given","index":0,"text":"url \"https:\/\/reqres.in\/api\""}},{"result":{"nanos":1983400,"millis":1.9834,"status":"passed"},"step":{"line":28,"prefix":"Given","index":1,"text":"path  \"\/users\/2\""}},{"result":{"nanos":1140801,"millis":1.140801,"status":"passed"},"step":{"line":29,"prefix":"And","index":2,"text":"request {\"job\": \"zion resident\"}"}},{"result":{"nanos":359208000,"millis":359.208,"status":"passed"},"step":{"line":30,"prefix":"When","index":3,"text":"method  PUT"},"stepLog":"21:19:10.327 request:\n1 > PUT https:\/\/reqres.in\/api\/users\/2\n1 > Content-Type: application\/json; charset=UTF-8\n1 > Content-Length: 23\n1 > Host: reqres.in\n1 > Connection: Keep-Alive\n1 > User-Agent: Apache-HttpClient\/4.5.13 (Java\/11.0.19)\n1 > Accept-Encoding: gzip,deflate\n{\"job\":\"zion resident\"}\n\n21:19:10.678 response time in milliseconds: 351\n1 < 530\n1 < Date: Wed, 08 Nov 2023 15:48:53 GMT\n1 < Content-Type: text\/plain; charset=UTF-8\n1 < Content-Length: 16\n1 < Connection: keep-alive\n1 < Report-To: {\"endpoints\":[{\"url\":\"https:\\\/\\\/a.nel.cloudflare.com\\\/report\\\/v3?s=MqJ49TfwE6gb14wS8PBkfEQCp5vS8zDgQKvLEawPFAy2gVoMZ1zAWpV85vKdNpDZHoMK2G1dq8Az50nPaBN34o9K5gSKCPbtvmirK6R8yCyaLXE98Ege9%2BBckg%3D%3D\"}],\"group\":\"cf-nel\",\"max_age\":604800}\n1 < NEL: {\"success_fraction\":0,\"report_to\":\"cf-nel\",\"max_age\":604800}\n1 < Vary: Accept-Encoding\n1 < X-Frame-Options: SAMEORIGIN\n1 < Referrer-Policy: same-origin\n1 < Cache-Control: private, max-age=0, no-store, no-cache, must-revalidate, post-check=0, pre-check=0\n1 < Expires: Thu, 01 Jan 1970 00:00:01 GMT\n1 < Server: cloudflare\n1 < CF-RAY: 822ef67bba8b46f0-BOM\nerror code: 1016\n\n"},{"result":{"nanos":67801,"errorMessage":"status code was: 530, expected: 200, response time in milliseconds: 351, url: https:\/\/reqres.in\/api\/users\/2, response: \nerror code: 1016\nclasspath:api1.feature:31","millis":0.067801,"status":"failed"},"step":{"line":31,"prefix":"Then","index":4,"text":"status  200"},"stepLog":"21:19:10.681 classpath:api1.feature:31\nThen status  200\nstatus code was: 530, expected: 200, response time in milliseconds: 351, url: https:\/\/reqres.in\/api\/users\/2, response: \nerror code: 1016\nclasspath:api1.feature:31\n"},{"result":{"nanos":0,"millis":0.0,"status":"skipped"},"step":{"line":32,"prefix":"And","index":5,"text":"match response.job == \"zion resident\""}}],"line":26,"description":"","durationMillis":363.711502,"failed":true,"error":"status code was: 530, expected: 200, response time in milliseconds: 351, url: https:\/\/reqres.in\/api\/users\/2, response: \nerror code: 1016\nclasspath:api1.feature:31","executorName":"main","name":"Update user","startTime":1699458550314,"refId":"[4:26]","endTime":1699458550681,"exampleIndex":-1},{"sectionIndex":4,"stepResults":[{"result":{"nanos":510400,"millis":0.5104,"status":"passed"},"step":{"line":35,"prefix":"Given","index":0,"text":"url \"https:\/\/reqres.in\/api\""}},{"result":{"nanos":207600,"millis":0.2076,"status":"passed"},"step":{"line":36,"prefix":"Given","index":1,"text":"path  \"\/users\/2\""}},{"result":{"nanos":884391700,"millis":884.3917,"status":"passed"},"step":{"line":37,"prefix":"When","index":2,"text":"method  DELETE"},"stepLog":"21:19:10.693 request:\n1 > DELETE https:\/\/reqres.in\/api\/users\/2\n1 > Host: reqres.in\n1 > Connection: Keep-Alive\n1 > User-Agent: Apache-HttpClient\/4.5.13 (Java\/11.0.19)\n1 > Accept-Encoding: gzip,deflate\n\n\n21:19:11.571 response time in milliseconds: 877\n1 < 530\n1 < Date: Wed, 08 Nov 2023 15:48:54 GMT\n1 < Content-Type: text\/plain; charset=UTF-8\n1 < Content-Length: 16\n1 < Connection: keep-alive\n1 < Report-To: {\"endpoints\":[{\"url\":\"https:\\\/\\\/a.nel.cloudflare.com\\\/report\\\/v3?s=UDGSOsnpCbnUqwJb0SobIzp4%2FDHU34eR9AsZDKgerG8kjfRmm2AO%2F9tL6TyIIOMj0QkTn4TPcZdPuJp8b9%2BS4CxPZx%2Bv5v7I%2FoDVeCCcTNZcotwAn0N%2BgNu1pw%3D%3D\"}],\"group\":\"cf-nel\",\"max_age\":604800}\n1 < NEL: {\"success_fraction\":0,\"report_to\":\"cf-nel\",\"max_age\":604800}\n1 < X-Frame-Options: SAMEORIGIN\n1 < Referrer-Policy: same-origin\n1 < Cache-Control: private, max-age=0, no-store, no-cache, must-revalidate, post-check=0, pre-check=0\n1 < Expires: Thu, 01 Jan 1970 00:00:01 GMT\n1 < Server: cloudflare\n1 < CF-RAY: 822ef6809fad0ed4-HKG\nerror code: 1016\n\n"},{"result":{"nanos":155101,"errorMessage":"status code was: 530, expected: 204, response time in milliseconds: 877, url: https:\/\/reqres.in\/api\/users\/2, response: \nerror code: 1016\nclasspath:api1.feature:38","millis":0.155101,"status":"failed"},"step":{"line":38,"prefix":"Then","index":3,"text":"status  204"},"stepLog":"21:19:11.576 classpath:api1.feature:38\nThen status  204\nstatus code was: 530, expected: 204, response time in milliseconds: 877, url: https:\/\/reqres.in\/api\/users\/2, response: \nerror code: 1016\nclasspath:api1.feature:38\n"}],"line":34,"description":"","durationMillis":885.264801,"failed":true,"error":"status code was: 530, expected: 204, response time in milliseconds: 877, url: https:\/\/reqres.in\/api\/users\/2, response: \nerror code: 1016\nclasspath:api1.feature:38","executorName":"main","name":"Delete user","startTime":1699458550690,"refId":"[5:34]","endTime":1699458551576,"exampleIndex":-1}],"callDepth":0,"name":"GET API feature","description":"","resultDate":"2023-11-08 09:19:11 PM","durationMillis":4222.770799,"passedCount":1}