{"failedCount":4,"prefixedPath":"src\/test\/java\/api1.feature","packageQualifiedName":"src.test.java.api1","loopIndex":-1,"relativePath":"src\/test\/java\/api1.feature","scenarioResults":[{"sectionIndex":0,"stepResults":[{"result":{"nanos":120424300,"millis":120.4243,"status":"passed"},"step":{"line":4,"prefix":"Given","index":0,"text":"url \"https:\/\/reqres.in\/api\""}},{"result":{"nanos":623500,"millis":0.6235,"status":"passed"},"step":{"line":5,"prefix":"Given","index":1,"text":"path '\/users'"}},{"result":{"nanos":1607884899,"millis":1607.884899,"status":"passed"},"step":{"line":6,"prefix":"When","index":2,"text":"method GET"},"stepLog":"21:17:38.288 request:\n1 > GET https:\/\/reqres.in\/api\/users\n1 > Host: reqres.in\n1 > Connection: Keep-Alive\n1 > User-Agent: Apache-HttpClient\/4.5.13 (Java\/11.0.19)\n1 > Accept-Encoding: gzip,deflate\n\n\n21:17:39.275 response time in milliseconds: 978\n1 < 200\n1 < Date: Wed, 08 Nov 2023 15:47:22 GMT\n1 < Content-Type: application\/json; charset=utf-8\n1 < Transfer-Encoding: chunked\n1 < Connection: keep-alive\n1 < Report-To: {\"group\":\"heroku-nel\",\"max_age\":3600,\"endpoints\":[{\"url\":\"https:\/\/nel.heroku.com\/reports?ts=1699347089&sid=c4c9725f-1ab0-44d8-820f-430df2718e11&s=sDhCgUI2crBU%2FTbchPUyBLP030Ym3zWqFAtBRxcxxSQ%3D\"}]}\n1 < Reporting-Endpoints: heroku-nel=https:\/\/nel.heroku.com\/reports?ts=1699347089&sid=c4c9725f-1ab0-44d8-820f-430df2718e11&s=sDhCgUI2crBU%2FTbchPUyBLP030Ym3zWqFAtBRxcxxSQ%3D\n1 < Nel: {\"report_to\":\"heroku-nel\",\"max_age\":3600,\"success_fraction\":0.005,\"failure_fraction\":0.05,\"response_headers\":[\"Via\"]}\n1 < X-Powered-By: Express\n1 < Access-Control-Allow-Origin: *\n1 < Etag: W\/\"3e4-2RLXvr5wTg9YQ6aH95CkYoFNuO8\"\n1 < Via: 1.1 vegur\n1 < Cache-Control: max-age=14400\n1 < CF-Cache-Status: HIT\n1 < Age: 6498\n1 < Vary: Accept-Encoding\n1 < Server: cloudflare\n1 < CF-RAY: 822ef44038748563-BOM\n{\"page\":1,\"per_page\":6,\"total\":12,\"total_pages\":2,\"data\":[{\"id\":1,\"email\":\"george.bluth@reqres.in\",\"first_name\":\"George\",\"last_name\":\"Bluth\",\"avatar\":\"https:\/\/reqres.in\/img\/faces\/1-image.jpg\"},{\"id\":2,\"email\":\"janet.weaver@reqres.in\",\"first_name\":\"Janet\",\"last_name\":\"Weaver\",\"avatar\":\"https:\/\/reqres.in\/img\/faces\/2-image.jpg\"},{\"id\":3,\"email\":\"emma.wong@reqres.in\",\"first_name\":\"Emma\",\"last_name\":\"Wong\",\"avatar\":\"https:\/\/reqres.in\/img\/faces\/3-image.jpg\"},{\"id\":4,\"email\":\"eve.holt@reqres.in\",\"first_name\":\"Eve\",\"last_name\":\"Holt\",\"avatar\":\"https:\/\/reqres.in\/img\/faces\/4-image.jpg\"},{\"id\":5,\"email\":\"charles.morris@reqres.in\",\"first_name\":\"Charles\",\"last_name\":\"Morris\",\"avatar\":\"https:\/\/reqres.in\/img\/faces\/5-image.jpg\"},{\"id\":6,\"email\":\"tracey.ramos@reqres.in\",\"first_name\":\"Tracey\",\"last_name\":\"Ramos\",\"avatar\":\"https:\/\/reqres.in\/img\/faces\/6-image.jpg\"}],\"support\":{\"url\":\"https:\/\/reqres.in\/#support-heading\",\"text\":\"To keep ReqRes free, contributions towards server costs are appreciated!\"}}\n\n"},{"result":{"nanos":35100,"millis":0.0351,"status":"passed"},"step":{"line":7,"prefix":"Then","index":3,"text":"status 200"}},{"result":{"nanos":136515601,"millis":136.515601,"status":"passed"},"step":{"line":8,"prefix":"And","index":4,"text":"match response.data[*].id == '#[_ >1]'"}}],"executorName":"main","line":3,"name":"Get a list of users","description":"","durationMillis":1865.4834,"startTime":1699458457631,"failed":false,"refId":"[1:3]","endTime":1699458459524,"exampleIndex":-1},{"sectionIndex":1,"stepResults":[{"result":{"nanos":856700,"millis":0.8567,"status":"passed"},"step":{"line":12,"prefix":"Given","index":0,"text":"url \"https:\/\/reqres.in\/api\/users\""}},{"result":{"nanos":581000,"millis":0.581,"status":"passed"},"step":{"line":13,"prefix":"Given","index":1,"text":"path  \"1\""}},{"result":{"nanos":398783700,"millis":398.7837,"status":"passed"},"step":{"line":14,"prefix":"When","index":2,"text":"method  GET"},"stepLog":"21:17:39.539 request:\n1 > GET https:\/\/reqres.in\/api\/users\/1\n1 > Host: reqres.in\n1 > Connection: Keep-Alive\n1 > User-Agent: Apache-HttpClient\/4.5.13 (Java\/11.0.19)\n1 > Accept-Encoding: gzip,deflate\n\n\n21:17:39.930 response time in milliseconds: 388\n1 < 200\n1 < Date: Wed, 08 Nov 2023 15:47:22 GMT\n1 < Content-Type: application\/json; charset=utf-8\n1 < Transfer-Encoding: chunked\n1 < Connection: keep-alive\n1 < X-Powered-By: Express\n1 < Access-Control-Allow-Origin: *\n1 < Etag: W\/\"118-P3iKcVpIgCj9HqYeOOrGLX8qJVc\"\n1 < Via: 1.1 vegur\n1 < Cache-Control: max-age=14400\n1 < CF-Cache-Status: HIT\n1 < Age: 940\n1 < Report-To: {\"endpoints\":[{\"url\":\"https:\\\/\\\/a.nel.cloudflare.com\\\/report\\\/v3?s=qvVjdzCXa14YG2ZCTx7V9h3TNDIH1IYdLAkYvffAZyTrr43usSVOl603YSIxCEuJ4wKHUR2EwH9VMz1jiBWfu39nTfEk%2Flp%2FRpR2UkKn9STjLiGMQGq1655PYQ%3D%3D\"}],\"group\":\"cf-nel\",\"max_age\":604800}\n1 < NEL: {\"success_fraction\":0,\"report_to\":\"cf-nel\",\"max_age\":604800}\n1 < Vary: Accept-Encoding\n1 < Server: cloudflare\n1 < CF-RAY: 822ef4444997493a-BOM\n{\"data\":{\"id\":1,\"email\":\"george.bluth@reqres.in\",\"first_name\":\"George\",\"last_name\":\"Bluth\",\"avatar\":\"https:\/\/reqres.in\/img\/faces\/1-image.jpg\"},\"support\":{\"url\":\"https:\/\/reqres.in\/#support-heading\",\"text\":\"To keep ReqRes free, contributions towards server costs are appreciated!\"}}\n\n"},{"result":{"nanos":468000,"errorMessage":"status code was: 200, expected: 404, response time in milliseconds: 388, url: https:\/\/reqres.in\/api\/users\/1, response: \n{\"data\":{\"id\":1,\"email\":\"george.bluth@reqres.in\",\"first_name\":\"George\",\"last_name\":\"Bluth\",\"avatar\":\"https:\/\/reqres.in\/img\/faces\/1-image.jpg\"},\"support\":{\"url\":\"https:\/\/reqres.in\/#support-heading\",\"text\":\"To keep ReqRes free, contributions towards server costs are appreciated!\"}}\nsrc\/test\/java\/api1.feature:15","millis":0.468,"status":"failed"},"step":{"line":15,"prefix":"Then","index":3,"text":"status  404"},"stepLog":"21:17:39.938 src\/test\/java\/api1.feature:15\nThen status  404\nstatus code was: 200, expected: 404, response time in milliseconds: 388, url: https:\/\/reqres.in\/api\/users\/1, response: \n{\"data\":{\"id\":1,\"email\":\"george.bluth@reqres.in\",\"first_name\":\"George\",\"last_name\":\"Bluth\",\"avatar\":\"https:\/\/reqres.in\/img\/faces\/1-image.jpg\"},\"support\":{\"url\":\"https:\/\/reqres.in\/#support-heading\",\"text\":\"To keep ReqRes free, contributions towards server costs are appreciated!\"}}\nsrc\/test\/java\/api1.feature:15\n"}],"line":11,"description":"","durationMillis":400.6894,"failed":true,"error":"status code was: 200, expected: 404, response time in milliseconds: 388, url: https:\/\/reqres.in\/api\/users\/1, response: \n{\"data\":{\"id\":1,\"email\":\"george.bluth@reqres.in\",\"first_name\":\"George\",\"last_name\":\"Bluth\",\"avatar\":\"https:\/\/reqres.in\/img\/faces\/1-image.jpg\"},\"support\":{\"url\":\"https:\/\/reqres.in\/#support-heading\",\"text\":\"To keep ReqRes free, contributions towards server costs are appreciated!\"}}\nsrc\/test\/java\/api1.feature:15","executorName":"main","name":"Get user details - user not found","startTime":1699458459534,"refId":"[2:11]","endTime":1699458459939,"exampleIndex":-1},{"sectionIndex":2,"stepResults":[{"result":{"nanos":1487299,"millis":1.487299,"status":"passed"},"step":{"line":19,"prefix":"Given","index":0,"text":"url \"https:\/\/reqres.in\/api\""}},{"result":{"nanos":1093800,"millis":1.0938,"status":"passed"},"step":{"line":20,"prefix":"Given","index":1,"text":"path  \"\/users\""}},{"result":{"nanos":7886300,"millis":7.8863,"status":"passed"},"step":{"line":21,"prefix":"And","index":2,"text":"request {\"name\": \"John Doe\",\"job\":\"Software Engineer\"}"}},{"result":{"nanos":775812300,"millis":775.8123,"status":"passed"},"step":{"line":22,"prefix":"When","index":3,"text":"method  POST"},"stepLog":"21:17:40.189 request:\n1 > POST https:\/\/reqres.in\/api\/users\n1 > Content-Type: application\/json; charset=UTF-8\n1 > Content-Length: 45\n1 > Host: reqres.in\n1 > Connection: Keep-Alive\n1 > User-Agent: Apache-HttpClient\/4.5.13 (Java\/11.0.19)\n1 > Accept-Encoding: gzip,deflate\n{\"name\":\"John Doe\",\"job\":\"Software Engineer\"}\n\n21:17:40.744 response time in milliseconds: 555\n1 < 530\n1 < Date: Wed, 08 Nov 2023 15:47:23 GMT\n1 < Content-Type: text\/plain; charset=UTF-8\n1 < Content-Length: 16\n1 < Connection: keep-alive\n1 < Report-To: {\"endpoints\":[{\"url\":\"https:\\\/\\\/a.nel.cloudflare.com\\\/report\\\/v3?s=VtiaUgp6cUat56q4pKE7dBVgkuolvLlLt%2Bx63FOYdsqvMt5nYMLpMUG%2FZm1mP0MFb4DB3VtQnMHqZX7dr18fO7gXdxIk8VeYIv10dt6qlt%2FXpCSBNpEYU1b%2FvA%3D%3D\"}],\"group\":\"cf-nel\",\"max_age\":604800}\n1 < NEL: {\"success_fraction\":0,\"report_to\":\"cf-nel\",\"max_age\":604800}\n1 < X-Frame-Options: SAMEORIGIN\n1 < Referrer-Policy: same-origin\n1 < Cache-Control: private, max-age=0, no-store, no-cache, must-revalidate, post-check=0, pre-check=0\n1 < Expires: Thu, 01 Jan 1970 00:00:01 GMT\n1 < Server: cloudflare\n1 < CF-RAY: 822ef4495c0d91c6-SIN\nerror code: 1016\n\n"},{"result":{"nanos":103401,"errorMessage":"status code was: 530, expected: 201, response time in milliseconds: 555, url: https:\/\/reqres.in\/api\/users, response: \nerror code: 1016\nsrc\/test\/java\/api1.feature:23","millis":0.103401,"status":"failed"},"step":{"line":23,"prefix":"Then","index":4,"text":"status  201"},"stepLog":"21:17:40.748 src\/test\/java\/api1.feature:23\nThen status  201\nstatus code was: 530, expected: 201, response time in milliseconds: 555, url: https:\/\/reqres.in\/api\/users, response: \nerror code: 1016\nsrc\/test\/java\/api1.feature:23\n"},{"result":{"nanos":0,"millis":0.0,"status":"skipped"},"step":{"line":24,"prefix":"And","index":5,"text":"match response.job == \"Software Engineer\""}}],"line":18,"description":"","durationMillis":786.3831,"failed":true,"error":"status code was: 530, expected: 201, response time in milliseconds: 555, url: https:\/\/reqres.in\/api\/users, response: \nerror code: 1016\nsrc\/test\/java\/api1.feature:23","executorName":"main","name":"Create a new user","startTime":1699458459960,"refId":"[3:18]","endTime":1699458460748,"exampleIndex":-1},{"sectionIndex":3,"stepResults":[{"result":{"nanos":940101,"millis":0.940101,"status":"passed"},"step":{"line":27,"prefix":"Given","index":0,"text":"url \"https:\/\/reqres.in\/api\""}},{"result":{"nanos":2016700,"millis":2.0167,"status":"passed"},"step":{"line":28,"prefix":"Given","index":1,"text":"path  \"\/users\/2\""}},{"result":{"nanos":1058300,"millis":1.0583,"status":"passed"},"step":{"line":29,"prefix":"And","index":2,"text":"request {\"job\": \"zion resident\"}"}},{"result":{"nanos":590258400,"millis":590.2584,"status":"passed"},"step":{"line":30,"prefix":"When","index":3,"text":"method  PUT"},"stepLog":"21:17:40.778 request:\n1 > PUT https:\/\/reqres.in\/api\/users\/2\n1 > Content-Type: application\/json; charset=UTF-8\n1 > Content-Length: 23\n1 > Host: reqres.in\n1 > Connection: Keep-Alive\n1 > User-Agent: Apache-HttpClient\/4.5.13 (Java\/11.0.19)\n1 > Accept-Encoding: gzip,deflate\n{\"job\":\"zion resident\"}\n\n21:17:41.359 response time in milliseconds: 579\n1 < 530\n1 < Date: Wed, 08 Nov 2023 15:47:24 GMT\n1 < Content-Type: text\/plain; charset=UTF-8\n1 < Content-Length: 16\n1 < Connection: keep-alive\n1 < Report-To: {\"endpoints\":[{\"url\":\"https:\\\/\\\/a.nel.cloudflare.com\\\/report\\\/v3?s=tMpBiLfgrMGqeq42YraGse0hEv3FzdbBji6oJ08ZSYT4%2FOs0TS2C%2FLZtBMAKiIHqePJfggE%2BPSG5EGfvzHmzSUvGbcGYkSFXrSb6rbb9qpkjNltX%2FAVtZUx5tg%3D%3D\"}],\"group\":\"cf-nel\",\"max_age\":604800}\n1 < NEL: {\"success_fraction\":0,\"report_to\":\"cf-nel\",\"max_age\":604800}\n1 < Vary: Accept-Encoding\n1 < X-Frame-Options: SAMEORIGIN\n1 < Referrer-Policy: same-origin\n1 < Cache-Control: private, max-age=0, no-store, no-cache, must-revalidate, post-check=0, pre-check=0\n1 < Expires: Thu, 01 Jan 1970 00:00:01 GMT\n1 < Server: cloudflare\n1 < CF-RAY: 822ef44d282a8956-SIN\nerror code: 1016\n\n"},{"result":{"nanos":103501,"errorMessage":"status code was: 530, expected: 200, response time in milliseconds: 579, url: https:\/\/reqres.in\/api\/users\/2, response: \nerror code: 1016\nsrc\/test\/java\/api1.feature:31","millis":0.103501,"status":"failed"},"step":{"line":31,"prefix":"Then","index":4,"text":"status  200"},"stepLog":"21:17:41.362 src\/test\/java\/api1.feature:31\nThen status  200\nstatus code was: 530, expected: 200, response time in milliseconds: 579, url: https:\/\/reqres.in\/api\/users\/2, response: \nerror code: 1016\nsrc\/test\/java\/api1.feature:31\n"},{"result":{"nanos":0,"millis":0.0,"status":"skipped"},"step":{"line":32,"prefix":"And","index":5,"text":"match response.job == \"zion resident\""}}],"line":26,"description":"","durationMillis":594.377002,"failed":true,"error":"status code was: 530, expected: 200, response time in milliseconds: 579, url: https:\/\/reqres.in\/api\/users\/2, response: \nerror code: 1016\nsrc\/test\/java\/api1.feature:31","executorName":"main","name":"Update user","startTime":1699458460766,"refId":"[4:26]","endTime":1699458461362,"exampleIndex":-1},{"sectionIndex":4,"stepResults":[{"result":{"nanos":908900,"millis":0.9089,"status":"passed"},"step":{"line":35,"prefix":"Given","index":0,"text":"url \"https:\/\/reqres.in\/api\""}},{"result":{"nanos":464799,"millis":0.464799,"status":"passed"},"step":{"line":36,"prefix":"Given","index":1,"text":"path  \"\/users\/2\""}},{"result":{"nanos":428052600,"millis":428.0526,"status":"passed"},"step":{"line":37,"prefix":"When","index":2,"text":"method  DELETE"},"stepLog":"21:17:41.381 request:\n1 > DELETE https:\/\/reqres.in\/api\/users\/2\n1 > Host: reqres.in\n1 > Connection: Keep-Alive\n1 > User-Agent: Apache-HttpClient\/4.5.13 (Java\/11.0.19)\n1 > Accept-Encoding: gzip,deflate\n\n\n21:17:41.801 response time in milliseconds: 419\n1 < 530\n1 < Date: Wed, 08 Nov 2023 15:47:24 GMT\n1 < Content-Type: text\/plain; charset=UTF-8\n1 < Content-Length: 16\n1 < Connection: keep-alive\n1 < Report-To: {\"endpoints\":[{\"url\":\"https:\\\/\\\/a.nel.cloudflare.com\\\/report\\\/v3?s=k0Rv99qgN1Hqgb0q1J%2Bq%2FTwVrx%2F%2BENzWdGhvXEWN7RrB2TuqvoQlC4kP4KSW7XhNbuC1argrnFGdIZQBVwynXW3WfXs%2B9OnMuQT1iFtEGf0BkINnZZ8xMG4lVQ%3D%3D\"}],\"group\":\"cf-nel\",\"max_age\":604800}\n1 < NEL: {\"success_fraction\":0,\"report_to\":\"cf-nel\",\"max_age\":604800}\n1 < X-Frame-Options: SAMEORIGIN\n1 < Referrer-Policy: same-origin\n1 < Cache-Control: private, max-age=0, no-store, no-cache, must-revalidate, post-check=0, pre-check=0\n1 < Expires: Thu, 01 Jan 1970 00:00:01 GMT\n1 < Server: cloudflare\n1 < CF-RAY: 822ef4504a746ebc-BOM\nerror code: 1016\n\n"},{"result":{"nanos":118400,"errorMessage":"status code was: 530, expected: 204, response time in milliseconds: 419, url: https:\/\/reqres.in\/api\/users\/2, response: \nerror code: 1016\nsrc\/test\/java\/api1.feature:38","millis":0.1184,"status":"failed"},"step":{"line":38,"prefix":"Then","index":3,"text":"status  204"},"stepLog":"21:17:41.804 src\/test\/java\/api1.feature:38\nThen status  204\nstatus code was: 530, expected: 204, response time in milliseconds: 419, url: https:\/\/reqres.in\/api\/users\/2, response: \nerror code: 1016\nsrc\/test\/java\/api1.feature:38\n"}],"line":34,"description":"","durationMillis":429.544699,"failed":true,"error":"status code was: 530, expected: 204, response time in milliseconds: 419, url: https:\/\/reqres.in\/api\/users\/2, response: \nerror code: 1016\nsrc\/test\/java\/api1.feature:38","executorName":"main","name":"Delete user","startTime":1699458461374,"refId":"[5:34]","endTime":1699458461804,"exampleIndex":-1}],"callDepth":0,"name":"GET API feature","description":"","resultDate":"2023-11-08 09:17:41 PM","durationMillis":4076.477601,"passedCount":1}