{"failedCount":1,"prefixedPath":"src\/test\/java\/api1.feature","packageQualifiedName":"src.test.java.api1","loopIndex":-1,"relativePath":"src\/test\/java\/api1.feature","scenarioResults":[{"sectionIndex":0,"stepResults":[{"result":{"nanos":68074400,"millis":68.0744,"status":"passed"},"step":{"line":4,"prefix":"Given","index":0,"text":"url \"https:\/\/reqres.in\/api\""}},{"result":{"nanos":402400,"millis":0.4024,"status":"passed"},"step":{"line":5,"prefix":"Given","index":1,"text":"path '\/users'"}},{"result":{"nanos":1501758400,"millis":1501.7584,"status":"passed"},"step":{"line":6,"prefix":"When","index":2,"text":"method GET"},"stepLog":"14:11:53.285 request:\n1 > GET https:\/\/reqres.in\/api\/users\n1 > Host: reqres.in\n1 > Connection: Keep-Alive\n1 > User-Agent: Apache-HttpClient\/4.5.13 (Java\/11.0.19)\n1 > Accept-Encoding: gzip,deflate\n\n\n14:11:54.435 response time in milliseconds: 1147\n1 < 200\n1 < Date: Mon, 06 Nov 2023 08:41:39 GMT\n1 < Content-Type: application\/json; charset=utf-8\n1 < Transfer-Encoding: chunked\n1 < Connection: keep-alive\n1 < X-Powered-By: Express\n1 < Access-Control-Allow-Origin: *\n1 < Etag: W\/\"3e4-2RLXvr5wTg9YQ6aH95CkYoFNuO8\"\n1 < Via: 1.1 vegur\n1 < Cache-Control: max-age=14400\n1 < CF-Cache-Status: HIT\n1 < Age: 6367\n1 < Report-To: {\"endpoints\":[{\"url\":\"https:\\\/\\\/a.nel.cloudflare.com\\\/report\\\/v3?s=jKpB%2F5b4SbIiiYMw%2BdGfCmXXld0W2u4DYLedO%2FYYB5MyEZGE%2F8d9FTRdyTwMHotWU6672CVIwAARXP2svX0p8W3EZnTI8BI6K%2BEJubvDaDGh3z1%2F2FBaOu5uqw%3D%3D\"}],\"group\":\"cf-nel\",\"max_age\":604800}\n1 < NEL: {\"success_fraction\":0,\"report_to\":\"cf-nel\",\"max_age\":604800}\n1 < Vary: Accept-Encoding\n1 < Server: cloudflare\n1 < CF-RAY: 821c09e48ac047c8-BOM\n{\"page\":1,\"per_page\":6,\"total\":12,\"total_pages\":2,\"data\":[{\"id\":1,\"email\":\"george.bluth@reqres.in\",\"first_name\":\"George\",\"last_name\":\"Bluth\",\"avatar\":\"https:\/\/reqres.in\/img\/faces\/1-image.jpg\"},{\"id\":2,\"email\":\"janet.weaver@reqres.in\",\"first_name\":\"Janet\",\"last_name\":\"Weaver\",\"avatar\":\"https:\/\/reqres.in\/img\/faces\/2-image.jpg\"},{\"id\":3,\"email\":\"emma.wong@reqres.in\",\"first_name\":\"Emma\",\"last_name\":\"Wong\",\"avatar\":\"https:\/\/reqres.in\/img\/faces\/3-image.jpg\"},{\"id\":4,\"email\":\"eve.holt@reqres.in\",\"first_name\":\"Eve\",\"last_name\":\"Holt\",\"avatar\":\"https:\/\/reqres.in\/img\/faces\/4-image.jpg\"},{\"id\":5,\"email\":\"charles.morris@reqres.in\",\"first_name\":\"Charles\",\"last_name\":\"Morris\",\"avatar\":\"https:\/\/reqres.in\/img\/faces\/5-image.jpg\"},{\"id\":6,\"email\":\"tracey.ramos@reqres.in\",\"first_name\":\"Tracey\",\"last_name\":\"Ramos\",\"avatar\":\"https:\/\/reqres.in\/img\/faces\/6-image.jpg\"}],\"support\":{\"url\":\"https:\/\/reqres.in\/#support-heading\",\"text\":\"To keep ReqRes free, contributions towards server costs are appreciated!\"}}\n\n"},{"result":{"nanos":84400,"millis":0.0844,"status":"passed"},"step":{"line":7,"prefix":"Then","index":3,"text":"status 200"}},{"result":{"nanos":57645900,"millis":57.6459,"status":"passed"},"step":{"line":8,"prefix":"And","index":4,"text":"match response.data[*].id == '#[_ >1]'"}}],"executorName":"main","line":3,"name":"Get a  list of users","description":"","durationMillis":1627.9655,"startTime":1699260112888,"failed":false,"refId":"[1:3]","endTime":1699260114528,"exampleIndex":-1},{"sectionIndex":1,"stepResults":[{"result":{"nanos":429900,"millis":0.4299,"status":"passed"},"step":{"line":12,"prefix":"Given","index":0,"text":"url \"https:\/\/reqres.in\/api\/users\""}},{"result":{"nanos":270500,"millis":0.2705,"status":"passed"},"step":{"line":13,"prefix":"Given","index":1,"text":"path  \"1\""}},{"result":{"nanos":701977100,"millis":701.9771,"status":"passed"},"step":{"line":14,"prefix":"When","index":2,"text":"method  GET"},"stepLog":"14:11:54.534 request:\n1 > GET https:\/\/reqres.in\/api\/users\/1\n1 > Host: reqres.in\n1 > Connection: Keep-Alive\n1 > User-Agent: Apache-HttpClient\/4.5.13 (Java\/11.0.19)\n1 > Accept-Encoding: gzip,deflate\n\n\n14:11:55.234 response time in milliseconds: 700\n1 < 200\n1 < Date: Mon, 06 Nov 2023 08:41:39 GMT\n1 < Content-Type: application\/json; charset=utf-8\n1 < Transfer-Encoding: chunked\n1 < Connection: keep-alive\n1 < X-Powered-By: Express\n1 < Access-Control-Allow-Origin: *\n1 < Etag: W\/\"118-P3iKcVpIgCj9HqYeOOrGLX8qJVc\"\n1 < Via: 1.1 vegur\n1 < Cache-Control: max-age=14400\n1 < CF-Cache-Status: HIT\n1 < Age: 3168\n1 < Report-To: {\"endpoints\":[{\"url\":\"https:\\\/\\\/a.nel.cloudflare.com\\\/report\\\/v3?s=VAc089etWhyJh66D8VmM6R7WC%2B7ongtUindcUQDk4cl5cup93xnMWXcfvArx4CkZcio17%2BztzfXETqCrXKk3lqmQNunZs1Y3%2BRLxL7ogPfRoGRCK2elbpokNgQ%3D%3D\"}],\"group\":\"cf-nel\",\"max_age\":604800}\n1 < NEL: {\"success_fraction\":0,\"report_to\":\"cf-nel\",\"max_age\":604800}\n1 < Vary: Accept-Encoding\n1 < Server: cloudflare\n1 < CF-RAY: 821c09e89cf4448b-SIN\n{\"data\":{\"id\":1,\"email\":\"george.bluth@reqres.in\",\"first_name\":\"George\",\"last_name\":\"Bluth\",\"avatar\":\"https:\/\/reqres.in\/img\/faces\/1-image.jpg\"},\"support\":{\"url\":\"https:\/\/reqres.in\/#support-heading\",\"text\":\"To keep ReqRes free, contributions towards server costs are appreciated!\"}}\n\n"},{"result":{"nanos":109700,"errorMessage":"status code was: 200, expected: 404, response time in milliseconds: 700, url: https:\/\/reqres.in\/api\/users\/1, response: \n{\"data\":{\"id\":1,\"email\":\"george.bluth@reqres.in\",\"first_name\":\"George\",\"last_name\":\"Bluth\",\"avatar\":\"https:\/\/reqres.in\/img\/faces\/1-image.jpg\"},\"support\":{\"url\":\"https:\/\/reqres.in\/#support-heading\",\"text\":\"To keep ReqRes free, contributions towards server costs are appreciated!\"}}\nsrc\/test\/java\/api1.feature:15","millis":0.1097,"status":"failed"},"step":{"line":15,"prefix":"Then","index":3,"text":"status  404"},"stepLog":"14:11:55.235 src\/test\/java\/api1.feature:15\nThen status  404\nstatus code was: 200, expected: 404, response time in milliseconds: 700, url: https:\/\/reqres.in\/api\/users\/1, response: \n{\"data\":{\"id\":1,\"email\":\"george.bluth@reqres.in\",\"first_name\":\"George\",\"last_name\":\"Bluth\",\"avatar\":\"https:\/\/reqres.in\/img\/faces\/1-image.jpg\"},\"support\":{\"url\":\"https:\/\/reqres.in\/#support-heading\",\"text\":\"To keep ReqRes free, contributions towards server costs are appreciated!\"}}\nsrc\/test\/java\/api1.feature:15\n"}],"line":11,"description":"","durationMillis":702.7872,"failed":true,"error":"status code was: 200, expected: 404, response time in milliseconds: 700, url: https:\/\/reqres.in\/api\/users\/1, response: \n{\"data\":{\"id\":1,\"email\":\"george.bluth@reqres.in\",\"first_name\":\"George\",\"last_name\":\"Bluth\",\"avatar\":\"https:\/\/reqres.in\/img\/faces\/1-image.jpg\"},\"support\":{\"url\":\"https:\/\/reqres.in\/#support-heading\",\"text\":\"To keep ReqRes free, contributions towards server costs are appreciated!\"}}\nsrc\/test\/java\/api1.feature:15","executorName":"main","name":"get user details - user not found","startTime":1699260114532,"refId":"[2:11]","endTime":1699260115235,"exampleIndex":-1},{"sectionIndex":2,"stepResults":[{"result":{"nanos":539700,"millis":0.5397,"status":"passed"},"step":{"line":18,"prefix":"Given","index":0,"text":"url \"https:\/\/reqres.in\/api\""}},{"result":{"nanos":464700,"millis":0.4647,"status":"passed"},"step":{"line":19,"prefix":"Given","index":1,"text":"path  \"\/user\/2\""}},{"result":{"nanos":1035118000,"millis":1035.118,"status":"passed"},"step":{"line":20,"prefix":"When","index":2,"text":"method  GET"},"stepLog":"14:11:55.241 request:\n1 > GET https:\/\/reqres.in\/api\/user\/2\n1 > Host: reqres.in\n1 > Connection: Keep-Alive\n1 > User-Agent: Apache-HttpClient\/4.5.13 (Java\/11.0.19)\n1 > Accept-Encoding: gzip,deflate\n\n\n14:11:56.275 response time in milliseconds: 1033\n1 < 200\n1 < Date: Mon, 06 Nov 2023 08:41:40 GMT\n1 < Content-Type: application\/json; charset=utf-8\n1 < Transfer-Encoding: chunked\n1 < Connection: keep-alive\n1 < X-Powered-By: Express\n1 < Access-Control-Allow-Origin: *\n1 < Etag: W\/\"e8-ov4wWh4\/OY1IMQMqWgskYtOFnVs\"\n1 < Via: 1.1 vegur\n1 < Cache-Control: max-age=14400\n1 < CF-Cache-Status: REVALIDATED\n1 < Report-To: {\"endpoints\":[{\"url\":\"https:\\\/\\\/a.nel.cloudflare.com\\\/report\\\/v3?s=WmHlGX0JjwJZTjvi6hMzw%2BpqJsVWbVj%2B1d7Sgvu2vOnTYWwt7KAPL2NjojR3Zzu3CosQRHHEG8FCWIf%2B0Ko%2FnBa1cBbkPG0Obc5TCHmolzLhjDHkoS%2BDe2L3XQ%3D%3D\"}],\"group\":\"cf-nel\",\"max_age\":604800}\n1 < NEL: {\"success_fraction\":0,\"report_to\":\"cf-nel\",\"max_age\":604800}\n1 < Vary: Accept-Encoding\n1 < Server: cloudflare\n1 < CF-RAY: 821c09ecfdf44b62-SIN\n{\"data\":{\"id\":2,\"name\":\"fuchsia rose\",\"year\":2001,\"color\":\"#C74375\",\"pantone_value\":\"17-2031\"},\"support\":{\"url\":\"https:\/\/reqres.in\/#support-heading\",\"text\":\"To keep ReqRes free, contributions towards server costs are appreciated!\"}}\n\n"},{"result":{"nanos":14000,"millis":0.014,"status":"passed"},"step":{"line":21,"prefix":"Then","index":3,"text":"status  200"}},{"result":{"nanos":7372400,"millis":7.3724,"status":"passed"},"step":{"line":22,"prefix":"And","index":4,"text":"match response.data.id == 2"}}],"executorName":"main","line":17,"name":"get a single user","description":"","durationMillis":1043.5088,"startTime":1699260115239,"failed":false,"refId":"[3:17]","endTime":1699260116283,"exampleIndex":-1},{"sectionIndex":3,"stepResults":[{"result":{"nanos":280100,"millis":0.2801,"status":"passed"},"step":{"line":25,"prefix":"Given","index":0,"text":"url \"https:\/\/reqres.in\/api\""}},{"result":{"nanos":406700,"millis":0.4067,"status":"passed"},"step":{"line":26,"prefix":"Given","index":1,"text":"path  \"\/users\""}},{"result":{"nanos":3703500,"millis":3.7035,"status":"passed"},"step":{"line":27,"prefix":"And","index":2,"text":"request {\"name\": \"John Doe\",\"job\":\"Software Engineer\"}"}},{"result":{"nanos":1336950700,"millis":1336.9507,"status":"passed"},"step":{"line":28,"prefix":"When","index":3,"text":"method  POST"},"stepLog":"14:11:56.382 request:\n1 > POST https:\/\/reqres.in\/api\/users\n1 > Content-Type: application\/json; charset=UTF-8\n1 > Content-Length: 45\n1 > Host: reqres.in\n1 > Connection: Keep-Alive\n1 > User-Agent: Apache-HttpClient\/4.5.13 (Java\/11.0.19)\n1 > Accept-Encoding: gzip,deflate\n{\"name\":\"John Doe\",\"job\":\"Software Engineer\"}\n\n14:11:57.627 response time in milliseconds: 1245\n1 < 201\n1 < Date: Mon, 06 Nov 2023 08:41:42 GMT\n1 < Content-Type: application\/json; charset=utf-8\n1 < Content-Length: 94\n1 < Connection: keep-alive\n1 < Report-To: {\"group\":\"heroku-nel\",\"max_age\":3600,\"endpoints\":[{\"url\":\"https:\/\/nel.heroku.com\/reports?ts=1699260102&sid=c4c9725f-1ab0-44d8-820f-430df2718e11&s=PZW32BAuunfytALJpKOEKJ7et1uY0gJBZqNmUoBKTkQ%3D\"}]}\n1 < Reporting-Endpoints: heroku-nel=https:\/\/nel.heroku.com\/reports?ts=1699260102&sid=c4c9725f-1ab0-44d8-820f-430df2718e11&s=PZW32BAuunfytALJpKOEKJ7et1uY0gJBZqNmUoBKTkQ%3D\n1 < Nel: {\"report_to\":\"heroku-nel\",\"max_age\":3600,\"success_fraction\":0.005,\"failure_fraction\":0.05,\"response_headers\":[\"Via\"]}\n1 < X-Powered-By: Express\n1 < Access-Control-Allow-Origin: *\n1 < Etag: W\/\"5e-eWL6Sm\/8K5N0omLroppqGTgvlH0\"\n1 < Via: 1.1 vegur\n1 < CF-Cache-Status: DYNAMIC\n1 < Server: cloudflare\n1 < CF-RAY: 821c09f53bfa5cdf-SIN\n{\"name\":\"John Doe\",\"job\":\"Software Engineer\",\"id\":\"48\",\"createdAt\":\"2023-11-06T08:41:42.235Z\"}\n\n"},{"result":{"nanos":12900,"millis":0.0129,"status":"passed"},"step":{"line":29,"prefix":"Then","index":4,"text":"status  201"}},{"result":{"nanos":1607600,"millis":1.6076,"status":"passed"},"step":{"line":30,"prefix":"And","index":5,"text":"match response.job == \"Software Engineer\""}}],"executorName":"main","line":24,"name":"create a new user","description":"","durationMillis":1342.9615,"startTime":1699260116287,"failed":false,"refId":"[4:24]","endTime":1699260117630,"exampleIndex":-1}],"callDepth":0,"name":"GET API feature","description":"","resultDate":"2023-11-06 02:11:57 PM","durationMillis":4717.223,"passedCount":3}