{"failedCount":0,"prefixedPath":"classpath:api1.feature","packageQualifiedName":"api1","loopIndex":-1,"relativePath":"api1.feature","scenarioResults":[{"sectionIndex":0,"stepResults":[{"result":{"nanos":95764900,"millis":95.7649,"status":"passed"},"step":{"line":4,"prefix":"Given","index":0,"text":"url \"https:\/\/reqres.in\/api\""}},{"result":{"nanos":770600,"millis":0.7706,"status":"passed"},"step":{"line":5,"prefix":"Given","index":1,"text":"path '\/users'"}},{"result":{"nanos":2626113300,"millis":2626.1133,"status":"passed"},"step":{"line":6,"prefix":"When","index":2,"text":"method GET"},"stepLog":"12:17:49.696 request:\n1 > GET https:\/\/reqres.in\/api\/users\n1 > Host: reqres.in\n1 > Connection: Keep-Alive\n1 > User-Agent: Apache-HttpClient\/4.5.13 (Java\/11.0.19)\n1 > Accept-Encoding: gzip,deflate\n\n\n12:17:51.609 response time in milliseconds: 1903\n1 < 200\n1 < Date: Fri, 10 Nov 2023 06:47:33 GMT\n1 < Content-Type: application\/json; charset=utf-8\n1 < Transfer-Encoding: chunked\n1 < Connection: keep-alive\n1 < Report-To: {\"group\":\"heroku-nel\",\"max_age\":3600,\"endpoints\":[{\"url\":\"https:\/\/nel.heroku.com\/reports?ts=1699347089&sid=c4c9725f-1ab0-44d8-820f-430df2718e11&s=sDhCgUI2crBU%2FTbchPUyBLP030Ym3zWqFAtBRxcxxSQ%3D\"}]}\n1 < Reporting-Endpoints: heroku-nel=https:\/\/nel.heroku.com\/reports?ts=1699347089&sid=c4c9725f-1ab0-44d8-820f-430df2718e11&s=sDhCgUI2crBU%2FTbchPUyBLP030Ym3zWqFAtBRxcxxSQ%3D\n1 < Nel: {\"report_to\":\"heroku-nel\",\"max_age\":3600,\"success_fraction\":0.005,\"failure_fraction\":0.05,\"response_headers\":[\"Via\"]}\n1 < X-Powered-By: Express\n1 < Access-Control-Allow-Origin: *\n1 < Etag: W\/\"3e4-2RLXvr5wTg9YQ6aH95CkYoFNuO8\"\n1 < Via: 1.1 vegur\n1 < Cache-Control: max-age=14400\n1 < CF-Cache-Status: HIT\n1 < Age: 3572\n1 < Vary: Accept-Encoding\n1 < Server: cloudflare\n1 < CF-RAY: 823c58434a9784b3-BOM\n{\"page\":1,\"per_page\":6,\"total\":12,\"total_pages\":2,\"data\":[{\"id\":1,\"email\":\"george.bluth@reqres.in\",\"first_name\":\"George\",\"last_name\":\"Bluth\",\"avatar\":\"https:\/\/reqres.in\/img\/faces\/1-image.jpg\"},{\"id\":2,\"email\":\"janet.weaver@reqres.in\",\"first_name\":\"Janet\",\"last_name\":\"Weaver\",\"avatar\":\"https:\/\/reqres.in\/img\/faces\/2-image.jpg\"},{\"id\":3,\"email\":\"emma.wong@reqres.in\",\"first_name\":\"Emma\",\"last_name\":\"Wong\",\"avatar\":\"https:\/\/reqres.in\/img\/faces\/3-image.jpg\"},{\"id\":4,\"email\":\"eve.holt@reqres.in\",\"first_name\":\"Eve\",\"last_name\":\"Holt\",\"avatar\":\"https:\/\/reqres.in\/img\/faces\/4-image.jpg\"},{\"id\":5,\"email\":\"charles.morris@reqres.in\",\"first_name\":\"Charles\",\"last_name\":\"Morris\",\"avatar\":\"https:\/\/reqres.in\/img\/faces\/5-image.jpg\"},{\"id\":6,\"email\":\"tracey.ramos@reqres.in\",\"first_name\":\"Tracey\",\"last_name\":\"Ramos\",\"avatar\":\"https:\/\/reqres.in\/img\/faces\/6-image.jpg\"}],\"support\":{\"url\":\"https:\/\/reqres.in\/#support-heading\",\"text\":\"To keep ReqRes free, contributions towards server costs are appreciated!\"}}\n\n"},{"result":{"nanos":26700,"millis":0.0267,"status":"passed"},"step":{"line":7,"prefix":"Then","index":3,"text":"status 200"}},{"result":{"nanos":85994600,"millis":85.9946,"status":"passed"},"step":{"line":8,"prefix":"And","index":4,"text":"match response.data[*].id == '#[_ >1]'"}}],"executorName":"main","line":3,"name":"Get a list of users","description":"","durationMillis":2808.6701,"startTime":1699598868959,"failed":false,"refId":"[1:3]","endTime":1699598871788,"exampleIndex":-1},{"sectionIndex":1,"stepResults":[{"result":{"nanos":819100,"millis":0.8191,"status":"passed"},"step":{"line":12,"prefix":"Given","index":0,"text":"url \"https:\/\/reqres.in\/api\""}},{"result":{"nanos":463800,"millis":0.4638,"status":"passed"},"step":{"line":13,"prefix":"Given","index":1,"text":"path  \"\/user\/2\""}},{"result":{"nanos":2022672400,"millis":2022.6724,"status":"passed"},"step":{"line":14,"prefix":"When","index":2,"text":"method  GET"},"stepLog":"12:17:51.802 request:\n1 > GET https:\/\/reqres.in\/api\/user\/2\n1 > Host: reqres.in\n1 > Connection: Keep-Alive\n1 > User-Agent: Apache-HttpClient\/4.5.13 (Java\/11.0.19)\n1 > Accept-Encoding: gzip,deflate\n\n\n12:17:53.818 response time in milliseconds: 2015\n1 < 200\n1 < Date: Fri, 10 Nov 2023 06:47:35 GMT\n1 < Content-Type: application\/json; charset=utf-8\n1 < Transfer-Encoding: chunked\n1 < Connection: keep-alive\n1 < Report-To: {\"group\":\"heroku-nel\",\"max_age\":3600,\"endpoints\":[{\"url\":\"https:\/\/nel.heroku.com\/reports?ts=1699521351&sid=c4c9725f-1ab0-44d8-820f-430df2718e11&s=zKwa%2BqPAEzaPVpm85sg67KPPgFwCqoyapPb0HTseCro%3D\"}]}\n1 < Reporting-Endpoints: heroku-nel=https:\/\/nel.heroku.com\/reports?ts=1699521351&sid=c4c9725f-1ab0-44d8-820f-430df2718e11&s=zKwa%2BqPAEzaPVpm85sg67KPPgFwCqoyapPb0HTseCro%3D\n1 < Nel: {\"report_to\":\"heroku-nel\",\"max_age\":3600,\"success_fraction\":0.005,\"failure_fraction\":0.05,\"response_headers\":[\"Via\"]}\n1 < X-Powered-By: Express\n1 < Access-Control-Allow-Origin: *\n1 < Etag: W\/\"e8-ov4wWh4\/OY1IMQMqWgskYtOFnVs\"\n1 < Via: 1.1 vegur\n1 < Cache-Control: max-age=14400\n1 < CF-Cache-Status: HIT\n1 < Age: 974\n1 < Vary: Accept-Encoding\n1 < Server: cloudflare\n1 < CF-RAY: 823c584eeb9b4b6e-SIN\n{\"data\":{\"id\":2,\"name\":\"fuchsia rose\",\"year\":2001,\"color\":\"#C74375\",\"pantone_value\":\"17-2031\"},\"support\":{\"url\":\"https:\/\/reqres.in\/#support-heading\",\"text\":\"To keep ReqRes free, contributions towards server costs are appreciated!\"}}\n\n"},{"result":{"nanos":28100,"millis":0.0281,"status":"passed"},"step":{"line":15,"prefix":"Then","index":3,"text":"status  200"}},{"result":{"nanos":31675800,"millis":31.6758,"status":"passed"},"step":{"line":16,"prefix":"And","index":4,"text":"match response.data.id == 2"}}],"executorName":"main","line":11,"name":"Get a single user","description":"","durationMillis":2055.6592,"startTime":1699598871798,"failed":false,"refId":"[2:11]","endTime":1699598873855,"exampleIndex":-1},{"sectionIndex":2,"stepResults":[{"result":{"nanos":1873800,"millis":1.8738,"status":"passed"},"step":{"line":20,"prefix":"Given","index":0,"text":"url \"https:\/\/reqres.in\/api\/users\""}},{"result":{"nanos":6771000,"millis":6.771,"status":"passed"},"step":{"line":21,"prefix":"Given","index":1,"text":"path  \"\/user\/1\""}},{"result":{"nanos":1552399300,"millis":1552.3993,"status":"passed"},"step":{"line":22,"prefix":"When","index":2,"text":"method  GET"},"stepLog":"12:17:53.893 request:\n1 > GET https:\/\/reqres.in\/api\/users\/user\/1\n1 > Host: reqres.in\n1 > Connection: Keep-Alive\n1 > User-Agent: Apache-HttpClient\/4.5.13 (Java\/11.0.19)\n1 > Accept-Encoding: gzip,deflate\n\n\n12:17:55.437 response time in milliseconds: 1543\n1 < 404\n1 < Date: Fri, 10 Nov 2023 06:47:37 GMT\n1 < Content-Type: application\/json; charset=utf-8\n1 < Content-Length: 2\n1 < Connection: keep-alive\n1 < X-Powered-By: Express\n1 < Access-Control-Allow-Origin: *\n1 < Etag: W\/\"2-vyGp6PvFo4RvsFtPoIWeCReyIC8\"\n1 < Via: 1.1 vegur\n1 < Cache-Control: max-age=14400\n1 < CF-Cache-Status: MISS\n1 < Report-To: {\"endpoints\":[{\"url\":\"https:\\\/\\\/a.nel.cloudflare.com\\\/report\\\/v3?s=Ke7mm9Y5ICaKDAf85SIHrWw76SQf2w0IjifU4hIe5HwTH25o4YaIGwqz%2FdB8OBej6rsxU3giBaaI5ltLzZMDYUMTdxEY2G7N3DJ6DutbCicWJPwQuuyhY95wVw%3D%3D\"}],\"group\":\"cf-nel\",\"max_age\":604800}\n1 < NEL: {\"success_fraction\":0,\"report_to\":\"cf-nel\",\"max_age\":604800}\n1 < Vary: Accept-Encoding\n1 < Server: cloudflare\n1 < CF-RAY: 823c58574a1f84b6-BOM\n{}\n\n"},{"result":{"nanos":27800,"millis":0.0278,"status":"passed"},"step":{"line":23,"prefix":"Then","index":3,"text":"status  404"}}],"executorName":"main","line":19,"name":"Get a single user - user not found","description":"","durationMillis":1561.0719,"startTime":1699598873878,"failed":false,"refId":"[3:19]","endTime":1699598875441,"exampleIndex":-1},{"sectionIndex":3,"stepResults":[{"result":{"nanos":1297300,"millis":1.2973,"status":"passed"},"step":{"line":27,"prefix":"Given","index":0,"text":"url \"https:\/\/reqres.in\/api\""}},{"result":{"nanos":1922300,"millis":1.9223,"status":"passed"},"step":{"line":28,"prefix":"Given","index":1,"text":"path  \"\/users\""}},{"result":{"nanos":8867400,"millis":8.8674,"status":"passed"},"step":{"line":29,"prefix":"And","index":2,"text":"request {\"name\": \"John Doe\",\"job\":\"Software Engineer\"}"}},{"result":{"nanos":2217419900,"millis":2217.4199,"status":"passed"},"step":{"line":30,"prefix":"When","index":3,"text":"method  POST"},"stepLog":"12:17:55.705 request:\n1 > POST https:\/\/reqres.in\/api\/users\n1 > Content-Type: application\/json; charset=UTF-8\n1 > Content-Length: 45\n1 > Host: reqres.in\n1 > Connection: Keep-Alive\n1 > User-Agent: Apache-HttpClient\/4.5.13 (Java\/11.0.19)\n1 > Accept-Encoding: gzip,deflate\n{\"name\":\"John Doe\",\"job\":\"Software Engineer\"}\n\n12:17:57.688 response time in milliseconds: 1982\n1 < 201\n1 < Date: Fri, 10 Nov 2023 06:47:39 GMT\n1 < Content-Type: application\/json; charset=utf-8\n1 < Content-Length: 95\n1 < Connection: keep-alive\n1 < Report-To: {\"group\":\"heroku-nel\",\"max_age\":3600,\"endpoints\":[{\"url\":\"https:\/\/nel.heroku.com\/reports?ts=1699598859&sid=c4c9725f-1ab0-44d8-820f-430df2718e11&s=qGIhh5FJH0v7Z%2FyU%2Fu2k46n%2BRgLmwubgUjL9R4m%2B0Ow%3D\"}]}\n1 < Reporting-Endpoints: heroku-nel=https:\/\/nel.heroku.com\/reports?ts=1699598859&sid=c4c9725f-1ab0-44d8-820f-430df2718e11&s=qGIhh5FJH0v7Z%2FyU%2Fu2k46n%2BRgLmwubgUjL9R4m%2B0Ow%3D\n1 < Nel: {\"report_to\":\"heroku-nel\",\"max_age\":3600,\"success_fraction\":0.005,\"failure_fraction\":0.05,\"response_headers\":[\"Via\"]}\n1 < X-Powered-By: Express\n1 < Access-Control-Allow-Origin: *\n1 < Etag: W\/\"5f-sD7kEEkfZtkiYc1XYPqOnK2mBaM\"\n1 < Via: 1.1 vegur\n1 < CF-Cache-Status: DYNAMIC\n1 < Server: cloudflare\n1 < CF-RAY: 823c5865f82985a7-BOM\n{\"name\":\"John Doe\",\"job\":\"Software Engineer\",\"id\":\"741\",\"createdAt\":\"2023-11-10T06:47:39.508Z\"}\n\n"},{"result":{"nanos":73100,"millis":0.0731,"status":"passed"},"step":{"line":31,"prefix":"Then","index":4,"text":"status  201"}},{"result":{"nanos":5080800,"millis":5.0808,"status":"passed"},"step":{"line":32,"prefix":"And","index":5,"text":"match response.job == \"Software Engineer\""}}],"executorName":"main","line":26,"name":"Create a new user","description":"","durationMillis":2234.6608,"startTime":1699598875463,"failed":false,"refId":"[4:26]","endTime":1699598877701,"exampleIndex":-1},{"sectionIndex":4,"stepResults":[{"result":{"nanos":692400,"millis":0.6924,"status":"passed"},"step":{"line":35,"prefix":"Given","index":0,"text":"url \"https:\/\/reqres.in\/api\""}},{"result":{"nanos":1449600,"millis":1.4496,"status":"passed"},"step":{"line":36,"prefix":"Given","index":1,"text":"path  \"\/users\/2\""}},{"result":{"nanos":859700,"millis":0.8597,"status":"passed"},"step":{"line":37,"prefix":"And","index":2,"text":"request {\"job\": \"zion resident\"}"}},{"result":{"nanos":2227302400,"millis":2227.3024,"status":"passed"},"step":{"line":38,"prefix":"When","index":3,"text":"method  PUT"},"stepLog":"12:17:57.729 request:\n1 > PUT https:\/\/reqres.in\/api\/users\/2\n1 > Content-Type: application\/json; charset=UTF-8\n1 > Content-Length: 23\n1 > Host: reqres.in\n1 > Connection: Keep-Alive\n1 > User-Agent: Apache-HttpClient\/4.5.13 (Java\/11.0.19)\n1 > Accept-Encoding: gzip,deflate\n{\"job\":\"zion resident\"}\n\n12:17:59.946 response time in milliseconds: 2216\n1 < 200\n1 < Date: Fri, 10 Nov 2023 06:47:41 GMT\n1 < Content-Type: application\/json; charset=utf-8\n1 < Transfer-Encoding: chunked\n1 < Connection: keep-alive\n1 < Report-To: {\"group\":\"heroku-nel\",\"max_age\":3600,\"endpoints\":[{\"url\":\"https:\/\/nel.heroku.com\/reports?ts=1699598861&sid=c4c9725f-1ab0-44d8-820f-430df2718e11&s=YyRQLuwE8YyevnO6MmVCc9KXlvHayupFhd2iNdO6LlE%3D\"}]}\n1 < Reporting-Endpoints: heroku-nel=https:\/\/nel.heroku.com\/reports?ts=1699598861&sid=c4c9725f-1ab0-44d8-820f-430df2718e11&s=YyRQLuwE8YyevnO6MmVCc9KXlvHayupFhd2iNdO6LlE%3D\n1 < Nel: {\"report_to\":\"heroku-nel\",\"max_age\":3600,\"success_fraction\":0.005,\"failure_fraction\":0.05,\"response_headers\":[\"Via\"]}\n1 < X-Powered-By: Express\n1 < Access-Control-Allow-Origin: *\n1 < Etag: W\/\"3e-KbwpTby4LSDSTS9RAg43rrA2Juo\"\n1 < Via: 1.1 vegur\n1 < CF-Cache-Status: DYNAMIC\n1 < Vary: Accept-Encoding\n1 < Server: cloudflare\n1 < CF-RAY: 823c5873fe91894a-SIN\n{\"job\":\"zion resident\",\"updatedAt\":\"2023-11-10T06:47:41.706Z\"}\n\n"},{"result":{"nanos":28700,"millis":0.0287,"status":"passed"},"step":{"line":39,"prefix":"Then","index":4,"text":"status  200"}},{"result":{"nanos":4163400,"millis":4.1634,"status":"passed"},"step":{"line":40,"prefix":"And","index":5,"text":"match response.job == \"zion resident\""}}],"executorName":"main","line":34,"name":"Update user","description":"","durationMillis":2234.4962,"startTime":1699598877720,"failed":false,"refId":"[5:34]","endTime":1699598879956,"exampleIndex":-1},{"sectionIndex":5,"stepResults":[{"result":{"nanos":1356700,"millis":1.3567,"status":"passed"},"step":{"line":43,"prefix":"Given","index":0,"text":"url \"https:\/\/reqres.in\/api\""}},{"result":{"nanos":558000,"millis":0.558,"status":"passed"},"step":{"line":44,"prefix":"Given","index":1,"text":"path  \"\/users\/2\""}},{"result":{"nanos":1324956600,"millis":1324.9566,"status":"passed"},"step":{"line":45,"prefix":"When","index":2,"text":"method  DELETE"},"stepLog":"12:17:59.983 request:\n1 > DELETE https:\/\/reqres.in\/api\/users\/2\n1 > Host: reqres.in\n1 > Connection: Keep-Alive\n1 > User-Agent: Apache-HttpClient\/4.5.13 (Java\/11.0.19)\n1 > Accept-Encoding: gzip,deflate\n\n\n12:18:01.299 response time in milliseconds: 1316\n1 < 204\n1 < Date: Fri, 10 Nov 2023 06:47:43 GMT\n1 < Content-Length: 0\n1 < Connection: keep-alive\n1 < Report-To: {\"group\":\"heroku-nel\",\"max_age\":3600,\"endpoints\":[{\"url\":\"https:\/\/nel.heroku.com\/reports?ts=1699598863&sid=c4c9725f-1ab0-44d8-820f-430df2718e11&s=LoU5cfy%2Fn1%2BUJGbZJ9vwpVjEwxIyuZcahWFO7sFSgwg%3D\"}]}\n1 < Reporting-Endpoints: heroku-nel=https:\/\/nel.heroku.com\/reports?ts=1699598863&sid=c4c9725f-1ab0-44d8-820f-430df2718e11&s=LoU5cfy%2Fn1%2BUJGbZJ9vwpVjEwxIyuZcahWFO7sFSgwg%3D\n1 < Nel: {\"report_to\":\"heroku-nel\",\"max_age\":3600,\"success_fraction\":0.005,\"failure_fraction\":0.05,\"response_headers\":[\"Via\"]}\n1 < X-Powered-By: Express\n1 < Access-Control-Allow-Origin: *\n1 < Etag: W\/\"2-vyGp6PvFo4RvsFtPoIWeCReyIC8\"\n1 < Via: 1.1 vegur\n1 < CF-Cache-Status: DYNAMIC\n1 < Server: cloudflare\n1 < CF-RAY: 823c587dca66483e-BOM\n\n\n"},{"result":{"nanos":27000,"millis":0.027,"status":"passed"},"step":{"line":46,"prefix":"Then","index":3,"text":"status  204"}}],"executorName":"main","line":42,"name":"Delete user","description":"","durationMillis":1326.8983,"startTime":1699598879975,"failed":false,"refId":"[6:42]","endTime":1699598881304,"exampleIndex":-1}],"callDepth":0,"name":"GET API feature","description":"","resultDate":"2023-11-10 12:18:01 PM","durationMillis":12221.4565,"passedCount":6}