{"failedCount":0,"prefixedPath":"src\/test\/java\/api1.feature","packageQualifiedName":"src.test.java.api1","loopIndex":-1,"relativePath":"src\/test\/java\/api1.feature","scenarioResults":[{"sectionIndex":0,"stepResults":[{"result":{"nanos":94029500,"millis":94.0295,"status":"passed"},"step":{"line":4,"prefix":"Given","index":0,"text":"url \"https:\/\/reqres.in\/api\""}},{"result":{"nanos":611400,"millis":0.6114,"status":"passed"},"step":{"line":5,"prefix":"Given","index":1,"text":"path '\/users'"}},{"result":{"nanos":4134778700,"millis":4134.7787,"status":"passed"},"step":{"line":6,"prefix":"When","index":2,"text":"method GET"},"stepLog":"12:16:11.115 request:\n1 > GET https:\/\/reqres.in\/api\/users\n1 > Host: reqres.in\n1 > Connection: Keep-Alive\n1 > User-Agent: Apache-HttpClient\/4.5.13 (Java\/11.0.19)\n1 > Accept-Encoding: gzip,deflate\n\n\n12:16:14.643 response time in milliseconds: 3516\n1 < 200\n1 < Date: Fri, 10 Nov 2023 06:45:56 GMT\n1 < Content-Type: application\/json; charset=utf-8\n1 < Transfer-Encoding: chunked\n1 < Connection: keep-alive\n1 < X-Powered-By: Express\n1 < Access-Control-Allow-Origin: *\n1 < Etag: W\/\"3e4-2RLXvr5wTg9YQ6aH95CkYoFNuO8\"\n1 < Via: 1.1 vegur\n1 < Cache-Control: max-age=14400\n1 < CF-Cache-Status: HIT\n1 < Age: 4126\n1 < Report-To: {\"endpoints\":[{\"url\":\"https:\\\/\\\/a.nel.cloudflare.com\\\/report\\\/v3?s=hKJLgGP1QUEmEfli%2FsdSGt9sh2ZidV6N3PELlKUl7X4hCkCqUQT0EVwkCMiwNbvdWnWl4raeSw%2F7Z9bdJm1zehG343D4sm3sCNQ60tcm9rcDrjs7hOySUZrKxg%3D%3D\"}],\"group\":\"cf-nel\",\"max_age\":604800}\n1 < NEL: {\"success_fraction\":0,\"report_to\":\"cf-nel\",\"max_age\":604800}\n1 < Vary: Accept-Encoding\n1 < Server: cloudflare\n1 < CF-RAY: 823c55e1f9e14c6b-SIN\n{\"page\":1,\"per_page\":6,\"total\":12,\"total_pages\":2,\"data\":[{\"id\":1,\"email\":\"george.bluth@reqres.in\",\"first_name\":\"George\",\"last_name\":\"Bluth\",\"avatar\":\"https:\/\/reqres.in\/img\/faces\/1-image.jpg\"},{\"id\":2,\"email\":\"janet.weaver@reqres.in\",\"first_name\":\"Janet\",\"last_name\":\"Weaver\",\"avatar\":\"https:\/\/reqres.in\/img\/faces\/2-image.jpg\"},{\"id\":3,\"email\":\"emma.wong@reqres.in\",\"first_name\":\"Emma\",\"last_name\":\"Wong\",\"avatar\":\"https:\/\/reqres.in\/img\/faces\/3-image.jpg\"},{\"id\":4,\"email\":\"eve.holt@reqres.in\",\"first_name\":\"Eve\",\"last_name\":\"Holt\",\"avatar\":\"https:\/\/reqres.in\/img\/faces\/4-image.jpg\"},{\"id\":5,\"email\":\"charles.morris@reqres.in\",\"first_name\":\"Charles\",\"last_name\":\"Morris\",\"avatar\":\"https:\/\/reqres.in\/img\/faces\/5-image.jpg\"},{\"id\":6,\"email\":\"tracey.ramos@reqres.in\",\"first_name\":\"Tracey\",\"last_name\":\"Ramos\",\"avatar\":\"https:\/\/reqres.in\/img\/faces\/6-image.jpg\"}],\"support\":{\"url\":\"https:\/\/reqres.in\/#support-heading\",\"text\":\"To keep ReqRes free, contributions towards server costs are appreciated!\"}}\n\n"},{"result":{"nanos":23900,"millis":0.0239,"status":"passed"},"step":{"line":7,"prefix":"Then","index":3,"text":"status 200"}},{"result":{"nanos":84503100,"millis":84.5031,"status":"passed"},"step":{"line":8,"prefix":"And","index":4,"text":"match response.data[*].id == '#[_ >1]'"}}],"executorName":"main","line":3,"name":"Get a list of users","description":"","durationMillis":4313.9466,"startTime":1699598770501,"failed":false,"refId":"[1:3]","endTime":1699598774833,"exampleIndex":-1},{"sectionIndex":1,"stepResults":[{"result":{"nanos":1253900,"millis":1.2539,"status":"passed"},"step":{"line":12,"prefix":"Given","index":0,"text":"url \"https:\/\/reqres.in\/api\""}},{"result":{"nanos":645500,"millis":0.6455,"status":"passed"},"step":{"line":13,"prefix":"Given","index":1,"text":"path  \"\/user\/2\""}},{"result":{"nanos":2267850900,"millis":2267.8509,"status":"passed"},"step":{"line":14,"prefix":"When","index":2,"text":"method  GET"},"stepLog":"12:16:14.844 request:\n1 > GET https:\/\/reqres.in\/api\/user\/2\n1 > Host: reqres.in\n1 > Connection: Keep-Alive\n1 > User-Agent: Apache-HttpClient\/4.5.13 (Java\/11.0.19)\n1 > Accept-Encoding: gzip,deflate\n\n\n12:16:17.107 response time in milliseconds: 2260\n1 < 200\n1 < Date: Fri, 10 Nov 2023 06:45:59 GMT\n1 < Content-Type: application\/json; charset=utf-8\n1 < Transfer-Encoding: chunked\n1 < Connection: keep-alive\n1 < Report-To: {\"group\":\"heroku-nel\",\"max_age\":3600,\"endpoints\":[{\"url\":\"https:\/\/nel.heroku.com\/reports?ts=1699521351&sid=c4c9725f-1ab0-44d8-820f-430df2718e11&s=zKwa%2BqPAEzaPVpm85sg67KPPgFwCqoyapPb0HTseCro%3D\"}]}\n1 < Reporting-Endpoints: heroku-nel=https:\/\/nel.heroku.com\/reports?ts=1699521351&sid=c4c9725f-1ab0-44d8-820f-430df2718e11&s=zKwa%2BqPAEzaPVpm85sg67KPPgFwCqoyapPb0HTseCro%3D\n1 < Nel: {\"report_to\":\"heroku-nel\",\"max_age\":3600,\"success_fraction\":0.005,\"failure_fraction\":0.05,\"response_headers\":[\"Via\"]}\n1 < X-Powered-By: Express\n1 < Access-Control-Allow-Origin: *\n1 < Etag: W\/\"e8-ov4wWh4\/OY1IMQMqWgskYtOFnVs\"\n1 < Via: 1.1 vegur\n1 < Cache-Control: max-age=14400\n1 < CF-Cache-Status: HIT\n1 < Age: 878\n1 < Vary: Accept-Encoding\n1 < Server: cloudflare\n1 < CF-RAY: 823c55f3dc448983-SIN\n{\"data\":{\"id\":2,\"name\":\"fuchsia rose\",\"year\":2001,\"color\":\"#C74375\",\"pantone_value\":\"17-2031\"},\"support\":{\"url\":\"https:\/\/reqres.in\/#support-heading\",\"text\":\"To keep ReqRes free, contributions towards server costs are appreciated!\"}}\n\n"},{"result":{"nanos":40400,"millis":0.0404,"status":"passed"},"step":{"line":15,"prefix":"Then","index":3,"text":"status  200"}},{"result":{"nanos":29315900,"millis":29.3159,"status":"passed"},"step":{"line":16,"prefix":"And","index":4,"text":"match response.data.id == 2"}}],"executorName":"main","line":11,"name":"Get a single user","description":"","durationMillis":2299.1066,"startTime":1699598774839,"failed":false,"refId":"[2:11]","endTime":1699598777140,"exampleIndex":-1},{"sectionIndex":2,"stepResults":[{"result":{"nanos":1729600,"millis":1.7296,"status":"passed"},"step":{"line":20,"prefix":"Given","index":0,"text":"url \"https:\/\/reqres.in\/api\/users\""}},{"result":{"nanos":1373400,"millis":1.3734,"status":"passed"},"step":{"line":21,"prefix":"Given","index":1,"text":"path  \"\/user\/1\""}},{"result":{"nanos":1676408200,"millis":1676.4082,"status":"passed"},"step":{"line":22,"prefix":"When","index":2,"text":"method  GET"},"stepLog":"12:16:17.164 request:\n1 > GET https:\/\/reqres.in\/api\/users\/user\/1\n1 > Host: reqres.in\n1 > Connection: Keep-Alive\n1 > User-Agent: Apache-HttpClient\/4.5.13 (Java\/11.0.19)\n1 > Accept-Encoding: gzip,deflate\n\n\n12:16:18.832 response time in milliseconds: 1666\n1 < 404\n1 < Date: Fri, 10 Nov 2023 06:46:00 GMT\n1 < Content-Type: application\/json; charset=utf-8\n1 < Content-Length: 2\n1 < Connection: keep-alive\n1 < Report-To: {\"group\":\"heroku-nel\",\"max_age\":3600,\"endpoints\":[{\"url\":\"https:\/\/nel.heroku.com\/reports?ts=1699598760&sid=c4c9725f-1ab0-44d8-820f-430df2718e11&s=vTbX0MHDUWdZzmVg4XfH5bVFfwZnKYHF%2B4KyTTXsKqY%3D\"}]}\n1 < Reporting-Endpoints: heroku-nel=https:\/\/nel.heroku.com\/reports?ts=1699598760&sid=c4c9725f-1ab0-44d8-820f-430df2718e11&s=vTbX0MHDUWdZzmVg4XfH5bVFfwZnKYHF%2B4KyTTXsKqY%3D\n1 < Nel: {\"report_to\":\"heroku-nel\",\"max_age\":3600,\"success_fraction\":0.005,\"failure_fraction\":0.05,\"response_headers\":[\"Via\"]}\n1 < X-Powered-By: Express\n1 < Access-Control-Allow-Origin: *\n1 < Etag: W\/\"2-vyGp6PvFo4RvsFtPoIWeCReyIC8\"\n1 < Via: 1.1 vegur\n1 < Cache-Control: max-age=14400\n1 < CF-Cache-Status: MISS\n1 < Vary: Accept-Encoding\n1 < Server: cloudflare\n1 < CF-RAY: 823c55fd3c756edd-BOM\n{}\n\n"},{"result":{"nanos":45500,"millis":0.0455,"status":"passed"},"step":{"line":23,"prefix":"Then","index":3,"text":"status  404"}}],"executorName":"main","line":19,"name":"Get a single user - user not found","description":"","durationMillis":1679.5567,"startTime":1699598777156,"failed":false,"refId":"[3:19]","endTime":1699598778837,"exampleIndex":-1},{"sectionIndex":3,"stepResults":[{"result":{"nanos":1649700,"millis":1.6497,"status":"passed"},"step":{"line":27,"prefix":"Given","index":0,"text":"url \"https:\/\/reqres.in\/api\""}},{"result":{"nanos":1760400,"millis":1.7604,"status":"passed"},"step":{"line":28,"prefix":"Given","index":1,"text":"path  \"\/users\""}},{"result":{"nanos":7585400,"millis":7.5854,"status":"passed"},"step":{"line":29,"prefix":"And","index":2,"text":"request {\"name\": \"John Doe\",\"job\":\"Software Engineer\"}"}},{"result":{"nanos":2306347500,"millis":2306.3475,"status":"passed"},"step":{"line":30,"prefix":"When","index":3,"text":"method  POST"},"stepLog":"12:16:19.107 request:\n1 > POST https:\/\/reqres.in\/api\/users\n1 > Content-Type: application\/json; charset=UTF-8\n1 > Content-Length: 45\n1 > Host: reqres.in\n1 > Connection: Keep-Alive\n1 > User-Agent: Apache-HttpClient\/4.5.13 (Java\/11.0.19)\n1 > Accept-Encoding: gzip,deflate\n{\"name\":\"John Doe\",\"job\":\"Software Engineer\"}\n\n12:16:21.171 response time in milliseconds: 2062\n1 < 201\n1 < Date: Fri, 10 Nov 2023 06:46:03 GMT\n1 < Content-Type: application\/json; charset=utf-8\n1 < Content-Length: 95\n1 < Connection: keep-alive\n1 < Report-To: {\"group\":\"heroku-nel\",\"max_age\":3600,\"endpoints\":[{\"url\":\"https:\/\/nel.heroku.com\/reports?ts=1699598763&sid=c4c9725f-1ab0-44d8-820f-430df2718e11&s=jqfxV0Z8mEF8dpgtGLC2XE3JrHKLoxu2Qy8OrSgDv1w%3D\"}]}\n1 < Reporting-Endpoints: heroku-nel=https:\/\/nel.heroku.com\/reports?ts=1699598763&sid=c4c9725f-1ab0-44d8-820f-430df2718e11&s=jqfxV0Z8mEF8dpgtGLC2XE3JrHKLoxu2Qy8OrSgDv1w%3D\n1 < Nel: {\"report_to\":\"heroku-nel\",\"max_age\":3600,\"success_fraction\":0.005,\"failure_fraction\":0.05,\"response_headers\":[\"Via\"]}\n1 < X-Powered-By: Express\n1 < Access-Control-Allow-Origin: *\n1 < Etag: W\/\"5f-tqm38I44so8dDJfSRi\/VK3HtsCw\"\n1 < Via: 1.1 vegur\n1 < CF-Cache-Status: DYNAMIC\n1 < Server: cloudflare\n1 < CF-RAY: 823c560b58d489ad-SIN\n{\"name\":\"John Doe\",\"job\":\"Software Engineer\",\"id\":\"813\",\"createdAt\":\"2023-11-10T06:46:03.050Z\"}\n\n"},{"result":{"nanos":32200,"millis":0.0322,"status":"passed"},"step":{"line":31,"prefix":"Then","index":4,"text":"status  201"}},{"result":{"nanos":2958900,"millis":2.9589,"status":"passed"},"step":{"line":32,"prefix":"And","index":5,"text":"match response.job == \"Software Engineer\""}}],"executorName":"main","line":26,"name":"Create a new user","description":"","durationMillis":2320.3341,"startTime":1699598778855,"failed":false,"refId":"[4:26]","endTime":1699598781176,"exampleIndex":-1},{"sectionIndex":4,"stepResults":[{"result":{"nanos":728300,"millis":0.7283,"status":"passed"},"step":{"line":35,"prefix":"Given","index":0,"text":"url \"https:\/\/reqres.in\/api\""}},{"result":{"nanos":1179100,"millis":1.1791,"status":"passed"},"step":{"line":36,"prefix":"Given","index":1,"text":"path  \"\/users\/2\""}},{"result":{"nanos":738700,"millis":0.7387,"status":"passed"},"step":{"line":37,"prefix":"And","index":2,"text":"request {\"job\": \"zion resident\"}"}},{"result":{"nanos":1102917300,"millis":1102.9173,"status":"passed"},"step":{"line":38,"prefix":"When","index":3,"text":"method  PUT"},"stepLog":"12:16:21.197 request:\n1 > PUT https:\/\/reqres.in\/api\/users\/2\n1 > Content-Type: application\/json; charset=UTF-8\n1 > Content-Length: 23\n1 > Host: reqres.in\n1 > Connection: Keep-Alive\n1 > User-Agent: Apache-HttpClient\/4.5.13 (Java\/11.0.19)\n1 > Accept-Encoding: gzip,deflate\n{\"job\":\"zion resident\"}\n\n12:16:22.293 response time in milliseconds: 1095\n1 < 200\n1 < Date: Fri, 10 Nov 2023 06:46:04 GMT\n1 < Content-Type: application\/json; charset=utf-8\n1 < Transfer-Encoding: chunked\n1 < Connection: keep-alive\n1 < Report-To: {\"group\":\"heroku-nel\",\"max_age\":3600,\"endpoints\":[{\"url\":\"https:\/\/nel.heroku.com\/reports?ts=1699598764&sid=c4c9725f-1ab0-44d8-820f-430df2718e11&s=N%2Ftuf2vMB5IGV2Gpi7ZiX7jYzKrxdG85M0TtSckHALk%3D\"}]}\n1 < Reporting-Endpoints: heroku-nel=https:\/\/nel.heroku.com\/reports?ts=1699598764&sid=c4c9725f-1ab0-44d8-820f-430df2718e11&s=N%2Ftuf2vMB5IGV2Gpi7ZiX7jYzKrxdG85M0TtSckHALk%3D\n1 < Nel: {\"report_to\":\"heroku-nel\",\"max_age\":3600,\"success_fraction\":0.005,\"failure_fraction\":0.05,\"response_headers\":[\"Via\"]}\n1 < X-Powered-By: Express\n1 < Access-Control-Allow-Origin: *\n1 < Etag: W\/\"3e-aqZcElIGRKmEi3XdTMrJ\/FeFG1k\"\n1 < Via: 1.1 vegur\n1 < CF-Cache-Status: DYNAMIC\n1 < Vary: Accept-Encoding\n1 < Server: cloudflare\n1 < CF-RAY: 823c56133fa24236-BOM\n{\"job\":\"zion resident\",\"updatedAt\":\"2023-11-10T06:46:04.339Z\"}\n\n"},{"result":{"nanos":40600,"millis":0.0406,"status":"passed"},"step":{"line":39,"prefix":"Then","index":4,"text":"status  200"}},{"result":{"nanos":3639000,"millis":3.639,"status":"passed"},"step":{"line":40,"prefix":"And","index":5,"text":"match response.job == \"zion resident\""}}],"executorName":"main","line":34,"name":"Update user","description":"","durationMillis":1109.243,"startTime":1699598781189,"failed":false,"refId":"[5:34]","endTime":1699598782300,"exampleIndex":-1},{"sectionIndex":5,"stepResults":[{"result":{"nanos":541200,"millis":0.5412,"status":"passed"},"step":{"line":43,"prefix":"Given","index":0,"text":"url \"https:\/\/reqres.in\/api\""}},{"result":{"nanos":281300,"millis":0.2813,"status":"passed"},"step":{"line":44,"prefix":"Given","index":1,"text":"path  \"\/users\/2\""}},{"result":{"nanos":1855256000,"millis":1855.256,"status":"passed"},"step":{"line":45,"prefix":"When","index":2,"text":"method  DELETE"},"stepLog":"12:16:22.319 request:\n1 > DELETE https:\/\/reqres.in\/api\/users\/2\n1 > Host: reqres.in\n1 > Connection: Keep-Alive\n1 > User-Agent: Apache-HttpClient\/4.5.13 (Java\/11.0.19)\n1 > Accept-Encoding: gzip,deflate\n\n\n12:16:24.168 response time in milliseconds: 1849\n1 < 204\n1 < Date: Fri, 10 Nov 2023 06:46:06 GMT\n1 < Content-Length: 0\n1 < Connection: keep-alive\n1 < X-Powered-By: Express\n1 < Access-Control-Allow-Origin: *\n1 < Etag: W\/\"2-vyGp6PvFo4RvsFtPoIWeCReyIC8\"\n1 < Via: 1.1 vegur\n1 < CF-Cache-Status: DYNAMIC\n1 < Report-To: {\"endpoints\":[{\"url\":\"https:\\\/\\\/a.nel.cloudflare.com\\\/report\\\/v3?s=DqrIpnWW8tvfnmAOUUE89tYw222JsWK%2BwyA1B1se2%2FqdopOuDjZVQ0IuuGwTTAVuK588oW93C%2F%2BC69UQQDSRLTOErYdyCznVt73rfWfloYdfHCD8h0BAFy%2BhVQ%3D%3D\"}],\"group\":\"cf-nel\",\"max_age\":604800}\n1 < NEL: {\"success_fraction\":0,\"report_to\":\"cf-nel\",\"max_age\":604800}\n1 < Server: cloudflare\n1 < CF-RAY: 823c561d6e254d63-SIN\n\n\n"},{"result":{"nanos":28900,"millis":0.0289,"status":"passed"},"step":{"line":46,"prefix":"Then","index":3,"text":"status  204"}}],"executorName":"main","line":42,"name":"Delete user","description":"","durationMillis":1856.1074,"startTime":1699598782314,"failed":false,"refId":"[6:42]","endTime":1699598784171,"exampleIndex":-1}],"callDepth":0,"name":"GET API feature","description":"","resultDate":"2023-11-10 12:16:24 PM","durationMillis":13578.2944,"passedCount":6}