{"failedCount":1,"prefixedPath":"classpath:api1.feature","packageQualifiedName":"api1","loopIndex":-1,"relativePath":"api1.feature","scenarioResults":[{"sectionIndex":0,"stepResults":[{"result":{"nanos":96520700,"millis":96.5207,"status":"passed"},"step":{"line":4,"prefix":"Given","index":0,"text":"url \"https:\/\/reqres.in\/api\""}},{"result":{"nanos":723700,"millis":0.7237,"status":"passed"},"step":{"line":5,"prefix":"Given","index":1,"text":"path '\/users'"}},{"result":{"nanos":2866840300,"millis":2866.8403,"status":"passed"},"step":{"line":6,"prefix":"When","index":2,"text":"method GET"},"stepLog":"22:06:28.632 request:\n1 > GET https:\/\/reqres.in\/api\/users\n1 > Host: reqres.in\n1 > Connection: Keep-Alive\n1 > User-Agent: Apache-HttpClient\/4.5.13 (Java\/11.0.19)\n1 > Accept-Encoding: gzip,deflate\n\n\n22:06:30.689 response time in milliseconds: 2049\n1 < 200\n1 < Date: Tue, 07 Nov 2023 16:36:14 GMT\n1 < Content-Type: application\/json; charset=utf-8\n1 < Transfer-Encoding: chunked\n1 < Connection: keep-alive\n1 < Report-To: {\"group\":\"heroku-nel\",\"max_age\":3600,\"endpoints\":[{\"url\":\"https:\/\/nel.heroku.com\/reports?ts=1699358388&sid=c4c9725f-1ab0-44d8-820f-430df2718e11&s=ti%2B%2BRDQfe9unECaKojAR8IaMCSTrvn6u%2BMX6uCZAdF8%3D\"}]}\n1 < Reporting-Endpoints: heroku-nel=https:\/\/nel.heroku.com\/reports?ts=1699358388&sid=c4c9725f-1ab0-44d8-820f-430df2718e11&s=ti%2B%2BRDQfe9unECaKojAR8IaMCSTrvn6u%2BMX6uCZAdF8%3D\n1 < Nel: {\"report_to\":\"heroku-nel\",\"max_age\":3600,\"success_fraction\":0.005,\"failure_fraction\":0.05,\"response_headers\":[\"Via\"]}\n1 < X-Powered-By: Express\n1 < Access-Control-Allow-Origin: *\n1 < Etag: W\/\"3e4-2RLXvr5wTg9YQ6aH95CkYoFNuO8\"\n1 < Via: 1.1 vegur\n1 < Cache-Control: max-age=14400\n1 < CF-Cache-Status: HIT\n1 < Age: 1630\n1 < Vary: Accept-Encoding\n1 < Server: cloudflare\n1 < CF-RAY: 8226fe76dd1847d5-BOM\n{\"page\":1,\"per_page\":6,\"total\":12,\"total_pages\":2,\"data\":[{\"id\":1,\"email\":\"george.bluth@reqres.in\",\"first_name\":\"George\",\"last_name\":\"Bluth\",\"avatar\":\"https:\/\/reqres.in\/img\/faces\/1-image.jpg\"},{\"id\":2,\"email\":\"janet.weaver@reqres.in\",\"first_name\":\"Janet\",\"last_name\":\"Weaver\",\"avatar\":\"https:\/\/reqres.in\/img\/faces\/2-image.jpg\"},{\"id\":3,\"email\":\"emma.wong@reqres.in\",\"first_name\":\"Emma\",\"last_name\":\"Wong\",\"avatar\":\"https:\/\/reqres.in\/img\/faces\/3-image.jpg\"},{\"id\":4,\"email\":\"eve.holt@reqres.in\",\"first_name\":\"Eve\",\"last_name\":\"Holt\",\"avatar\":\"https:\/\/reqres.in\/img\/faces\/4-image.jpg\"},{\"id\":5,\"email\":\"charles.morris@reqres.in\",\"first_name\":\"Charles\",\"last_name\":\"Morris\",\"avatar\":\"https:\/\/reqres.in\/img\/faces\/5-image.jpg\"},{\"id\":6,\"email\":\"tracey.ramos@reqres.in\",\"first_name\":\"Tracey\",\"last_name\":\"Ramos\",\"avatar\":\"https:\/\/reqres.in\/img\/faces\/6-image.jpg\"}],\"support\":{\"url\":\"https:\/\/reqres.in\/#support-heading\",\"text\":\"To keep ReqRes free, contributions towards server costs are appreciated!\"}}\n\n"},{"result":{"nanos":58401,"millis":0.058401,"status":"passed"},"step":{"line":7,"prefix":"Then","index":3,"text":"status 200"}},{"result":{"nanos":135490600,"millis":135.4906,"status":"passed"},"step":{"line":8,"prefix":"And","index":4,"text":"match response.data[*].id == '#[_ >1]'"}}],"executorName":"main","line":3,"name":"Get a list of users","description":"","durationMillis":3099.633701,"startTime":1699374987842,"failed":false,"refId":"[1:3]","endTime":1699374990963,"exampleIndex":-1},{"sectionIndex":1,"stepResults":[{"result":{"nanos":712200,"millis":0.7122,"status":"passed"},"step":{"line":12,"prefix":"Given","index":0,"text":"url \"https:\/\/reqres.in\/api\/users\""}},{"result":{"nanos":476900,"millis":0.4769,"status":"passed"},"step":{"line":13,"prefix":"Given","index":1,"text":"path  \"1\""}},{"result":{"nanos":250917400,"millis":250.9174,"status":"passed"},"step":{"line":14,"prefix":"When","index":2,"text":"method  GET"},"stepLog":"22:06:30.978 request:\n1 > GET https:\/\/reqres.in\/api\/users\/1\n1 > Host: reqres.in\n1 > Connection: Keep-Alive\n1 > User-Agent: Apache-HttpClient\/4.5.13 (Java\/11.0.19)\n1 > Accept-Encoding: gzip,deflate\n\n\n22:06:31.220 response time in milliseconds: 241\n1 < 200\n1 < Date: Tue, 07 Nov 2023 16:36:15 GMT\n1 < Content-Type: application\/json; charset=utf-8\n1 < Transfer-Encoding: chunked\n1 < Connection: keep-alive\n1 < X-Powered-By: Express\n1 < Access-Control-Allow-Origin: *\n1 < Etag: W\/\"118-P3iKcVpIgCj9HqYeOOrGLX8qJVc\"\n1 < Via: 1.1 vegur\n1 < Cache-Control: max-age=14400\n1 < CF-Cache-Status: HIT\n1 < Age: 4000\n1 < Report-To: {\"endpoints\":[{\"url\":\"https:\\\/\\\/a.nel.cloudflare.com\\\/report\\\/v3?s=cMFPgt3otsBtx78gr3Nkx%2BvdVr%2BD8UNuebwDkTg2UyE1qvcIuqZoGM1w9HWHCWHr%2BHnnvepdBpDJsXrJyh0%2FfoI0wpAORbpz4Lih1rI4G3fTmZOS9WCyG3grbQ%3D%3D\"}],\"group\":\"cf-nel\",\"max_age\":604800}\n1 < NEL: {\"success_fraction\":0,\"report_to\":\"cf-nel\",\"max_age\":604800}\n1 < Vary: Accept-Encoding\n1 < Server: cloudflare\n1 < CF-RAY: 8226fe7a7afd492a-BOM\n{\"data\":{\"id\":1,\"email\":\"george.bluth@reqres.in\",\"first_name\":\"George\",\"last_name\":\"Bluth\",\"avatar\":\"https:\/\/reqres.in\/img\/faces\/1-image.jpg\"},\"support\":{\"url\":\"https:\/\/reqres.in\/#support-heading\",\"text\":\"To keep ReqRes free, contributions towards server costs are appreciated!\"}}\n\n"},{"result":{"nanos":344001,"errorMessage":"status code was: 200, expected: 404, response time in milliseconds: 241, url: https:\/\/reqres.in\/api\/users\/1, response: \n{\"data\":{\"id\":1,\"email\":\"george.bluth@reqres.in\",\"first_name\":\"George\",\"last_name\":\"Bluth\",\"avatar\":\"https:\/\/reqres.in\/img\/faces\/1-image.jpg\"},\"support\":{\"url\":\"https:\/\/reqres.in\/#support-heading\",\"text\":\"To keep ReqRes free, contributions towards server costs are appreciated!\"}}\nclasspath:api1.feature:15","millis":0.344001,"status":"failed"},"step":{"line":15,"prefix":"Then","index":3,"text":"status  404"},"stepLog":"22:06:31.228 classpath:api1.feature:15\nThen status  404\nstatus code was: 200, expected: 404, response time in milliseconds: 241, url: https:\/\/reqres.in\/api\/users\/1, response: \n{\"data\":{\"id\":1,\"email\":\"george.bluth@reqres.in\",\"first_name\":\"George\",\"last_name\":\"Bluth\",\"avatar\":\"https:\/\/reqres.in\/img\/faces\/1-image.jpg\"},\"support\":{\"url\":\"https:\/\/reqres.in\/#support-heading\",\"text\":\"To keep ReqRes free, contributions towards server costs are appreciated!\"}}\nclasspath:api1.feature:15\n"}],"line":11,"description":"","durationMillis":252.450501,"failed":true,"error":"status code was: 200, expected: 404, response time in milliseconds: 241, url: https:\/\/reqres.in\/api\/users\/1, response: \n{\"data\":{\"id\":1,\"email\":\"george.bluth@reqres.in\",\"first_name\":\"George\",\"last_name\":\"Bluth\",\"avatar\":\"https:\/\/reqres.in\/img\/faces\/1-image.jpg\"},\"support\":{\"url\":\"https:\/\/reqres.in\/#support-heading\",\"text\":\"To keep ReqRes free, contributions towards server costs are appreciated!\"}}\nclasspath:api1.feature:15","executorName":"main","name":"Get user details - user not found","startTime":1699374990974,"refId":"[2:11]","endTime":1699374991228,"exampleIndex":-1},{"sectionIndex":2,"stepResults":[{"result":{"nanos":2423700,"millis":2.4237,"status":"passed"},"step":{"line":19,"prefix":"Given","index":0,"text":"url \"https:\/\/reqres.in\/api\""}},{"result":{"nanos":1800301,"millis":1.800301,"status":"passed"},"step":{"line":20,"prefix":"Given","index":1,"text":"path  \"\/users\""}},{"result":{"nanos":8314900,"millis":8.3149,"status":"passed"},"step":{"line":21,"prefix":"And","index":2,"text":"request {\"name\": \"John Doe\",\"job\":\"Software Engineer\"}"}},{"result":{"nanos":861413899,"millis":861.413899,"status":"passed"},"step":{"line":22,"prefix":"When","index":3,"text":"method  POST"},"stepLog":"22:06:31.510 request:\n1 > POST https:\/\/reqres.in\/api\/users\n1 > Content-Type: application\/json; charset=UTF-8\n1 > Content-Length: 45\n1 > Host: reqres.in\n1 > Connection: Keep-Alive\n1 > User-Agent: Apache-HttpClient\/4.5.13 (Java\/11.0.19)\n1 > Accept-Encoding: gzip,deflate\n{\"name\":\"John Doe\",\"job\":\"Software Engineer\"}\n\n22:06:32.137 response time in milliseconds: 626\n1 < 201\n1 < Date: Tue, 07 Nov 2023 16:36:16 GMT\n1 < Content-Type: application\/json; charset=utf-8\n1 < Content-Length: 95\n1 < Connection: keep-alive\n1 < Report-To: {\"group\":\"heroku-nel\",\"max_age\":3600,\"endpoints\":[{\"url\":\"https:\/\/nel.heroku.com\/reports?ts=1699374975&sid=c4c9725f-1ab0-44d8-820f-430df2718e11&s=WGVpmJKHARNEEwAb9FvE3uhyFi41oJuGQpMS7XfZJ0k%3D\"}]}\n1 < Reporting-Endpoints: heroku-nel=https:\/\/nel.heroku.com\/reports?ts=1699374975&sid=c4c9725f-1ab0-44d8-820f-430df2718e11&s=WGVpmJKHARNEEwAb9FvE3uhyFi41oJuGQpMS7XfZJ0k%3D\n1 < Nel: {\"report_to\":\"heroku-nel\",\"max_age\":3600,\"success_fraction\":0.005,\"failure_fraction\":0.05,\"response_headers\":[\"Via\"]}\n1 < X-Powered-By: Express\n1 < Access-Control-Allow-Origin: *\n1 < Etag: W\/\"5f-T\/ax\/QRMy1\/zsxXSOlqr5COwpFQ\"\n1 < Via: 1.1 vegur\n1 < CF-Cache-Status: DYNAMIC\n1 < Server: cloudflare\n1 < CF-RAY: 8226fe7dcaf8419e-BOM\n{\"name\":\"John Doe\",\"job\":\"Software Engineer\",\"id\":\"860\",\"createdAt\":\"2023-11-07T16:36:15.957Z\"}\n\n"},{"result":{"nanos":39999,"millis":0.039999,"status":"passed"},"step":{"line":23,"prefix":"Then","index":4,"text":"status  201"}},{"result":{"nanos":5661800,"millis":5.6618,"status":"passed"},"step":{"line":24,"prefix":"And","index":5,"text":"match response.job == \"Software Engineer\""}}],"executorName":"main","line":18,"name":"Create a new user","description":"","durationMillis":879.654599,"startTime":1699374991269,"failed":false,"refId":"[3:18]","endTime":1699374992151,"exampleIndex":-1},{"sectionIndex":3,"stepResults":[{"result":{"nanos":1257400,"millis":1.2574,"status":"passed"},"step":{"line":27,"prefix":"Given","index":0,"text":"url \"https:\/\/reqres.in\/api\""}},{"result":{"nanos":1964600,"millis":1.9646,"status":"passed"},"step":{"line":28,"prefix":"Given","index":1,"text":"path  \"\/users\/2\""}},{"result":{"nanos":1081800,"millis":1.0818,"status":"passed"},"step":{"line":29,"prefix":"And","index":2,"text":"request {\"job\": \"zion resident\"}"}},{"result":{"nanos":712639600,"millis":712.6396,"status":"passed"},"step":{"line":30,"prefix":"When","index":3,"text":"method  PUT"},"stepLog":"22:06:32.186 request:\n1 > PUT https:\/\/reqres.in\/api\/users\/2\n1 > Content-Type: application\/json; charset=UTF-8\n1 > Content-Length: 23\n1 > Host: reqres.in\n1 > Connection: Keep-Alive\n1 > User-Agent: Apache-HttpClient\/4.5.13 (Java\/11.0.19)\n1 > Accept-Encoding: gzip,deflate\n{\"job\":\"zion resident\"}\n\n22:06:32.886 response time in milliseconds: 699\n1 < 200\n1 < Date: Tue, 07 Nov 2023 16:36:16 GMT\n1 < Content-Type: application\/json; charset=utf-8\n1 < Transfer-Encoding: chunked\n1 < Connection: keep-alive\n1 < X-Powered-By: Express\n1 < Access-Control-Allow-Origin: *\n1 < Etag: W\/\"3e-SMYnmzZ9QAIogUXWrUFaxENyb9A\"\n1 < Via: 1.1 vegur\n1 < CF-Cache-Status: DYNAMIC\n1 < Report-To: {\"endpoints\":[{\"url\":\"https:\\\/\\\/a.nel.cloudflare.com\\\/report\\\/v3?s=JYpXn4K5jPnvbSghwWSSALWCMFd3aw4IvThGElRh4ApRSduEioFhYANioto8ow8k%2BM366ORqT9srCuh8%2BjvwLm%2FcLhrNnjQHsrBRgtSvZrUcqBjYnGQVmyXDyQ%3D%3D\"}],\"group\":\"cf-nel\",\"max_age\":604800}\n1 < NEL: {\"success_fraction\":0,\"report_to\":\"cf-nel\",\"max_age\":604800}\n1 < Vary: Accept-Encoding\n1 < Server: cloudflare\n1 < CF-RAY: 8226fe822c863fe4-BOM\n{\"job\":\"zion resident\",\"updatedAt\":\"2023-11-07T16:36:16.661Z\"}\n\n"},{"result":{"nanos":38500,"millis":0.0385,"status":"passed"},"step":{"line":31,"prefix":"Then","index":4,"text":"status  200"}},{"result":{"nanos":5136500,"millis":5.1365,"status":"passed"},"step":{"line":32,"prefix":"And","index":5,"text":"match response.job == \"zion resident\""}}],"executorName":"main","line":26,"name":"Update user","description":"","durationMillis":722.1184,"startTime":1699374992174,"failed":false,"refId":"[4:26]","endTime":1699374992898,"exampleIndex":-1},{"sectionIndex":4,"stepResults":[{"result":{"nanos":889499,"millis":0.889499,"status":"passed"},"step":{"line":35,"prefix":"Given","index":0,"text":"url \"https:\/\/reqres.in\/api\""}},{"result":{"nanos":424700,"millis":0.4247,"status":"passed"},"step":{"line":36,"prefix":"Given","index":1,"text":"path  \"\/users\/2\""}},{"result":{"nanos":986878100,"millis":986.8781,"status":"passed"},"step":{"line":37,"prefix":"When","index":2,"text":"method  DELETE"},"stepLog":"22:06:32.930 request:\n1 > DELETE https:\/\/reqres.in\/api\/users\/2\n1 > Host: reqres.in\n1 > Connection: Keep-Alive\n1 > User-Agent: Apache-HttpClient\/4.5.13 (Java\/11.0.19)\n1 > Accept-Encoding: gzip,deflate\n\n\n22:06:33.908 response time in milliseconds: 977\n1 < 204\n1 < Date: Tue, 07 Nov 2023 16:36:17 GMT\n1 < Content-Length: 0\n1 < Connection: keep-alive\n1 < X-Powered-By: Express\n1 < Access-Control-Allow-Origin: *\n1 < Etag: W\/\"2-vyGp6PvFo4RvsFtPoIWeCReyIC8\"\n1 < Via: 1.1 vegur\n1 < CF-Cache-Status: DYNAMIC\n1 < Report-To: {\"endpoints\":[{\"url\":\"https:\\\/\\\/a.nel.cloudflare.com\\\/report\\\/v3?s=kCKINhmnVKonAS7oWlHKrRGCWh935mn4HvPV%2FISPA4dlcuqrSgxljpig5yCAyNV9D6eJAeurgYFpvLboUDDawzWpvTdZ%2BfoLiw%2F3dpLmR5wUAMBPVUtfGHBPcg%3D%3D\"}],\"group\":\"cf-nel\",\"max_age\":604800}\n1 < NEL: {\"success_fraction\":0,\"report_to\":\"cf-nel\",\"max_age\":604800}\n1 < Server: cloudflare\n1 < CF-RAY: 8226fe88af2d419f-BOM\n\n\n"},{"result":{"nanos":62000,"millis":0.062,"status":"passed"},"step":{"line":38,"prefix":"Then","index":3,"text":"status  204"}}],"executorName":"main","line":34,"name":"Delete user","description":"","durationMillis":988.254299,"startTime":1699374992923,"failed":false,"refId":"[5:34]","endTime":1699374993912,"exampleIndex":-1}],"callDepth":0,"name":"GET API feature","description":"","resultDate":"2023-11-07 10:06:33 PM","durationMillis":5942.1115,"passedCount":4}