{"failedCount":1,"prefixedPath":"src\/test\/java\/api.feature","packageQualifiedName":"src.test.java.api","loopIndex":-1,"relativePath":"src\/test\/java\/api.feature","scenarioResults":[{"sectionIndex":0,"stepResults":[{"result":{"nanos":68212000,"millis":68.212,"status":"passed"},"step":{"line":4,"prefix":"Given","index":0,"text":"url \"https:\/\/reqres.in\/api\""}},{"result":{"nanos":619600,"millis":0.6196,"status":"passed"},"step":{"line":5,"prefix":"Given","index":1,"text":"path \"\/users\""}},{"result":{"nanos":2266482900,"millis":2266.4829,"status":"passed"},"step":{"line":6,"prefix":"When","index":2,"text":"method GET"},"stepLog":"16:33:17.629 request:\n1 > GET https:\/\/reqres.in\/api\/users\n1 > Host: reqres.in\n1 > Connection: Keep-Alive\n1 > User-Agent: Apache-HttpClient\/4.5.13 (Java\/11.0.19)\n1 > Accept-Encoding: gzip,deflate\n\n\n16:33:19.525 response time in milliseconds: 1891\n1 < 200\n1 < Date: Sun, 05 Nov 2023 11:03:05 GMT\n1 < Content-Type: application\/json; charset=utf-8\n1 < Transfer-Encoding: chunked\n1 < Connection: keep-alive\n1 < Report-To: {\"group\":\"heroku-nel\",\"max_age\":3600,\"endpoints\":[{\"url\":\"https:\/\/nel.heroku.com\/reports?ts=1699144204&sid=c4c9725f-1ab0-44d8-820f-430df2718e11&s=Ud9v%2By41DhHQNR%2BpjR33Zqy2kZ79uViuu9DJ5gmr5EQ%3D\"}]}\n1 < Reporting-Endpoints: heroku-nel=https:\/\/nel.heroku.com\/reports?ts=1699144204&sid=c4c9725f-1ab0-44d8-820f-430df2718e11&s=Ud9v%2By41DhHQNR%2BpjR33Zqy2kZ79uViuu9DJ5gmr5EQ%3D\n1 < Nel: {\"report_to\":\"heroku-nel\",\"max_age\":3600,\"success_fraction\":0.005,\"failure_fraction\":0.05,\"response_headers\":[\"Via\"]}\n1 < X-Powered-By: Express\n1 < Access-Control-Allow-Origin: *\n1 < Etag: W\/\"3e4-2RLXvr5wTg9YQ6aH95CkYoFNuO8\"\n1 < Via: 1.1 vegur\n1 < Cache-Control: max-age=14400\n1 < CF-Cache-Status: HIT\n1 < Age: 6736\n1 < Vary: Accept-Encoding\n1 < Server: cloudflare\n1 < CF-RAY: 82149bb06fee6eec-BOM\n{\"page\":1,\"per_page\":6,\"total\":12,\"total_pages\":2,\"data\":[{\"id\":1,\"email\":\"george.bluth@reqres.in\",\"first_name\":\"George\",\"last_name\":\"Bluth\",\"avatar\":\"https:\/\/reqres.in\/img\/faces\/1-image.jpg\"},{\"id\":2,\"email\":\"janet.weaver@reqres.in\",\"first_name\":\"Janet\",\"last_name\":\"Weaver\",\"avatar\":\"https:\/\/reqres.in\/img\/faces\/2-image.jpg\"},{\"id\":3,\"email\":\"emma.wong@reqres.in\",\"first_name\":\"Emma\",\"last_name\":\"Wong\",\"avatar\":\"https:\/\/reqres.in\/img\/faces\/3-image.jpg\"},{\"id\":4,\"email\":\"eve.holt@reqres.in\",\"first_name\":\"Eve\",\"last_name\":\"Holt\",\"avatar\":\"https:\/\/reqres.in\/img\/faces\/4-image.jpg\"},{\"id\":5,\"email\":\"charles.morris@reqres.in\",\"first_name\":\"Charles\",\"last_name\":\"Morris\",\"avatar\":\"https:\/\/reqres.in\/img\/faces\/5-image.jpg\"},{\"id\":6,\"email\":\"tracey.ramos@reqres.in\",\"first_name\":\"Tracey\",\"last_name\":\"Ramos\",\"avatar\":\"https:\/\/reqres.in\/img\/faces\/6-image.jpg\"}],\"support\":{\"url\":\"https:\/\/reqres.in\/#support-heading\",\"text\":\"To keep ReqRes free, contributions towards server costs are appreciated!\"}}\n\n"},{"result":{"nanos":23100,"millis":0.0231,"status":"passed"},"step":{"line":7,"prefix":"Then","index":3,"text":"status 200"}},{"result":{"nanos":60083000,"millis":60.083,"status":"passed"},"step":{"line":8,"prefix":"And","index":4,"text":"match response.data[*].id == \"#[_ >0]\""}},{"result":{"nanos":0,"errorMessage":"no step-definition method match found for: match response.data[*].email contain \"@\"\nsrc\/test\/java\/api.feature:9","millis":0.0,"status":"failed"},"step":{"line":9,"prefix":"And","index":5,"text":"match response.data[*].email contain \"@\""},"stepLog":"16:33:19.617 src\/test\/java\/api.feature:9\nAnd match response.data[*].email contain \"@\"\nno step-definition method match found for: match response.data[*].email contain \"@\"\nsrc\/test\/java\/api.feature:9\n"}],"line":3,"description":"","durationMillis":2395.4206,"failed":true,"error":"no step-definition method match found for: match response.data[*].email contain \"@\"\nsrc\/test\/java\/api.feature:9","executorName":"main","name":"get a list of users","startTime":1699182197208,"refId":"[1:3]","endTime":1699182199617,"exampleIndex":-1}],"callDepth":0,"name":"GET API feature","description":"","resultDate":"2023-11-05 04:33:19 PM","durationMillis":2395.4206,"passedCount":0}