{"failedCount":1,"prefixedPath":"src\/test\/java\/api1.feature","packageQualifiedName":"src.test.java.api1","loopIndex":-1,"relativePath":"src\/test\/java\/api1.feature","scenarioResults":[{"sectionIndex":0,"stepResults":[{"result":{"nanos":66952100,"millis":66.9521,"status":"passed"},"step":{"line":4,"prefix":"Given","index":0,"text":"url \"https:\/\/reqres.in\/api\""}},{"result":{"nanos":521700,"millis":0.5217,"status":"passed"},"step":{"line":5,"prefix":"Given","index":1,"text":"path '\/users'"}},{"result":{"nanos":1703158900,"millis":1703.1589,"status":"passed"},"step":{"line":6,"prefix":"When","index":2,"text":"method GET"},"stepLog":"14:21:37.052 request:\n1 > GET https:\/\/reqres.in\/api\/users\n1 > Host: reqres.in\n1 > Connection: Keep-Alive\n1 > User-Agent: Apache-HttpClient\/4.5.13 (Java\/11.0.19)\n1 > Accept-Encoding: gzip,deflate\n\n\n14:21:38.380 response time in milliseconds: 1325\n1 < 200\n1 < Date: Mon, 06 Nov 2023 08:51:22 GMT\n1 < Content-Type: application\/json; charset=utf-8\n1 < Transfer-Encoding: chunked\n1 < Connection: keep-alive\n1 < X-Powered-By: Express\n1 < Access-Control-Allow-Origin: *\n1 < Etag: W\/\"3e4-2RLXvr5wTg9YQ6aH95CkYoFNuO8\"\n1 < Via: 1.1 vegur\n1 < Cache-Control: max-age=14400\n1 < CF-Cache-Status: HIT\n1 < Age: 5347\n1 < Report-To: {\"endpoints\":[{\"url\":\"https:\\\/\\\/a.nel.cloudflare.com\\\/report\\\/v3?s=2siEbpwz%2BpcVIOA7JVAS9VDAI36xS%2FHUL%2Bck4ZOY9LgXE4ynFSR7R0zCHPztKYCCUGzrCLQRVCS8ZuM%2FNZ7dsu6dSaPMkcS4zd1FKmdN7HdumhJ8DlYk%2BVplrg%3D%3D\"}],\"group\":\"cf-nel\",\"max_age\":604800}\n1 < NEL: {\"success_fraction\":0,\"report_to\":\"cf-nel\",\"max_age\":604800}\n1 < Vary: Accept-Encoding\n1 < Server: cloudflare\n1 < CF-RAY: 821c1822e99a4b80-SIN\n{\"page\":1,\"per_page\":6,\"total\":12,\"total_pages\":2,\"data\":[{\"id\":1,\"email\":\"george.bluth@reqres.in\",\"first_name\":\"George\",\"last_name\":\"Bluth\",\"avatar\":\"https:\/\/reqres.in\/img\/faces\/1-image.jpg\"},{\"id\":2,\"email\":\"janet.weaver@reqres.in\",\"first_name\":\"Janet\",\"last_name\":\"Weaver\",\"avatar\":\"https:\/\/reqres.in\/img\/faces\/2-image.jpg\"},{\"id\":3,\"email\":\"emma.wong@reqres.in\",\"first_name\":\"Emma\",\"last_name\":\"Wong\",\"avatar\":\"https:\/\/reqres.in\/img\/faces\/3-image.jpg\"},{\"id\":4,\"email\":\"eve.holt@reqres.in\",\"first_name\":\"Eve\",\"last_name\":\"Holt\",\"avatar\":\"https:\/\/reqres.in\/img\/faces\/4-image.jpg\"},{\"id\":5,\"email\":\"charles.morris@reqres.in\",\"first_name\":\"Charles\",\"last_name\":\"Morris\",\"avatar\":\"https:\/\/reqres.in\/img\/faces\/5-image.jpg\"},{\"id\":6,\"email\":\"tracey.ramos@reqres.in\",\"first_name\":\"Tracey\",\"last_name\":\"Ramos\",\"avatar\":\"https:\/\/reqres.in\/img\/faces\/6-image.jpg\"}],\"support\":{\"url\":\"https:\/\/reqres.in\/#support-heading\",\"text\":\"To keep ReqRes free, contributions towards server costs are appreciated!\"}}\n\n"},{"result":{"nanos":25400,"millis":0.0254,"status":"passed"},"step":{"line":7,"prefix":"Then","index":3,"text":"status 200"}},{"result":{"nanos":70144400,"millis":70.1444,"status":"passed"},"step":{"line":8,"prefix":"And","index":4,"text":"match response.data[*].id == '#[_ >1]'"}}],"executorName":"main","line":3,"name":"Get a  list of users","description":"","durationMillis":1840.8025,"startTime":1699260696633,"failed":false,"refId":"[1:3]","endTime":1699260698487,"exampleIndex":-1},{"sectionIndex":1,"stepResults":[{"result":{"nanos":463600,"millis":0.4636,"status":"passed"},"step":{"line":12,"prefix":"Given","index":0,"text":"url \"https:\/\/reqres.in\/api\/users\""}},{"result":{"nanos":349400,"millis":0.3494,"status":"passed"},"step":{"line":13,"prefix":"Given","index":1,"text":"path  \"1\""}},{"result":{"nanos":243924600,"millis":243.9246,"status":"passed"},"step":{"line":14,"prefix":"When","index":2,"text":"method  GET"},"stepLog":"14:21:38.493 request:\n1 > GET https:\/\/reqres.in\/api\/users\/1\n1 > Host: reqres.in\n1 > Connection: Keep-Alive\n1 > User-Agent: Apache-HttpClient\/4.5.13 (Java\/11.0.19)\n1 > Accept-Encoding: gzip,deflate\n\n\n14:21:38.735 response time in milliseconds: 242\n1 < 200\n1 < Date: Mon, 06 Nov 2023 08:51:23 GMT\n1 < Content-Type: application\/json; charset=utf-8\n1 < Transfer-Encoding: chunked\n1 < Connection: keep-alive\n1 < Report-To: {\"group\":\"heroku-nel\",\"max_age\":3600,\"endpoints\":[{\"url\":\"https:\/\/nel.heroku.com\/reports?ts=1698880807&sid=c4c9725f-1ab0-44d8-820f-430df2718e11&s=EZ32FCoUHFVhjvMv3ohFhzlQolaKsKiy3sNTL65dqFA%3D\"}]}\n1 < Reporting-Endpoints: heroku-nel=https:\/\/nel.heroku.com\/reports?ts=1698880807&sid=c4c9725f-1ab0-44d8-820f-430df2718e11&s=EZ32FCoUHFVhjvMv3ohFhzlQolaKsKiy3sNTL65dqFA%3D\n1 < Nel: {\"report_to\":\"heroku-nel\",\"max_age\":3600,\"success_fraction\":0.005,\"failure_fraction\":0.05,\"response_headers\":[\"Via\"]}\n1 < X-Powered-By: Express\n1 < Access-Control-Allow-Origin: *\n1 < Etag: W\/\"118-P3iKcVpIgCj9HqYeOOrGLX8qJVc\"\n1 < Via: 1.1 vegur\n1 < Cache-Control: max-age=14400\n1 < CF-Cache-Status: HIT\n1 < Age: 3919\n1 < Vary: Accept-Encoding\n1 < Server: cloudflare\n1 < CF-RAY: 821c18287fc63b45-BOM\n{\"data\":{\"id\":1,\"email\":\"george.bluth@reqres.in\",\"first_name\":\"George\",\"last_name\":\"Bluth\",\"avatar\":\"https:\/\/reqres.in\/img\/faces\/1-image.jpg\"},\"support\":{\"url\":\"https:\/\/reqres.in\/#support-heading\",\"text\":\"To keep ReqRes free, contributions towards server costs are appreciated!\"}}\n\n"},{"result":{"nanos":136000,"errorMessage":"status code was: 200, expected: 404, response time in milliseconds: 242, url: https:\/\/reqres.in\/api\/users\/1, response: \n{\"data\":{\"id\":1,\"email\":\"george.bluth@reqres.in\",\"first_name\":\"George\",\"last_name\":\"Bluth\",\"avatar\":\"https:\/\/reqres.in\/img\/faces\/1-image.jpg\"},\"support\":{\"url\":\"https:\/\/reqres.in\/#support-heading\",\"text\":\"To keep ReqRes free, contributions towards server costs are appreciated!\"}}\nsrc\/test\/java\/api1.feature:15","millis":0.136,"status":"failed"},"step":{"line":15,"prefix":"Then","index":3,"text":"status  404"},"stepLog":"14:21:38.737 src\/test\/java\/api1.feature:15\nThen status  404\nstatus code was: 200, expected: 404, response time in milliseconds: 242, url: https:\/\/reqres.in\/api\/users\/1, response: \n{\"data\":{\"id\":1,\"email\":\"george.bluth@reqres.in\",\"first_name\":\"George\",\"last_name\":\"Bluth\",\"avatar\":\"https:\/\/reqres.in\/img\/faces\/1-image.jpg\"},\"support\":{\"url\":\"https:\/\/reqres.in\/#support-heading\",\"text\":\"To keep ReqRes free, contributions towards server costs are appreciated!\"}}\nsrc\/test\/java\/api1.feature:15\n"}],"line":11,"description":"","durationMillis":244.8736,"failed":true,"error":"status code was: 200, expected: 404, response time in milliseconds: 242, url: https:\/\/reqres.in\/api\/users\/1, response: \n{\"data\":{\"id\":1,\"email\":\"george.bluth@reqres.in\",\"first_name\":\"George\",\"last_name\":\"Bluth\",\"avatar\":\"https:\/\/reqres.in\/img\/faces\/1-image.jpg\"},\"support\":{\"url\":\"https:\/\/reqres.in\/#support-heading\",\"text\":\"To keep ReqRes free, contributions towards server costs are appreciated!\"}}\nsrc\/test\/java\/api1.feature:15","executorName":"main","name":"get user details - user not found","startTime":1699260698491,"refId":"[2:11]","endTime":1699260698737,"exampleIndex":-1},{"sectionIndex":2,"stepResults":[{"result":{"nanos":1244900,"millis":1.2449,"status":"passed"},"step":{"line":18,"prefix":"Given","index":0,"text":"url \"https:\/\/reqres.in\/api\""}},{"result":{"nanos":954400,"millis":0.9544,"status":"passed"},"step":{"line":19,"prefix":"Given","index":1,"text":"path  \"\/user\/2\""}},{"result":{"nanos":631263200,"millis":631.2632,"status":"passed"},"step":{"line":20,"prefix":"When","index":2,"text":"method  GET"},"stepLog":"14:21:38.750 request:\n1 > GET https:\/\/reqres.in\/api\/user\/2\n1 > Host: reqres.in\n1 > Connection: Keep-Alive\n1 > User-Agent: Apache-HttpClient\/4.5.13 (Java\/11.0.19)\n1 > Accept-Encoding: gzip,deflate\n\n\n14:21:39.378 response time in milliseconds: 627\n1 < 200\n1 < Date: Mon, 06 Nov 2023 08:51:24 GMT\n1 < Content-Type: application\/json; charset=utf-8\n1 < Transfer-Encoding: chunked\n1 < Connection: keep-alive\n1 < X-Powered-By: Express\n1 < Access-Control-Allow-Origin: *\n1 < Etag: W\/\"e8-ov4wWh4\/OY1IMQMqWgskYtOFnVs\"\n1 < Via: 1.1 vegur\n1 < Cache-Control: max-age=14400\n1 < CF-Cache-Status: REVALIDATED\n1 < Report-To: {\"endpoints\":[{\"url\":\"https:\\\/\\\/a.nel.cloudflare.com\\\/report\\\/v3?s=Oz8mZ%2Fv8N3GkktpbT1KJeGrZiYFWVbc68DonHhI2KWLh%2B%2BFPXek9hqEKRKqSW3hy4t3rmxwbXI4lG877uxmIlb2Z7B8W9LRx2cWGtdyzgQ3V1gt1OD04IKOUOA%3D%3D\"}],\"group\":\"cf-nel\",\"max_age\":604800}\n1 < NEL: {\"success_fraction\":0,\"report_to\":\"cf-nel\",\"max_age\":604800}\n1 < Vary: Accept-Encoding\n1 < Server: cloudflare\n1 < CF-RAY: 821c1829e8c785ad-BOM\n{\"data\":{\"id\":2,\"name\":\"fuchsia rose\",\"year\":2001,\"color\":\"#C74375\",\"pantone_value\":\"17-2031\"},\"support\":{\"url\":\"https:\/\/reqres.in\/#support-heading\",\"text\":\"To keep ReqRes free, contributions towards server costs are appreciated!\"}}\n\n"},{"result":{"nanos":12600,"millis":0.0126,"status":"passed"},"step":{"line":21,"prefix":"Then","index":3,"text":"status  200"}},{"result":{"nanos":6827800,"millis":6.8278,"status":"passed"},"step":{"line":22,"prefix":"And","index":4,"text":"match response.data.id == 2"}}],"executorName":"main","line":17,"name":"get a single user","description":"","durationMillis":640.3029,"startTime":1699260698745,"failed":false,"refId":"[3:17]","endTime":1699260699385,"exampleIndex":-1},{"sectionIndex":3,"stepResults":[{"result":{"nanos":204600,"millis":0.2046,"status":"passed"},"step":{"line":25,"prefix":"Given","index":0,"text":"url \"https:\/\/reqres.in\/api\""}},{"result":{"nanos":353600,"millis":0.3536,"status":"passed"},"step":{"line":26,"prefix":"Given","index":1,"text":"path  \"\/users\""}},{"result":{"nanos":1892500,"millis":1.8925,"status":"passed"},"step":{"line":27,"prefix":"And","index":2,"text":"request {\"name\": \"John Doe\",\"job\":\"Software Engineer\"}"}},{"result":{"nanos":1217017900,"millis":1217.0179,"status":"passed"},"step":{"line":28,"prefix":"When","index":3,"text":"method  POST"},"stepLog":"14:21:39.450 request:\n1 > POST https:\/\/reqres.in\/api\/users\n1 > Content-Type: application\/json; charset=UTF-8\n1 > Content-Length: 45\n1 > Host: reqres.in\n1 > Connection: Keep-Alive\n1 > User-Agent: Apache-HttpClient\/4.5.13 (Java\/11.0.19)\n1 > Accept-Encoding: gzip,deflate\n{\"name\":\"John Doe\",\"job\":\"Software Engineer\"}\n\n14:21:40.608 response time in milliseconds: 1157\n1 < 201\n1 < Date: Mon, 06 Nov 2023 08:51:25 GMT\n1 < Content-Type: application\/json; charset=utf-8\n1 < Content-Length: 95\n1 < Connection: keep-alive\n1 < Report-To: {\"group\":\"heroku-nel\",\"max_age\":3600,\"endpoints\":[{\"url\":\"https:\/\/nel.heroku.com\/reports?ts=1699260685&sid=c4c9725f-1ab0-44d8-820f-430df2718e11&s=%2BPbjH%2F%2ByWLJq%2BxX779B3GNIdcgZqoEj9i4n9n8f4HFw%3D\"}]}\n1 < Reporting-Endpoints: heroku-nel=https:\/\/nel.heroku.com\/reports?ts=1699260685&sid=c4c9725f-1ab0-44d8-820f-430df2718e11&s=%2BPbjH%2F%2ByWLJq%2BxX779B3GNIdcgZqoEj9i4n9n8f4HFw%3D\n1 < Nel: {\"report_to\":\"heroku-nel\",\"max_age\":3600,\"success_fraction\":0.005,\"failure_fraction\":0.05,\"response_headers\":[\"Via\"]}\n1 < X-Powered-By: Express\n1 < Access-Control-Allow-Origin: *\n1 < Etag: W\/\"5f-qG8OJRVWyHuoSNhJudH6MQT+Klk\"\n1 < Via: 1.1 vegur\n1 < CF-Cache-Status: DYNAMIC\n1 < Server: cloudflare\n1 < CF-RAY: 821c1830cf40896e-SIN\n{\"name\":\"John Doe\",\"job\":\"Software Engineer\",\"id\":\"987\",\"createdAt\":\"2023-11-06T08:51:25.216Z\"}\n\n"},{"result":{"nanos":10400,"millis":0.0104,"status":"passed"},"step":{"line":29,"prefix":"Then","index":4,"text":"status  201"}},{"result":{"nanos":1081500,"millis":1.0815,"status":"passed"},"step":{"line":30,"prefix":"And","index":5,"text":"match response.job == \"Software Engineer\""}}],"executorName":"main","line":24,"name":"create a new user","description":"","durationMillis":1220.5605,"startTime":1699260699389,"failed":false,"refId":"[4:24]","endTime":1699260700609,"exampleIndex":-1},{"sectionIndex":4,"stepResults":[{"result":{"nanos":248900,"millis":0.2489,"status":"passed"},"step":{"line":33,"prefix":"Given","index":0,"text":"url \"https:\/\/reqres.in\/api\""}},{"result":{"nanos":520200,"millis":0.5202,"status":"passed"},"step":{"line":34,"prefix":"Given","index":1,"text":"path  \"\/users\/2\""}},{"result":{"nanos":274300,"millis":0.2743,"status":"passed"},"step":{"line":35,"prefix":"And","index":2,"text":"request {\"job\": \"zion resident\"}"}},{"result":{"nanos":1522598400,"millis":1522.5984,"status":"passed"},"step":{"line":36,"prefix":"When","index":3,"text":"method  PUT"},"stepLog":"14:21:40.617 request:\n1 > PUT https:\/\/reqres.in\/api\/users\/2\n1 > Content-Type: application\/json; charset=UTF-8\n1 > Content-Length: 23\n1 > Host: reqres.in\n1 > Connection: Keep-Alive\n1 > User-Agent: Apache-HttpClient\/4.5.13 (Java\/11.0.19)\n1 > Accept-Encoding: gzip,deflate\n{\"job\":\"zion resident\"}\n\n14:21:42.138 response time in milliseconds: 1521\n1 < 200\n1 < Date: Mon, 06 Nov 2023 08:51:26 GMT\n1 < Content-Type: application\/json; charset=utf-8\n1 < Transfer-Encoding: chunked\n1 < Connection: keep-alive\n1 < X-Powered-By: Express\n1 < Access-Control-Allow-Origin: *\n1 < Etag: W\/\"3e-h08Z4p3Z4AeZsNfD4C2iLnxuRvs\"\n1 < Via: 1.1 vegur\n1 < CF-Cache-Status: DYNAMIC\n1 < Report-To: {\"endpoints\":[{\"url\":\"https:\\\/\\\/a.nel.cloudflare.com\\\/report\\\/v3?s=1stp%2BUGwI5B0%2B3144EKU%2FYaLtKCqgrrRrsFuAXry1MV%2FpE0FeY6Wfn83ebGrsIW8pQ4Z2123nU2vSHcAOqNQw7EBsel7Ds5XDQTKYcTTT%2BK5bP0l6%2FfMrCtBnQ%3D%3D\"}],\"group\":\"cf-nel\",\"max_age\":604800}\n1 < NEL: {\"success_fraction\":0,\"report_to\":\"cf-nel\",\"max_age\":604800}\n1 < Vary: Accept-Encoding\n1 < Server: cloudflare\n1 < CF-RAY: 821c183a7c4e5ce2-SIN\n{\"job\":\"zion resident\",\"updatedAt\":\"2023-11-06T08:51:26.754Z\"}\n\n"},{"result":{"nanos":9100,"millis":0.0091,"status":"passed"},"step":{"line":37,"prefix":"Then","index":4,"text":"status  200"}},{"result":{"nanos":733600,"millis":0.7336,"status":"passed"},"step":{"line":38,"prefix":"And","index":5,"text":"match response.job == \"zion resident\""}}],"executorName":"main","line":32,"name":"update user","description":"","durationMillis":1524.3845,"startTime":1699260700614,"failed":false,"refId":"[5:32]","endTime":1699260702140,"exampleIndex":-1}],"callDepth":0,"name":"GET API feature","description":"","resultDate":"2023-11-06 02:21:42 PM","durationMillis":5470.924,"passedCount":4}